(footprint "RESC157X85X50L30" (version 20221018) (generator pcbnew)
  (layer "F.Cu")
  (descr "Resistor, Chip; 1.575 mm L X 0.85 mm W X 0.50 mm H body")
  (tags "0603; 1608")
  (attr smd)
  (fp_text reference "REF**" (at 0 -2.54) (layer "F.SilkS")
      (effects (font (size 1 1) (thickness 0.15)))
    (tstamp ec4a51ba-858b-455a-922a-95d58ef690ef)
  )
  (fp_text value "Val**" (at 0 0) (layer "User.1")
      (effects (font (size 0.5 0.5) (thickness 0.06)))
    (tstamp 95b41931-ddbb-4f94-bdfe-660145296ea0)
  )
  (fp_text user "${REFERENCE}" (at 0 0) (layer "F.Fab")
      (effects (font (size 0.5 0.5) (thickness 0.06)))
    (tstamp 522c56c2-317a-4fef-ba93-83abba419e86)
  )
  (fp_line (start -0.195 -0.475) (end 0.195 -0.475)
    (stroke (width 0.155) (type solid)) (layer "F.SilkS") (tstamp 64f01fd2-b1ca-4e9d-9ae2-9285fa8a5b6d))
  (fp_line (start -0.195 0.475) (end 0.195 0.475)
    (stroke (width 0.155) (type solid)) (layer "F.SilkS") (tstamp 24253fc1-0e6d-42b1-ba32-03cc9100d513))
  (fp_line (start -0.788 -0.425) (end -0.488 -0.425)
    (stroke (width 0.025) (type solid)) (layer "Dwgs.User") (tstamp 27be26ba-723f-4801-9c9c-711e50322fcd))
  (fp_line (start -0.788 -0.425) (end 0.788 -0.425)
    (stroke (width 0.025) (type solid)) (layer "Dwgs.User") (tstamp e232aadc-c2d6-41ec-b681-08e741f0951a))
  (fp_line (start -0.788 0.425) (end -0.788 -0.425)
    (stroke (width 0.025) (type solid)) (layer "Dwgs.User") (tstamp c7ce1cd6-aa06-4f1a-87ba-15b65702994c))
  (fp_line (start -0.788 0.425) (end -0.788 -0.425)
    (stroke (width 0.025) (type solid)) (layer "Dwgs.User") (tstamp d75b195c-2c3b-4890-a744-55a4a925bf16))
  (fp_line (start -0.488 -0.425) (end -0.488 0.425)
    (stroke (width 0.025) (type solid)) (layer "Dwgs.User") (tstamp 64120fcc-f8dd-4a28-ba29-e430569e1f88))
  (fp_line (start -0.488 0.425) (end -0.788 0.425)
    (stroke (width 0.025) (type solid)) (layer "Dwgs.User") (tstamp a07cd855-d65e-45e1-bc1e-bc4c962ff448))
  (fp_line (start 0.488 -0.425) (end 0.788 -0.425)
    (stroke (width 0.025) (type solid)) (layer "Dwgs.User") (tstamp 783356e8-7c1b-42f4-a010-7c7b7a79e62e))
  (fp_line (start 0.488 0.425) (end 0.488 -0.425)
    (stroke (width 0.025) (type solid)) (layer "Dwgs.User") (tstamp ae1341b8-fb8c-46fb-98ae-522022047081))
  (fp_line (start 0.788 -0.425) (end 0.788 0.425)
    (stroke (width 0.025) (type solid)) (layer "Dwgs.User") (tstamp 5b5d39d0-13eb-47d3-a80d-b2b20e2336f3))
  (fp_line (start 0.788 -0.425) (end 0.788 0.425)
    (stroke (width 0.025) (type solid)) (layer "Dwgs.User") (tstamp 5f63b378-8998-44e2-bf0a-4bf84d25ca7b))
  (fp_line (start 0.788 0.425) (end -0.788 0.425)
    (stroke (width 0.025) (type solid)) (layer "Dwgs.User") (tstamp 8131587f-5c2e-430d-b5a8-ef5d16c93cae))
  (fp_line (start 0.788 0.425) (end 0.488 0.425)
    (stroke (width 0.025) (type solid)) (layer "Dwgs.User") (tstamp 4d6e7e04-65e5-45a3-a1b5-ba932593a7de))
  (fp_line (start -1.325 -0.7) (end 1.325 -0.7)
    (stroke (width 0.05) (type solid)) (layer "F.CrtYd") (tstamp 4b73a954-0e1b-4f75-8227-b9f27e254fbf))
  (fp_line (start -1.325 0.7) (end -1.325 -0.7)
    (stroke (width 0.05) (type solid)) (layer "F.CrtYd") (tstamp 6a91f306-62b6-4b52-8659-d5d804afef30))
  (fp_line (start 0 -0.35) (end 0 0.35)
    (stroke (width 0.05) (type solid)) (layer "F.CrtYd") (tstamp 4cbd9671-abd7-4ae0-a15d-4dd5250751ba))
  (fp_line (start 0.35 0) (end -0.35 0)
    (stroke (width 0.05) (type solid)) (layer "F.CrtYd") (tstamp 82a6c0f7-474a-4953-99d4-957029629742))
  (fp_line (start 1.325 -0.7) (end 1.325 0.7)
    (stroke (width 0.05) (type solid)) (layer "F.CrtYd") (tstamp 6b201779-f5c7-40b2-a06c-25ab26acf7f8))
  (fp_line (start 1.325 0.7) (end -1.325 0.7)
    (stroke (width 0.05) (type solid)) (layer "F.CrtYd") (tstamp a391bd90-18b4-4f5a-998b-43a0106ec0ea))
  (fp_circle (center 0 0) (end 0 0.25)
    (stroke (width 0.05) (type solid)) (fill none) (layer "F.CrtYd") (tstamp 6d22bd78-ac05-4c28-9ba1-f048cca4b1a4))
  (fp_line (start -0.825 -0.475) (end 0.825 -0.475)
    (stroke (width 0.12) (type solid)) (layer "F.Fab") (tstamp 19aa4f8c-67b6-46b6-b983-8476d2d1f51f))
  (fp_line (start -0.825 0.475) (end -0.825 -0.475)
    (stroke (width 0.12) (type solid)) (layer "F.Fab") (tstamp 80698db8-a847-43a6-970c-db887c741be3))
  (fp_line (start 0.825 -0.475) (end 0.825 0.475)
    (stroke (width 0.12) (type solid)) (layer "F.Fab") (tstamp 4e95e5be-7bad-4fa9-b5c4-ee146072acbb))
  (fp_line (start 0.825 0.475) (end -0.825 0.475)
    (stroke (width 0.12) (type solid)) (layer "F.Fab") (tstamp 9a607a99-3948-462f-9c0e-be11530b9266))
  (pad "1" smd roundrect (at -0.75 0) (size 0.75 1) (layers "F.Cu" "F.Paste" "F.Mask") (roundrect_rratio 0.2507) (tstamp 69be01a4-18ea-404c-9e83-77b411b053ff))
  (pad "2" smd roundrect (at 0.75 0) (size 0.75 1) (layers "F.Cu" "F.Paste" "F.Mask") (roundrect_rratio 0.2507) (tstamp c5661c05-84de-41a9-8c41-fdeb0347de2d))
  (model "D:/OneDrive/work/destinationSpace/development/hardware/.sharedResources/kicad/Destination_Space_Master/.models/CRCW0603.STEP"
    (offset (xyz 0 0 0))
    (scale (xyz 1 1 1))
    (rotate (xyz -90 0 0))
  )
)
