(module RESCAXS16P50_380X160X55L30X30N (layer F.Cu) (tedit 0)
  (descr "Resistor, Chip Array, 2-Sided Convex, 0.50 mm pitch; 16 pin, 3.80 mm L X 1.60 mm W X 0.55 mm H body")
  (attr smd)
  (fp_text user %R (at 0 0) (layer F.Fab)
    (effects (font (size 1.22 1.22) (thickness 0.12)))
  )
  (fp_text reference REF** (at 0 0) (layer F.SilkS)
    (effects (font (size 1.2 1.2) (thickness 0.12)))
  )
  (fp_line (start -1.95 0.5) (end -1.6 0.5) (layer Dwgs.User) (width 0.025))
  (fp_line (start -1.6 0.5) (end -1.6 0.8) (layer Dwgs.User) (width 0.025))
  (fp_line (start -1.6 0.8) (end -1.95 0.8) (layer Dwgs.User) (width 0.025))
  (fp_line (start -1.95 0.8) (end -1.95 0.5) (layer Dwgs.User) (width 0.025))
  (fp_line (start -1.4 0.5) (end -1.1 0.5) (layer Dwgs.User) (width 0.025))
  (fp_line (start -1.1 0.5) (end -1.1 0.8) (layer Dwgs.User) (width 0.025))
  (fp_line (start -1.1 0.8) (end -1.4 0.8) (layer Dwgs.User) (width 0.025))
  (fp_line (start -1.4 0.8) (end -1.4 0.5) (layer Dwgs.User) (width 0.025))
  (fp_line (start -0.9 0.5) (end -0.6 0.5) (layer Dwgs.User) (width 0.025))
  (fp_line (start -0.6 0.5) (end -0.6 0.8) (layer Dwgs.User) (width 0.025))
  (fp_line (start -0.6 0.8) (end -0.9 0.8) (layer Dwgs.User) (width 0.025))
  (fp_line (start -0.9 0.8) (end -0.9 0.5) (layer Dwgs.User) (width 0.025))
  (fp_line (start -0.4 0.5) (end -0.1 0.5) (layer Dwgs.User) (width 0.025))
  (fp_line (start -0.1 0.5) (end -0.1 0.8) (layer Dwgs.User) (width 0.025))
  (fp_line (start -0.1 0.8) (end -0.4 0.8) (layer Dwgs.User) (width 0.025))
  (fp_line (start -0.4 0.8) (end -0.4 0.5) (layer Dwgs.User) (width 0.025))
  (fp_line (start 0.1 0.5) (end 0.4 0.5) (layer Dwgs.User) (width 0.025))
  (fp_line (start 0.4 0.5) (end 0.4 0.8) (layer Dwgs.User) (width 0.025))
  (fp_line (start 0.4 0.8) (end 0.1 0.8) (layer Dwgs.User) (width 0.025))
  (fp_line (start 0.1 0.8) (end 0.1 0.5) (layer Dwgs.User) (width 0.025))
  (fp_line (start 0.6 0.5) (end 0.9 0.5) (layer Dwgs.User) (width 0.025))
  (fp_line (start 0.9 0.5) (end 0.9 0.8) (layer Dwgs.User) (width 0.025))
  (fp_line (start 0.9 0.8) (end 0.6 0.8) (layer Dwgs.User) (width 0.025))
  (fp_line (start 0.6 0.8) (end 0.6 0.5) (layer Dwgs.User) (width 0.025))
  (fp_line (start 1.1 0.5) (end 1.4 0.5) (layer Dwgs.User) (width 0.025))
  (fp_line (start 1.4 0.5) (end 1.4 0.8) (layer Dwgs.User) (width 0.025))
  (fp_line (start 1.4 0.8) (end 1.1 0.8) (layer Dwgs.User) (width 0.025))
  (fp_line (start 1.1 0.8) (end 1.1 0.5) (layer Dwgs.User) (width 0.025))
  (fp_line (start 1.6 0.5) (end 1.95 0.5) (layer Dwgs.User) (width 0.025))
  (fp_line (start 1.95 0.5) (end 1.95 0.8) (layer Dwgs.User) (width 0.025))
  (fp_line (start 1.95 0.8) (end 1.6 0.8) (layer Dwgs.User) (width 0.025))
  (fp_line (start 1.6 0.8) (end 1.6 0.5) (layer Dwgs.User) (width 0.025))
  (fp_line (start 1.95 -0.5) (end 1.6 -0.5) (layer Dwgs.User) (width 0.025))
  (fp_line (start 1.6 -0.5) (end 1.6 -0.8) (layer Dwgs.User) (width 0.025))
  (fp_line (start 1.6 -0.8) (end 1.95 -0.8) (layer Dwgs.User) (width 0.025))
  (fp_line (start 1.95 -0.8) (end 1.95 -0.5) (layer Dwgs.User) (width 0.025))
  (fp_line (start 1.4 -0.5) (end 1.1 -0.5) (layer Dwgs.User) (width 0.025))
  (fp_line (start 1.1 -0.5) (end 1.1 -0.8) (layer Dwgs.User) (width 0.025))
  (fp_line (start 1.1 -0.8) (end 1.4 -0.8) (layer Dwgs.User) (width 0.025))
  (fp_line (start 1.4 -0.8) (end 1.4 -0.5) (layer Dwgs.User) (width 0.025))
  (fp_line (start 0.9 -0.5) (end 0.6 -0.5) (layer Dwgs.User) (width 0.025))
  (fp_line (start 0.6 -0.5) (end 0.6 -0.8) (layer Dwgs.User) (width 0.025))
  (fp_line (start 0.6 -0.8) (end 0.9 -0.8) (layer Dwgs.User) (width 0.025))
  (fp_line (start 0.9 -0.8) (end 0.9 -0.5) (layer Dwgs.User) (width 0.025))
  (fp_line (start 0.4 -0.5) (end 0.1 -0.5) (layer Dwgs.User) (width 0.025))
  (fp_line (start 0.1 -0.5) (end 0.1 -0.8) (layer Dwgs.User) (width 0.025))
  (fp_line (start 0.1 -0.8) (end 0.4 -0.8) (layer Dwgs.User) (width 0.025))
  (fp_line (start 0.4 -0.8) (end 0.4 -0.5) (layer Dwgs.User) (width 0.025))
  (fp_line (start -0.1 -0.5) (end -0.4 -0.5) (layer Dwgs.User) (width 0.025))
  (fp_line (start -0.4 -0.5) (end -0.4 -0.8) (layer Dwgs.User) (width 0.025))
  (fp_line (start -0.4 -0.8) (end -0.1 -0.8) (layer Dwgs.User) (width 0.025))
  (fp_line (start -0.1 -0.8) (end -0.1 -0.5) (layer Dwgs.User) (width 0.025))
  (fp_line (start -0.6 -0.5) (end -0.9 -0.5) (layer Dwgs.User) (width 0.025))
  (fp_line (start -0.9 -0.5) (end -0.9 -0.8) (layer Dwgs.User) (width 0.025))
  (fp_line (start -0.9 -0.8) (end -0.6 -0.8) (layer Dwgs.User) (width 0.025))
  (fp_line (start -0.6 -0.8) (end -0.6 -0.5) (layer Dwgs.User) (width 0.025))
  (fp_line (start -1.1 -0.5) (end -1.4 -0.5) (layer Dwgs.User) (width 0.025))
  (fp_line (start -1.4 -0.5) (end -1.4 -0.8) (layer Dwgs.User) (width 0.025))
  (fp_line (start -1.4 -0.8) (end -1.1 -0.8) (layer Dwgs.User) (width 0.025))
  (fp_line (start -1.1 -0.8) (end -1.1 -0.5) (layer Dwgs.User) (width 0.025))
  (fp_line (start -1.6 -0.5) (end -1.95 -0.5) (layer Dwgs.User) (width 0.025))
  (fp_line (start -1.95 -0.5) (end -1.95 -0.8) (layer Dwgs.User) (width 0.025))
  (fp_line (start -1.95 -0.8) (end -1.6 -0.8) (layer Dwgs.User) (width 0.025))
  (fp_line (start -1.6 -0.8) (end -1.6 -0.5) (layer Dwgs.User) (width 0.025))
  (fp_line (start -1.9 0.8) (end -1.9 -0.8) (layer Dwgs.User) (width 0.025))
  (fp_line (start -1.9 -0.8) (end 1.9 -0.8) (layer Dwgs.User) (width 0.025))
  (fp_line (start 1.9 -0.8) (end 1.9 0.8) (layer Dwgs.User) (width 0.025))
  (fp_line (start 1.9 0.8) (end -1.9 0.8) (layer Dwgs.User) (width 0.025))
  (fp_line (start 2.144 0.85) (end 2.144 -0.85) (layer F.SilkS) (width 0.12))
  (fp_line (start -2.144 0.85) (end -2.144 -0.85) (layer F.SilkS) (width 0.12))
  (fp_circle (center -2.334 1.28) (end -2.334 1.405) (layer F.SilkS) (width 0.25))
  (fp_circle (center 0 0) (end 0 0.25) (layer F.CrtYd) (width 0.05))
  (fp_line (start 0 -0.35) (end 0 0.35) (layer F.CrtYd) (width 0.05))
  (fp_line (start -0.35 0) (end 0.35 0) (layer F.CrtYd) (width 0.05))
  (fp_line (start 1.95 0.85) (end -1.383 0.85) (layer F.Fab) (width 0.12))
  (fp_line (start -1.383 0.85) (end -1.95 0.283) (layer F.Fab) (width 0.12))
  (fp_line (start -1.95 0.283) (end -1.95 -0.85) (layer F.Fab) (width 0.12))
  (fp_line (start -1.95 -0.85) (end 1.95 -0.85) (layer F.Fab) (width 0.12))
  (fp_line (start 1.95 -0.85) (end 1.95 0.85) (layer F.Fab) (width 0.12))
  (fp_line (start 2.204 1.05) (end 2.204 -1.05) (layer F.CrtYd) (width 0.05))
  (fp_line (start 2.204 -1.05) (end 2.164 -1.05) (layer F.CrtYd) (width 0.05))
  (fp_line (start 2.164 -1.05) (end 2.164 -1.315) (layer F.CrtYd) (width 0.05))
  (fp_line (start 2.164 -1.315) (end -2.164 -1.315) (layer F.CrtYd) (width 0.05))
  (fp_line (start -2.164 -1.315) (end -2.164 -1.05) (layer F.CrtYd) (width 0.05))
  (fp_line (start -2.164 -1.05) (end -2.204 -1.05) (layer F.CrtYd) (width 0.05))
  (fp_line (start -2.204 -1.05) (end -2.204 1.05) (layer F.CrtYd) (width 0.05))
  (fp_line (start -2.204 1.05) (end -2.164 1.05) (layer F.CrtYd) (width 0.05))
  (fp_line (start -2.164 1.05) (end -2.164 1.315) (layer F.CrtYd) (width 0.05))
  (fp_line (start -2.164 1.315) (end 2.164 1.315) (layer F.CrtYd) (width 0.05))
  (fp_line (start 2.164 1.315) (end 2.164 1.05) (layer F.CrtYd) (width 0.05))
  (fp_line (start 2.164 1.05) (end 2.204 1.05) (layer F.CrtYd) (width 0.05))
  (pad 1 smd rect (at -1.775 0.78 90) (size 0.67 0.379) (layers F.Cu F.Paste F.Mask))
  (pad 2 smd rect (at -1.25 0.78 90) (size 0.67 0.329) (layers F.Cu F.Paste F.Mask))
  (pad 3 smd rect (at -0.75 0.78 90) (size 0.67 0.329) (layers F.Cu F.Paste F.Mask))
  (pad 4 smd rect (at -0.25 0.78 90) (size 0.67 0.329) (layers F.Cu F.Paste F.Mask))
  (pad 5 smd rect (at 0.25 0.78 90) (size 0.67 0.329) (layers F.Cu F.Paste F.Mask))
  (pad 6 smd rect (at 0.75 0.78 90) (size 0.67 0.329) (layers F.Cu F.Paste F.Mask))
  (pad 7 smd rect (at 1.25 0.78 90) (size 0.67 0.329) (layers F.Cu F.Paste F.Mask))
  (pad 8 smd rect (at 1.775 0.78 90) (size 0.67 0.379) (layers F.Cu F.Paste F.Mask))
  (pad 9 smd rect (at 1.775 -0.78 90) (size 0.67 0.379) (layers F.Cu F.Paste F.Mask))
  (pad 10 smd rect (at 1.25 -0.78 90) (size 0.67 0.329) (layers F.Cu F.Paste F.Mask))
  (pad 11 smd rect (at 0.75 -0.78 90) (size 0.67 0.329) (layers F.Cu F.Paste F.Mask))
  (pad 12 smd rect (at 0.25 -0.78 90) (size 0.67 0.329) (layers F.Cu F.Paste F.Mask))
  (pad 13 smd rect (at -0.25 -0.78 90) (size 0.67 0.329) (layers F.Cu F.Paste F.Mask))
  (pad 14 smd rect (at -0.75 -0.78 90) (size 0.67 0.329) (layers F.Cu F.Paste F.Mask))
  (pad 15 smd rect (at -1.25 -0.78 90) (size 0.67 0.329) (layers F.Cu F.Paste F.Mask))
  (pad 16 smd rect (at -1.775 -0.78 90) (size 0.67 0.379) (layers F.Cu F.Paste F.Mask))
)
