(footprint "RESC635X318X90L221N" (version 20221018) (generator pcbnew)
  (layer "F.Cu")
  (descr "Resistor, Chip; 6.35 mm L X 3.18 mm W X 0.90 mm H body")
  (attr smd)
  (fp_text reference "REF**" (at 0 -2.54) (layer "F.SilkS")
      (effects (font (size 1 1) (thickness 0.15)))
    (tstamp 578ea9d2-ffe5-4f77-9b48-f6c8e4636977)
  )
  (fp_text value "Val**" (at 0 0) (layer "User.1")
      (effects (font (size 1.27 1.27) (thickness 0.15)))
    (tstamp 45698ed9-9de1-4926-91de-5e6b6973bc86)
  )
  (fp_text user "${REFERENCE}" (at 0 0) (layer "F.Fab")
      (effects (font (size 2 2) (thickness 0.2)))
    (tstamp dc9fa12c-15ad-47e8-a7a8-a1102d3d0037)
  )
  (fp_line (start -0.562 -1.717) (end 0.562 -1.717)
    (stroke (width 0.12) (type solid)) (layer "F.SilkS") (tstamp 6e224069-3200-476c-80d4-94c18560098d))
  (fp_line (start -0.562 1.717) (end 0.562 1.717)
    (stroke (width 0.12) (type solid)) (layer "F.SilkS") (tstamp 403c664e-9c55-4bd7-a897-fca7054730af))
  (fp_line (start -3.175 -1.59) (end -0.965 -1.59)
    (stroke (width 0.025) (type solid)) (layer "Dwgs.User") (tstamp 63967948-8582-4cdb-9a36-cbf0352ffd94))
  (fp_line (start -3.175 -1.59) (end 3.175 -1.59)
    (stroke (width 0.025) (type solid)) (layer "Dwgs.User") (tstamp 2c7d767f-e677-4bcc-8097-7b4dbdf553c7))
  (fp_line (start -3.175 1.59) (end -3.175 -1.59)
    (stroke (width 0.025) (type solid)) (layer "Dwgs.User") (tstamp 95f33104-2ccc-49b9-961d-7d85b93414ff))
  (fp_line (start -3.175 1.59) (end -3.175 -1.59)
    (stroke (width 0.025) (type solid)) (layer "Dwgs.User") (tstamp a14f72bd-8dd1-425e-a438-df038e412433))
  (fp_line (start -0.965 -1.59) (end -0.965 1.59)
    (stroke (width 0.025) (type solid)) (layer "Dwgs.User") (tstamp 21add80c-0cae-4c04-a6b9-dec21a02520f))
  (fp_line (start -0.965 1.59) (end -3.175 1.59)
    (stroke (width 0.025) (type solid)) (layer "Dwgs.User") (tstamp 3e1805ce-0321-49e2-97ec-3fdffa1bdaf9))
  (fp_line (start 0.965 -1.59) (end 3.175 -1.59)
    (stroke (width 0.025) (type solid)) (layer "Dwgs.User") (tstamp 78c14b0e-d9a6-49c3-88cf-b19d04fb03dc))
  (fp_line (start 0.965 1.59) (end 0.965 -1.59)
    (stroke (width 0.025) (type solid)) (layer "Dwgs.User") (tstamp f978762e-0a9d-4dd8-a065-457ace28cf67))
  (fp_line (start 3.175 -1.59) (end 3.175 1.59)
    (stroke (width 0.025) (type solid)) (layer "Dwgs.User") (tstamp 1fd6706d-bc8b-4fb2-a4df-a7784560ff2a))
  (fp_line (start 3.175 -1.59) (end 3.175 1.59)
    (stroke (width 0.025) (type solid)) (layer "Dwgs.User") (tstamp b43d3bb6-8ce8-443d-abf2-42d811c902a7))
  (fp_line (start 3.175 1.59) (end -3.175 1.59)
    (stroke (width 0.025) (type solid)) (layer "Dwgs.User") (tstamp fee5600e-05f5-49ec-a4ee-0550eb8d055e))
  (fp_line (start 3.175 1.59) (end 0.965 1.59)
    (stroke (width 0.025) (type solid)) (layer "Dwgs.User") (tstamp af6263ba-9cac-43bc-9d1f-b99fbf6de7dd))
  (fp_line (start -4.008 -1.923) (end 4.008 -1.923)
    (stroke (width 0.05) (type solid)) (layer "F.CrtYd") (tstamp 9a227ed4-228b-430e-a79d-eaea2b650730))
  (fp_line (start -4.008 1.923) (end -4.008 -1.923)
    (stroke (width 0.05) (type solid)) (layer "F.CrtYd") (tstamp 9ede9deb-bfb5-4066-a87c-bf4697ad62b1))
  (fp_line (start 0 -0.35) (end 0 0.35)
    (stroke (width 0.05) (type solid)) (layer "F.CrtYd") (tstamp 98e717ab-9112-49a0-a3ed-d46130c66836))
  (fp_line (start 0.35 0) (end -0.35 0)
    (stroke (width 0.05) (type solid)) (layer "F.CrtYd") (tstamp edcef095-f734-408a-8bc4-d7620acdac7e))
  (fp_line (start 4.008 -1.923) (end 4.008 1.923)
    (stroke (width 0.05) (type solid)) (layer "F.CrtYd") (tstamp de27a0f8-893d-4bfa-89c5-e77df609befa))
  (fp_line (start 4.008 1.923) (end -4.008 1.923)
    (stroke (width 0.05) (type solid)) (layer "F.CrtYd") (tstamp 0b2ac481-8764-418d-8984-fe953b86f7ca))
  (fp_circle (center 0 0) (end 0 0.25)
    (stroke (width 0.05) (type solid)) (fill none) (layer "F.CrtYd") (tstamp 7c9ed647-ca1a-4099-b89e-385a5c903653))
  (fp_line (start -3.302 -1.717) (end 3.302 -1.717)
    (stroke (width 0.12) (type solid)) (layer "F.Fab") (tstamp 650f2a84-6494-49bd-ac48-29798855740b))
  (fp_line (start -3.302 1.717) (end -3.302 -1.717)
    (stroke (width 0.12) (type solid)) (layer "F.Fab") (tstamp 75e6f9df-a779-4b38-b897-286617f502d3))
  (fp_line (start 3.302 -1.717) (end 3.302 1.717)
    (stroke (width 0.12) (type solid)) (layer "F.Fab") (tstamp 9f1f2d0b-751b-454f-ab76-fbd6bc9fc3bf))
  (fp_line (start 3.302 1.717) (end -3.302 1.717)
    (stroke (width 0.12) (type solid)) (layer "F.Fab") (tstamp 53568ac3-7a89-4607-9087-2100f772036c))
  (pad "1" smd roundrect (at -2.275 0) (size 3.067 3.446) (layers "F.Cu" "F.Paste" "F.Mask") (roundrect_rratio 0.0652) (tstamp 47e37423-5fc7-4981-8f9f-a0e29ed2d471))
  (pad "2" smd roundrect (at 2.275 0) (size 3.067 3.446) (layers "F.Cu" "F.Paste" "F.Mask") (roundrect_rratio 0.0652) (tstamp 11074da2-da55-4d7e-bbe8-39de1c317626))
)
