(footprint "PQFN10P50_200X200X80L27X25N" (version 20221018) (generator pcbnew)
  (layer "F.Cu")
  (descr "Pullback Quad Flat No-Lead (PQFN), 0.50 mm pitch; 10 pin, square, 2 pin X 3 pin, 2.00 mm L X 2.00 mm W X 0.80 mm H body")
  (attr smd)
  (fp_text reference "REF**" (at 0 -3.45) (layer "F.SilkS")
      (effects (font (size 1.2 1.2) (thickness 0.12)))
    (tstamp ae8348e5-1396-401d-b5f4-22219c100f87)
  )
  (fp_text value "Val**" (at 0 -2.05) (layer "F.SilkS")
      (effects (font (size 1.27 1.27) (thickness 0.15)))
    (tstamp 19b60643-8124-4e9d-8b57-59d816c71402)
  )
  (fp_text user "${REFERENCE}" (at 0 0) (layer "F.Fab")
      (effects (font (size 1.62 1.62) (thickness 0.16)))
    (tstamp 386aca8c-c7df-4678-add7-6beea805dd9d)
  )
  (fp_line (start -1.11 -1.11) (end -0.855 -1.11)
    (stroke (width 0.12) (type solid)) (layer "F.SilkS") (tstamp f6abf87d-48a9-46e0-a1ca-9a9f0c4062d7))
  (fp_line (start -1.11 -0.605) (end -1.11 -1.11)
    (stroke (width 0.12) (type solid)) (layer "F.SilkS") (tstamp 06e81edf-6f1a-42cc-bdc7-0e8adb7c938a))
  (fp_line (start -1.11 0.605) (end -1.11 1.11)
    (stroke (width 0.12) (type solid)) (layer "F.SilkS") (tstamp 449e33e6-0ead-41ea-a898-e7aa4f4d3016))
  (fp_line (start -1.11 1.11) (end -0.855 1.11)
    (stroke (width 0.12) (type solid)) (layer "F.SilkS") (tstamp 021a4b4f-565b-4dfb-ba7b-84ef3bbf87d2))
  (fp_line (start 1.11 -1.11) (end 0.855 -1.11)
    (stroke (width 0.12) (type solid)) (layer "F.SilkS") (tstamp 50a4fcd4-ce5d-47ff-89c8-ee84ba35b285))
  (fp_line (start 1.11 -0.605) (end 1.11 -1.11)
    (stroke (width 0.12) (type solid)) (layer "F.SilkS") (tstamp 409e638f-dde2-4a3c-a724-ef968af2f03a))
  (fp_line (start 1.11 0.605) (end 1.11 1.11)
    (stroke (width 0.12) (type solid)) (layer "F.SilkS") (tstamp f1dbe0ce-fbf9-4b7a-bc6b-8e07951fac02))
  (fp_line (start 1.11 1.11) (end 0.855 1.11)
    (stroke (width 0.12) (type solid)) (layer "F.SilkS") (tstamp 05f95ced-3721-466c-b788-acd38eef051b))
  (fp_circle (center -1.54 -0.795) (end -1.54 -0.67)
    (stroke (width 0.25) (type solid)) (fill none) (layer "F.SilkS") (tstamp 619e82ec-a3eb-4183-8ac5-9104cec95a53))
  (fp_line (start -1 -1) (end 1 -1)
    (stroke (width 0.025) (type solid)) (layer "Dwgs.User") (tstamp 3d64acf3-40f2-40d7-8ffd-24a59df4d959))
  (fp_line (start -1 1) (end -1 -1)
    (stroke (width 0.025) (type solid)) (layer "Dwgs.User") (tstamp f66fe872-50c1-4e69-be65-43fe6d7a44e3))
  (fp_line (start -0.901 -0.375) (end -0.625 -0.375)
    (stroke (width 0.025) (type solid)) (layer "Dwgs.User") (tstamp e092f48b-592e-4f68-bb1a-880d9a3ee4a1))
  (fp_line (start -0.901 -0.125) (end -0.901 -0.375)
    (stroke (width 0.025) (type solid)) (layer "Dwgs.User") (tstamp ca23e0dd-2f43-41dd-923e-7b9c13ac0793))
  (fp_line (start -0.901 0.125) (end -0.625 0.125)
    (stroke (width 0.025) (type solid)) (layer "Dwgs.User") (tstamp 13bd7931-ca51-48db-9c33-380f9379d843))
  (fp_line (start -0.901 0.375) (end -0.901 0.125)
    (stroke (width 0.025) (type solid)) (layer "Dwgs.User") (tstamp 38db132a-884e-4a7f-bdbb-1895013f1572))
  (fp_line (start -0.625 -0.901) (end -0.375 -0.901)
    (stroke (width 0.025) (type solid)) (layer "Dwgs.User") (tstamp fd41dd7c-9b27-4a7c-a075-644cfb13675a))
  (fp_line (start -0.625 -0.625) (end -0.625 -0.901)
    (stroke (width 0.025) (type solid)) (layer "Dwgs.User") (tstamp ce2dbb69-b6ea-45b9-8c68-07012f710030))
  (fp_line (start -0.625 -0.375) (end -0.625 -0.125)
    (stroke (width 0.025) (type solid)) (layer "Dwgs.User") (tstamp def072a3-727f-4312-8133-71d7e7466436))
  (fp_line (start -0.625 -0.125) (end -0.901 -0.125)
    (stroke (width 0.025) (type solid)) (layer "Dwgs.User") (tstamp dede2c0a-b01e-4a3d-b79f-db07d93614eb))
  (fp_line (start -0.625 0.125) (end -0.625 0.375)
    (stroke (width 0.025) (type solid)) (layer "Dwgs.User") (tstamp 1f6c58c1-2c4b-4118-b3fe-027469ddf17d))
  (fp_line (start -0.625 0.375) (end -0.901 0.375)
    (stroke (width 0.025) (type solid)) (layer "Dwgs.User") (tstamp d91e3624-e890-4f44-9b7d-1e4fa57c9b57))
  (fp_line (start -0.625 0.625) (end -0.375 0.625)
    (stroke (width 0.025) (type solid)) (layer "Dwgs.User") (tstamp 126b4412-1bd3-485f-ad64-f78c4d741f83))
  (fp_line (start -0.625 0.901) (end -0.625 0.625)
    (stroke (width 0.025) (type solid)) (layer "Dwgs.User") (tstamp ed8a6873-0da0-47c8-81df-2aa207362f4a))
  (fp_line (start -0.375 -0.901) (end -0.375 -0.625)
    (stroke (width 0.025) (type solid)) (layer "Dwgs.User") (tstamp 4b18d299-f998-4135-a7d0-d71bae95a754))
  (fp_line (start -0.375 -0.625) (end -0.625 -0.625)
    (stroke (width 0.025) (type solid)) (layer "Dwgs.User") (tstamp 6a9aedd5-7b7a-49d1-983b-b6b164a1ce6e))
  (fp_line (start -0.375 0.625) (end -0.375 0.901)
    (stroke (width 0.025) (type solid)) (layer "Dwgs.User") (tstamp 4186f798-9b80-4318-9ffb-e83ec8016d45))
  (fp_line (start -0.375 0.901) (end -0.625 0.901)
    (stroke (width 0.025) (type solid)) (layer "Dwgs.User") (tstamp 64003c68-cf66-4e99-9b4d-b91c2f9ce631))
  (fp_line (start -0.125 -0.901) (end 0.125 -0.901)
    (stroke (width 0.025) (type solid)) (layer "Dwgs.User") (tstamp eb59fd44-c4c4-477a-b866-f5c37f9306fe))
  (fp_line (start -0.125 -0.625) (end -0.125 -0.901)
    (stroke (width 0.025) (type solid)) (layer "Dwgs.User") (tstamp ae3eb7c8-0305-4385-944b-2d33c8fd2930))
  (fp_line (start -0.125 0.625) (end 0.125 0.625)
    (stroke (width 0.025) (type solid)) (layer "Dwgs.User") (tstamp 23d84258-1db4-45c1-9dcb-ef63227dcc5e))
  (fp_line (start -0.125 0.901) (end -0.125 0.625)
    (stroke (width 0.025) (type solid)) (layer "Dwgs.User") (tstamp 8c0c145d-3efa-4109-a7f9-b93275831500))
  (fp_line (start 0.125 -0.901) (end 0.125 -0.625)
    (stroke (width 0.025) (type solid)) (layer "Dwgs.User") (tstamp 8c2b1d4e-bef2-457f-8d55-c2002fa8b32c))
  (fp_line (start 0.125 -0.625) (end -0.125 -0.625)
    (stroke (width 0.025) (type solid)) (layer "Dwgs.User") (tstamp 79e8fc04-3d3f-4c4b-b807-a4d549a1d555))
  (fp_line (start 0.125 0.625) (end 0.125 0.901)
    (stroke (width 0.025) (type solid)) (layer "Dwgs.User") (tstamp e68e9100-7072-437f-b5ef-d03996849426))
  (fp_line (start 0.125 0.901) (end -0.125 0.901)
    (stroke (width 0.025) (type solid)) (layer "Dwgs.User") (tstamp 38e81b4b-4bf7-421c-94f9-fc0bc4c1deec))
  (fp_line (start 0.375 -0.901) (end 0.625 -0.901)
    (stroke (width 0.025) (type solid)) (layer "Dwgs.User") (tstamp 5fe11d89-b005-4c61-bb01-f330e4892f0c))
  (fp_line (start 0.375 -0.625) (end 0.375 -0.901)
    (stroke (width 0.025) (type solid)) (layer "Dwgs.User") (tstamp 815c682d-c1d8-4990-a3c2-deb29067e721))
  (fp_line (start 0.375 0.625) (end 0.625 0.625)
    (stroke (width 0.025) (type solid)) (layer "Dwgs.User") (tstamp 88b96730-b85c-460d-8b3f-92bc66cfd6ec))
  (fp_line (start 0.375 0.901) (end 0.375 0.625)
    (stroke (width 0.025) (type solid)) (layer "Dwgs.User") (tstamp 8cab0055-183e-4963-8934-69af2dde12e2))
  (fp_line (start 0.625 -0.901) (end 0.625 -0.625)
    (stroke (width 0.025) (type solid)) (layer "Dwgs.User") (tstamp 4cb33258-d48c-4cf8-8027-188edbda81ff))
  (fp_line (start 0.625 -0.625) (end 0.375 -0.625)
    (stroke (width 0.025) (type solid)) (layer "Dwgs.User") (tstamp a71713be-d820-413c-9228-a5ef983df6d2))
  (fp_line (start 0.625 -0.375) (end 0.901 -0.375)
    (stroke (width 0.025) (type solid)) (layer "Dwgs.User") (tstamp d45031eb-643d-464b-a6de-02a9d04617b1))
  (fp_line (start 0.625 -0.125) (end 0.625 -0.375)
    (stroke (width 0.025) (type solid)) (layer "Dwgs.User") (tstamp ee8a21de-0546-497b-ad09-43f4ac012d7f))
  (fp_line (start 0.625 0.125) (end 0.901 0.125)
    (stroke (width 0.025) (type solid)) (layer "Dwgs.User") (tstamp 6ee31b58-99bc-419c-8210-7619cd2abf55))
  (fp_line (start 0.625 0.375) (end 0.625 0.125)
    (stroke (width 0.025) (type solid)) (layer "Dwgs.User") (tstamp bdb7b6b9-eb82-4037-b149-96c8c1e39271))
  (fp_line (start 0.625 0.625) (end 0.625 0.901)
    (stroke (width 0.025) (type solid)) (layer "Dwgs.User") (tstamp e2a9d975-3cc9-44d8-bf40-d8b6bc3060c6))
  (fp_line (start 0.625 0.901) (end 0.375 0.901)
    (stroke (width 0.025) (type solid)) (layer "Dwgs.User") (tstamp fa5f26e7-aa2c-4a3d-9b68-8b57ce8df4f9))
  (fp_line (start 0.901 -0.375) (end 0.901 -0.125)
    (stroke (width 0.025) (type solid)) (layer "Dwgs.User") (tstamp 44464626-1006-4d8a-a56d-ab2e40eb9bfb))
  (fp_line (start 0.901 -0.125) (end 0.625 -0.125)
    (stroke (width 0.025) (type solid)) (layer "Dwgs.User") (tstamp 1e6e6b6f-6a36-430c-ba56-e40bdae8539f))
  (fp_line (start 0.901 0.125) (end 0.901 0.375)
    (stroke (width 0.025) (type solid)) (layer "Dwgs.User") (tstamp ef802026-b712-4ad9-a4d5-9d83193c04a6))
  (fp_line (start 0.901 0.375) (end 0.625 0.375)
    (stroke (width 0.025) (type solid)) (layer "Dwgs.User") (tstamp 483a5440-93e4-41a8-b157-8190eb15927f))
  (fp_line (start 1 -1) (end 1 1)
    (stroke (width 0.025) (type solid)) (layer "Dwgs.User") (tstamp 2dd8d2e5-dfaf-4198-901d-09b9a9820edb))
  (fp_line (start 1 1) (end -1 1)
    (stroke (width 0.025) (type solid)) (layer "Dwgs.User") (tstamp 34755ad8-d910-4aa8-b0b8-94b6e4b6db81))
  (fp_line (start -1.25 -1.25) (end -1.25 1.25)
    (stroke (width 0.05) (type solid)) (layer "F.CrtYd") (tstamp f98ec9a2-1903-497c-b943-919adce006fc))
  (fp_line (start -1.25 1.25) (end 1.25 1.25)
    (stroke (width 0.05) (type solid)) (layer "F.CrtYd") (tstamp 020b217b-c35e-46f3-8738-a6c621a1ff33))
  (fp_line (start 1.25 -1.25) (end -1.25 -1.25)
    (stroke (width 0.05) (type solid)) (layer "F.CrtYd") (tstamp 691b4036-58cc-43db-b00a-443db164142d))
  (fp_line (start 1.25 1.25) (end 1.25 -1.25)
    (stroke (width 0.05) (type solid)) (layer "F.CrtYd") (tstamp 99fbcedf-0ac6-4489-959e-4fffae059ab1))
  (fp_line (start -1.05 -0.35) (end -0.35 -1.05)
    (stroke (width 0.12) (type solid)) (layer "F.Fab") (tstamp c9d8d728-5ccf-42c6-93d6-eba73e63047f))
  (fp_line (start -1.05 1.05) (end -1.05 -0.35)
    (stroke (width 0.12) (type solid)) (layer "F.Fab") (tstamp 55d30f55-002e-465d-87ac-11e503bdf161))
  (fp_line (start -0.35 -1.05) (end 1.05 -1.05)
    (stroke (width 0.12) (type solid)) (layer "F.Fab") (tstamp 931fb6d0-dadc-4500-9be7-ef91497e9df5))
  (fp_line (start 0 -0.35) (end 0 0.35)
    (stroke (width 0.05) (type solid)) (layer "F.Fab") (tstamp 1003eed1-987e-4464-a0e7-a076213d5e9e))
  (fp_line (start 0.35 0) (end -0.35 0)
    (stroke (width 0.05) (type solid)) (layer "F.Fab") (tstamp 37288596-6bc4-44e4-803f-6e25505e50e5))
  (fp_line (start 1.05 -1.05) (end 1.05 1.05)
    (stroke (width 0.12) (type solid)) (layer "F.Fab") (tstamp 8b4a1dde-7e1a-4c1f-b538-8d6280c3fcbc))
  (fp_line (start 1.05 1.05) (end -1.05 1.05)
    (stroke (width 0.12) (type solid)) (layer "F.Fab") (tstamp 27b9ee90-a495-44fa-be34-2a35dddb0774))
  (fp_circle (center 0 0) (end 0.25 0)
    (stroke (width 0.05) (type solid)) (fill none) (layer "F.Fab") (tstamp b3b1e745-81f5-423e-a605-801645451fe6))
  (pad "1" smd rect (at -0.766 -0.25) (size 0.397 0.35) (layers "F.Cu" "F.Paste" "F.Mask") (tstamp 83b4a985-641b-455a-bf80-e3cbc3a236bf))
  (pad "2" smd rect (at -0.766 0.25) (size 0.397 0.35) (layers "F.Cu" "F.Paste" "F.Mask") (tstamp c3c75a5f-444e-4e12-93a5-b2bd82eab518))
  (pad "3" smd rect (at -0.5 0.766 90) (size 0.397 0.35) (layers "F.Cu" "F.Paste" "F.Mask") (tstamp 4696dbb2-b840-410d-afe4-db497dd58afb))
  (pad "4" smd rect (at 0 0.766 90) (size 0.397 0.35) (layers "F.Cu" "F.Paste" "F.Mask") (tstamp 1800658c-49a2-4fb7-8b4d-2e6ac8efd2cb))
  (pad "5" smd rect (at 0.5 0.766 90) (size 0.397 0.35) (layers "F.Cu" "F.Paste" "F.Mask") (tstamp 5435f04a-434f-46f5-973f-eeea3fab8a63))
  (pad "6" smd rect (at 0.766 0.25) (size 0.397 0.35) (layers "F.Cu" "F.Paste" "F.Mask") (tstamp e8449675-6dac-4019-a924-c875fe15f479))
  (pad "7" smd rect (at 0.766 -0.25) (size 0.397 0.35) (layers "F.Cu" "F.Paste" "F.Mask") (tstamp 49556fe6-c2c6-4c49-ad92-bdd72ceb1ba7))
  (pad "8" smd rect (at 0.5 -0.766 90) (size 0.397 0.35) (layers "F.Cu" "F.Paste" "F.Mask") (tstamp 064b9bed-97a6-4a03-a539-0f4129d96ba6))
  (pad "9" smd rect (at 0 -0.766 90) (size 0.397 0.35) (layers "F.Cu" "F.Paste" "F.Mask") (tstamp f13771b5-a941-4ded-939c-473406adf1b1))
  (pad "10" smd rect (at -0.5 -0.766 90) (size 0.397 0.35) (layers "F.Cu" "F.Paste" "F.Mask") (tstamp e83fbff0-d94e-4311-be57-69bb17470029))
  (model "${KIPRJMOD}/3d_models/LPS22HH.step"
    (offset (xyz 0 0 0))
    (scale (xyz 1 1 1))
    (rotate (xyz 0 0 0))
  )
)
