(footprint "EVPBTxC4A000" (version 20221018) (generator pcbnew)
  (layer "F.Cu")
  (attr smd)
  (fp_text reference "REF**" (at 0 -3.85 unlocked) (layer "F.SilkS")
      (effects (font (size 0.75 0.75) (thickness 0.1)))
    (tstamp a08c377c-2cb6-4c01-baee-2f742c5f4dea)
  )
  (fp_text value "EVPBTxC4A000" (at 0 0 unlocked) (layer "F.Fab")
      (effects (font (size 1 1) (thickness 0.15)))
    (tstamp 68b008d5-e8ae-4bd8-a680-9b6509b8ec5b)
  )
  (fp_text user "${REFERENCE}" (at 0 0 unlocked) (layer "F.Fab")
      (effects (font (size 1 1) (thickness 0.15)))
    (tstamp ea4c7892-7eca-4e35-9421-b6cbecdcea8b)
  )
  (fp_line (start -3.325 -0.925) (end -3.325 0.925)
    (stroke (width 0.15) (type default)) (layer "F.SilkS") (tstamp 015ed028-c59f-4f21-89b5-1b848f8542c2))
  (fp_line (start -3.25 -3.075) (end 3.25 -3.075)
    (stroke (width 0.15) (type default)) (layer "F.SilkS") (tstamp 1c35fc4c-1bc2-4dac-ad97-99d70c5ddb7c))
  (fp_line (start -3.25 3.075) (end 3.25 3.075)
    (stroke (width 0.15) (type default)) (layer "F.SilkS") (tstamp de3f54a3-c2c7-42d9-add7-66a1b65b9528))
  (fp_line (start 3.325 -0.925) (end 3.325 0.925)
    (stroke (width 0.15) (type default)) (layer "F.SilkS") (tstamp 9594c4d6-ad2e-410c-a039-bb7e1fc31b39))
  (fp_rect (start -3.3 -2.4) (end -1.95 -1.6)
    (stroke (width 0.1) (type default)) (fill none) (layer "F.Fab") (tstamp 71a637b0-5324-4eb3-83d0-a6a27685b631))
  (fp_rect (start -3.3 1.6) (end -1.95 2.4)
    (stroke (width 0.1) (type default)) (fill none) (layer "F.Fab") (tstamp c4e58a83-5380-40e9-b61e-569cce4e8d47))
  (fp_rect (start -3.25 -3) (end 3.25 3)
    (stroke (width 0.15) (type default)) (fill none) (layer "F.Fab") (tstamp 5c256c0f-25dc-4513-906c-f38d06ec77cd))
  (fp_rect (start 1.95 -2.4) (end 3.3 -1.6)
    (stroke (width 0.1) (type default)) (fill none) (layer "F.Fab") (tstamp 9d064f0e-6a00-4442-9c96-18bcd86dfded))
  (fp_rect (start 1.95 1.6) (end 3.3 2.4)
    (stroke (width 0.1) (type default)) (fill none) (layer "F.Fab") (tstamp 3b384901-2ecd-4c89-9869-f50da15af2b5))
  (fp_circle (center 0 0) (end 0 -1.5)
    (stroke (width 0.1) (type default)) (fill none) (layer "F.Fab") (tstamp eb8675f8-0a54-4739-a1a7-7be2aaf537fb))
  (fp_circle (center 0 0) (end 1.9 0)
    (stroke (width 0.15) (type default)) (fill none) (layer "F.Fab") (tstamp 5141af6a-f3cf-418e-a9cd-794575a63dd0))
  (pad "1" smd rect (at -3.4 -2) (size 3.2 1.5) (layers "F.Cu" "F.Paste" "F.Mask")
    (thermal_bridge_angle 45) (tstamp 8c320f11-4ed6-4378-ba00-3364a3385df1))
  (pad "2" smd rect (at 3.4 -2) (size 3.2 1.5) (layers "F.Cu" "F.Paste" "F.Mask")
    (thermal_bridge_angle 45) (tstamp b5f576f8-89dc-4e72-b4d7-fe46459c4986))
  (pad "3" smd rect (at -3.4 2) (size 3.2 1.5) (layers "F.Cu" "F.Paste" "F.Mask")
    (thermal_bridge_angle 45) (tstamp 74a61653-e182-4cbe-9614-ed14a7391c61))
  (pad "4" smd rect (at 3.4 2) (size 3.2 1.5) (layers "F.Cu" "F.Paste" "F.Mask")
    (thermal_bridge_angle 45) (tstamp bc602244-4267-4d62-8855-250f041437cd))
)
