(footprint "PTS810" (version 20221018) (generator pcbnew)
  (layer "F.Cu")
  (descr "Antenna, Dual Flat No-Lead (DFN) 4 pins, 4.15 mm pitch; 4.20 mm L X 3.20 mm W X 2.50 mm H body")
  (attr smd)
  (fp_text reference "REF**" (at 0 -2.54) (layer "F.SilkS")
      (effects (font (size 1.2 1.2) (thickness 0.12)))
    (tstamp 47921ff8-bd86-499c-8dd3-47dcf5619f31)
  )
  (fp_text value "Val**" (at 0 0) (layer "User.1")
      (effects (font (size 1.27 1.27) (thickness 0.15)))
    (tstamp 97896b5b-6e65-450a-aa51-047961bce478)
  )
  (fp_text user "${REFERENCE}" (at 0 0) (layer "F.Fab")
      (effects (font (size 2 2) (thickness 0.2)))
    (tstamp 1d593304-be71-4712-b54e-bf375145ae29)
  )
  (fp_line (start -2.78 -1.66) (end 2.78 -1.66)
    (stroke (width 0.12) (type solid)) (layer "F.SilkS") (tstamp 514dd242-f5ce-490e-aee3-ca5c0d7b2a22))
  (fp_line (start -2.78 1.66) (end -2.78 -1.66)
    (stroke (width 0.12) (type solid)) (layer "F.SilkS") (tstamp b88b2aa9-c06b-41bf-8d3e-3b4e22a82cfe))
  (fp_line (start 2.78 -1.66) (end 2.78 1.66)
    (stroke (width 0.12) (type solid)) (layer "F.SilkS") (tstamp 96052222-5144-456c-b285-11fea6ea1ca3))
  (fp_line (start 2.78 1.66) (end -2.78 1.66)
    (stroke (width 0.12) (type solid)) (layer "F.SilkS") (tstamp c3a36f0a-7933-4482-8ea2-879a608a734f))
  (fp_circle (center -3.15 -1.075) (end -3.15 -0.95)
    (stroke (width 0.25) (type solid)) (fill none) (layer "F.SilkS") (tstamp ac1f0b3f-ff17-4fab-9236-b8c11580b320))
  (fp_line (start -2.575 -1.35) (end -1.575 -1.35)
    (stroke (width 0.025) (type solid)) (layer "Dwgs.User") (tstamp 5eb314ec-1689-45b4-a0ac-08688d9cc7fa))
  (fp_line (start -2.575 -0.8) (end -2.575 -1.35)
    (stroke (width 0.025) (type solid)) (layer "Dwgs.User") (tstamp 6cff4fbb-b009-49ff-b63c-fb38e06695c1))
  (fp_line (start -2.575 0.8) (end -1.575 0.8)
    (stroke (width 0.025) (type solid)) (layer "Dwgs.User") (tstamp a13b887b-c248-4a11-9561-b07807da2173))
  (fp_line (start -2.575 1.35) (end -2.575 0.8)
    (stroke (width 0.025) (type solid)) (layer "Dwgs.User") (tstamp 978d9a0a-fb7b-47fc-8a1a-836481782fb6))
  (fp_line (start -2.1 -1.6) (end 2.1 -1.6)
    (stroke (width 0.025) (type solid)) (layer "Dwgs.User") (tstamp 182a31f1-adfc-4611-a24f-e44dda60cfbc))
  (fp_line (start -2.1 1.6) (end -2.1 -1.6)
    (stroke (width 0.025) (type solid)) (layer "Dwgs.User") (tstamp 7723b973-b53c-4ff2-9d76-d569a6c8963c))
  (fp_line (start -1.575 -1.35) (end -1.575 -0.8)
    (stroke (width 0.025) (type solid)) (layer "Dwgs.User") (tstamp b74e4c26-f572-4147-aa34-6e2b92f8a79c))
  (fp_line (start -1.575 -0.8) (end -2.575 -0.8)
    (stroke (width 0.025) (type solid)) (layer "Dwgs.User") (tstamp 5da460e0-4ceb-415e-81a6-d038c8b068c3))
  (fp_line (start -1.575 0.8) (end -1.575 1.35)
    (stroke (width 0.025) (type solid)) (layer "Dwgs.User") (tstamp 419cbc5e-014c-46f5-88fa-96aa0d9b8600))
  (fp_line (start -1.575 1.35) (end -2.575 1.35)
    (stroke (width 0.025) (type solid)) (layer "Dwgs.User") (tstamp 08f04069-4807-4dd5-a12d-76bfe138df8f))
  (fp_line (start 1.575 -1.35) (end 2.575 -1.35)
    (stroke (width 0.025) (type solid)) (layer "Dwgs.User") (tstamp 33a8331d-e7e8-441f-865c-aa48205b60e2))
  (fp_line (start 1.575 -0.8) (end 1.575 -1.35)
    (stroke (width 0.025) (type solid)) (layer "Dwgs.User") (tstamp 7f01d74c-ef26-4101-aa3a-3e7779b78195))
  (fp_line (start 1.575 0.8) (end 2.575 0.8)
    (stroke (width 0.025) (type solid)) (layer "Dwgs.User") (tstamp 151d5880-d824-4e3f-9d1e-8fee49fdb89e))
  (fp_line (start 1.575 1.35) (end 1.575 0.8)
    (stroke (width 0.025) (type solid)) (layer "Dwgs.User") (tstamp 8f19a99b-01d2-4531-92c7-a9c01442aed9))
  (fp_line (start 2.1 -1.6) (end 2.1 1.6)
    (stroke (width 0.025) (type solid)) (layer "Dwgs.User") (tstamp 1bd05929-a58e-48de-b440-7ea2f37f7691))
  (fp_line (start 2.1 1.6) (end -2.1 1.6)
    (stroke (width 0.025) (type solid)) (layer "Dwgs.User") (tstamp 123891c9-2743-46e0-ba2c-f6b903935315))
  (fp_line (start 2.575 -1.35) (end 2.575 -0.8)
    (stroke (width 0.025) (type solid)) (layer "Dwgs.User") (tstamp 88ab2e73-7160-427a-8869-da145b2e16e3))
  (fp_line (start 2.575 -0.8) (end 1.575 -0.8)
    (stroke (width 0.025) (type solid)) (layer "Dwgs.User") (tstamp 0ad07fd4-7c7a-4a40-bcb7-92b8fe60e274))
  (fp_line (start 2.575 0.8) (end 2.575 1.35)
    (stroke (width 0.025) (type solid)) (layer "Dwgs.User") (tstamp 9bc9043a-9ca4-4ccf-926d-5574a4a66ad5))
  (fp_line (start 2.575 1.35) (end 1.575 1.35)
    (stroke (width 0.025) (type solid)) (layer "Dwgs.User") (tstamp b9d1f94c-1925-426d-9a11-1f1ed31c9e0f))
  (fp_line (start -2.84 -1.8) (end -2.84 1.8)
    (stroke (width 0.05) (type solid)) (layer "F.CrtYd") (tstamp a71e1f05-554c-45d5-8794-1a416594f081))
  (fp_line (start -2.84 1.8) (end 2.84 1.8)
    (stroke (width 0.05) (type solid)) (layer "F.CrtYd") (tstamp 4f2cff50-688b-4c90-8281-c74079772673))
  (fp_line (start 0 -0.35) (end 0 0.35)
    (stroke (width 0.05) (type solid)) (layer "F.CrtYd") (tstamp 3046d3f6-fde4-4f81-80da-2f86df7348eb))
  (fp_line (start 0.35 0) (end -0.35 0)
    (stroke (width 0.05) (type solid)) (layer "F.CrtYd") (tstamp a2b5132c-cd1c-4b2b-84ba-ff1c3d425e2f))
  (fp_line (start 2.84 -1.8) (end -2.84 -1.8)
    (stroke (width 0.05) (type solid)) (layer "F.CrtYd") (tstamp 9248cb00-c2fb-4ce6-a83e-2b4c9b1fb425))
  (fp_line (start 2.84 1.8) (end 2.84 -1.8)
    (stroke (width 0.05) (type solid)) (layer "F.CrtYd") (tstamp 63db99be-3808-4caa-96c5-cb86e5805c8b))
  (fp_circle (center 0 0) (end 0 0.25)
    (stroke (width 0.05) (type solid)) (fill none) (layer "F.CrtYd") (tstamp c4d74fcb-019a-425e-9df7-b0665281286c))
  (fp_line (start -2.1 -0.6) (end -1.1 -1.6)
    (stroke (width 0.12) (type solid)) (layer "F.Fab") (tstamp b9d8eb40-5857-432f-9ce1-a9bcf239cdb5))
  (fp_line (start -2.1 1.6) (end -2.1 -0.6)
    (stroke (width 0.12) (type solid)) (layer "F.Fab") (tstamp 6b3b3934-20bb-47b0-8c83-53c2b3eb5d44))
  (fp_line (start -1.1 -1.6) (end 2.1 -1.6)
    (stroke (width 0.12) (type solid)) (layer "F.Fab") (tstamp 742953ef-a7cd-4994-b3ac-50040a64e2cf))
  (fp_line (start 2.1 -1.6) (end 2.1 1.6)
    (stroke (width 0.12) (type solid)) (layer "F.Fab") (tstamp b1c5e9da-68f5-46b8-8577-8dca53cb9331))
  (fp_line (start 2.1 1.6) (end -2.1 1.6)
    (stroke (width 0.12) (type solid)) (layer "F.Fab") (tstamp 248222e7-127e-4c9a-944e-6c5a6389b70d))
  (pad "1" smd rect (at -2.075 -1.075) (size 1.05 0.65) (layers "F.Cu" "F.Paste" "F.Mask") (tstamp 22d98479-710e-4267-b878-285e09dac55f))
  (pad "2" smd rect (at 2.075 -1.075) (size 1.05 0.65) (layers "F.Cu" "F.Paste" "F.Mask") (tstamp 4f5f6e11-a16c-4b9b-bf2c-7f2e390f8b9e))
  (pad "3" smd rect (at -2.075 1.075) (size 1.05 0.65) (layers "F.Cu" "F.Paste" "F.Mask") (tstamp 78bdb36c-3b29-4689-a0de-69293bbf6ab1))
  (pad "4" smd rect (at 2.075 1.075) (size 1.05 0.65) (layers "F.Cu" "F.Paste" "F.Mask") (tstamp 12ff873b-702f-45a0-a680-98daf564247c))
  (model "E:/OneDrive/work/destinationSpace/development/hardware/.sharedResources/kicad/Destination_Space_Master/.models/PTS810 SJK 250 SMTR LFS--3DModel-STEP-1.STEP"
    (offset (xyz 0 0 0))
    (scale (xyz 1 1 1))
    (rotate (xyz -90 0 0))
  )
)
