(footprint "CAP_P1411" (version 20221018) (generator pcbnew)
  (layer "F.Cu")
  (descr "Capacitor, Polarized, Molded Body; 3.30 mm L X 2.80 mm W X 2.00 mm H body")
  (attr smd)
  (fp_text reference "REF**" (at 0 -2.54) (layer "F.SilkS")
      (effects (font (size 1 1) (thickness 0.15)))
    (tstamp 86b6518a-4dcb-4742-a54f-be055b8f4f67)
  )
  (fp_text value "Val**" (at 0 0) (layer "User.1")
      (effects (font (size 1.27 1.27) (thickness 0.15)))
    (tstamp e1eb8f44-50f8-472d-b691-6f4cc8c11d0f)
  )
  (fp_text user "${REFERENCE}" (at 0 0) (layer "F.Fab")
      (effects (font (size 2 2) (thickness 0.2)))
    (tstamp fd4d0c58-7bb7-48f8-b6e5-7cc74bdeda45)
  )
  (fp_line (start -1.75 -1.5) (end 1.75 -1.5)
    (stroke (width 0.12) (type solid)) (layer "F.SilkS") (tstamp 057fad5a-6dc6-40d1-aaa7-3b80bdc98d4c))
  (fp_line (start -1.75 1.5) (end 1.75 1.5)
    (stroke (width 0.12) (type solid)) (layer "F.SilkS") (tstamp ddedbe4d-4369-4d1b-a59d-b5cdfe8b390b))
  (fp_circle (center -2.678 0) (end -2.678 0.125)
    (stroke (width 0.25) (type solid)) (fill none) (layer "F.SilkS") (tstamp ec344dbf-0f1f-426d-ac0c-734b44b7059c))
  (fp_line (start -1.75 -1.1) (end -0.95 -1.1)
    (stroke (width 0.025) (type solid)) (layer "Dwgs.User") (tstamp 1f99627a-77a2-410d-adea-e65667297aac))
  (fp_line (start -1.75 1.1) (end -1.75 -1.1)
    (stroke (width 0.025) (type solid)) (layer "Dwgs.User") (tstamp d74b9f30-45a7-49d5-a6c9-c9d974e9bbf1))
  (fp_line (start -1.65 -1.4) (end 1.65 -1.4)
    (stroke (width 0.025) (type solid)) (layer "Dwgs.User") (tstamp a203424e-43c9-4508-980a-3430be6dbeaf))
  (fp_line (start -1.65 1.4) (end -1.65 -1.4)
    (stroke (width 0.025) (type solid)) (layer "Dwgs.User") (tstamp 4c1648ad-22dd-4bab-83aa-c838a89b43e3))
  (fp_line (start -0.95 -1.1) (end -0.95 1.1)
    (stroke (width 0.025) (type solid)) (layer "Dwgs.User") (tstamp 6af32442-a148-4c74-a9ff-205677f8f58a))
  (fp_line (start -0.95 1.1) (end -1.75 1.1)
    (stroke (width 0.025) (type solid)) (layer "Dwgs.User") (tstamp 8473c026-4609-4db9-9493-a3ea1afa92dc))
  (fp_line (start 0.95 -1.1) (end 1.75 -1.1)
    (stroke (width 0.025) (type solid)) (layer "Dwgs.User") (tstamp 6fbc5c32-0349-42a3-914d-75e9a2fde26b))
  (fp_line (start 0.95 1.1) (end 0.95 -1.1)
    (stroke (width 0.025) (type solid)) (layer "Dwgs.User") (tstamp 680e5d76-7841-40a3-b722-e057a98f6cc7))
  (fp_line (start 1.65 -1.4) (end 1.65 1.4)
    (stroke (width 0.025) (type solid)) (layer "Dwgs.User") (tstamp ff773726-4684-4b87-8bb6-c2126a0e5dc8))
  (fp_line (start 1.65 1.4) (end -1.65 1.4)
    (stroke (width 0.025) (type solid)) (layer "Dwgs.User") (tstamp abcdb17e-34a8-4508-bd91-2c3670dd4111))
  (fp_line (start 1.75 -1.1) (end 1.75 1.1)
    (stroke (width 0.025) (type solid)) (layer "Dwgs.User") (tstamp 91160008-1cde-43e2-a408-6eca0457c44d))
  (fp_line (start 1.75 1.1) (end 0.95 1.1)
    (stroke (width 0.025) (type solid)) (layer "Dwgs.User") (tstamp dacc0f19-605f-42ff-89ae-97c5efe731a6))
  (fp_line (start -2.508 -1.364) (end -2.508 1.364)
    (stroke (width 0.05) (type solid)) (layer "F.CrtYd") (tstamp 20c3d36a-2570-451c-8a71-7d1a3ee8d917))
  (fp_line (start -2.508 1.364) (end -1.95 1.364)
    (stroke (width 0.05) (type solid)) (layer "F.CrtYd") (tstamp dfb964f7-dd64-48b7-ad0d-4137aab79211))
  (fp_line (start -1.95 -1.7) (end -1.95 -1.364)
    (stroke (width 0.05) (type solid)) (layer "F.CrtYd") (tstamp 0667faca-2137-4648-a449-e5364c4935c3))
  (fp_line (start -1.95 -1.364) (end -2.508 -1.364)
    (stroke (width 0.05) (type solid)) (layer "F.CrtYd") (tstamp 92905260-2297-4b13-8c1e-e4c4e7753d16))
  (fp_line (start -1.95 1.364) (end -1.95 1.7)
    (stroke (width 0.05) (type solid)) (layer "F.CrtYd") (tstamp 12038176-940e-4d48-a57a-3013004828c4))
  (fp_line (start -1.95 1.7) (end 1.95 1.7)
    (stroke (width 0.05) (type solid)) (layer "F.CrtYd") (tstamp c024417a-e54a-47eb-941f-c939111620b9))
  (fp_line (start 0 -0.35) (end 0 0.35)
    (stroke (width 0.05) (type solid)) (layer "F.CrtYd") (tstamp bd8b6acf-c02c-406b-af67-f1ed8a7beeee))
  (fp_line (start 0.35 0) (end -0.35 0)
    (stroke (width 0.05) (type solid)) (layer "F.CrtYd") (tstamp 5124a8c1-f468-459f-805c-88592c552a87))
  (fp_line (start 1.95 -1.7) (end -1.95 -1.7)
    (stroke (width 0.05) (type solid)) (layer "F.CrtYd") (tstamp ca54afe5-cfa7-4b75-b9a7-182c74c2a2d2))
  (fp_line (start 1.95 -1.364) (end 1.95 -1.7)
    (stroke (width 0.05) (type solid)) (layer "F.CrtYd") (tstamp 63c14cc3-58cc-41c3-b653-ae3d91833930))
  (fp_line (start 1.95 1.364) (end 2.508 1.364)
    (stroke (width 0.05) (type solid)) (layer "F.CrtYd") (tstamp eddc1e17-e27d-493b-a9c8-ff5b371b6446))
  (fp_line (start 1.95 1.7) (end 1.95 1.364)
    (stroke (width 0.05) (type solid)) (layer "F.CrtYd") (tstamp b6b82d1a-474b-4da6-8d6f-6fd8cee833cb))
  (fp_line (start 2.508 -1.364) (end 1.95 -1.364)
    (stroke (width 0.05) (type solid)) (layer "F.CrtYd") (tstamp f6e70162-9dc9-41bb-b442-fa970fdfabf9))
  (fp_line (start 2.508 1.364) (end 2.508 -1.364)
    (stroke (width 0.05) (type solid)) (layer "F.CrtYd") (tstamp 67d09dd7-7450-4a98-b58f-1ee1858494ab))
  (fp_circle (center 0 0) (end 0 0.25)
    (stroke (width 0.05) (type solid)) (fill none) (layer "F.CrtYd") (tstamp 4c5ecb7e-5032-4d3a-b4bf-0e536b3925c5))
  (fp_line (start -1.75 -1.5) (end -1.75 0.5)
    (stroke (width 0.12) (type solid)) (layer "F.Fab") (tstamp 5a963449-1e92-428a-848b-3bb0f65aa199))
  (fp_line (start -1.75 0.5) (end -0.75 1.5)
    (stroke (width 0.12) (type solid)) (layer "F.Fab") (tstamp b877664c-14c4-4493-84db-d9e57ddb5d2e))
  (fp_line (start -0.75 1.5) (end 1.75 1.5)
    (stroke (width 0.12) (type solid)) (layer "F.Fab") (tstamp 5700b8b2-ab3b-4750-bb3b-82520d70fdd1))
  (fp_line (start 1.75 -1.5) (end -1.75 -1.5)
    (stroke (width 0.12) (type solid)) (layer "F.Fab") (tstamp ea141083-94bc-47a0-95a3-8da9d702fddb))
  (fp_line (start 1.75 1.5) (end 1.75 -1.5)
    (stroke (width 0.12) (type solid)) (layer "F.Fab") (tstamp cacbdea0-15f3-4425-9210-e6307ba690c5))
  (pad "1" smd roundrect (at -1.485 0) (size 1.646 2.329) (layers "F.Cu" "F.Paste" "F.Mask") (roundrect_rratio 0.1215) (tstamp c54c3087-66ba-4087-92ef-cab29cc7f931))
  (pad "2" smd roundrect (at 1.485 0) (size 1.646 2.329) (layers "F.Cu" "F.Paste" "F.Mask") (roundrect_rratio 0.1215) (tstamp ab56ee4a-9bdc-4c24-a5b8-77ff2ddff2f1))
  (model "E:/OneDrive/work/destinationSpace/development/hardware/.sharedResources/kicad/Destination_Space_Master/.models/T521B105M050ATE200.STEP"
    (offset (xyz 0 0 0))
    (scale (xyz 1 1 1))
    (rotate (xyz -90 0 0))
  )
)
