(footprint "CAPC100X50X55L15" (version 20221018) (generator pcbnew)
  (layer "F.Cu")
  (descr "Capacitor, Chip; 1.00 mm L X 0.50 mm W X 0.55 mm H body")
  (tags "0402; 1005")
  (attr smd)
  (fp_text reference "REF**" (at 0 -1) (layer "F.SilkS")
      (effects (font (size 1 1) (thickness 0.15)))
    (tstamp 78cdb05d-3e10-4ccc-b13a-596f875e49ac)
  )
  (fp_text value "Val**" (at 0 0) (layer "User.1")
      (effects (font (size 0.5 0.5) (thickness 0.06)))
    (tstamp eb431fc7-fefd-4d4e-bdc0-5e7ff0c0e14f)
  )
  (fp_text user "${REFERENCE}" (at 0 0) (layer "F.Fab")
      (effects (font (size 0.5 0.5) (thickness 0.06)))
    (tstamp 68e32281-f382-46fb-954c-ff7de38268fb)
  )
  (fp_line (start -0.78 -0.43) (end -0.26 -0.43)
    (stroke (width 0.155) (type solid)) (layer "F.SilkS") (tstamp be070895-77df-4f28-854d-6351d9587e7f))
  (fp_line (start -0.78 0.43) (end -0.78 -0.43)
    (stroke (width 0.155) (type solid)) (layer "F.SilkS") (tstamp 3dc23c32-a46a-4362-bced-c2425d03347f))
  (fp_line (start -0.26 0.43) (end -0.78 0.43)
    (stroke (width 0.155) (type solid)) (layer "F.SilkS") (tstamp f5ef79f2-04bc-4508-aab3-21ccf5bf6d02))
  (fp_line (start 0.26 0.43) (end 0.78 0.43)
    (stroke (width 0.155) (type solid)) (layer "F.SilkS") (tstamp f3d28290-85b1-438f-a3b4-3421a37febbc))
  (fp_line (start 0.78 -0.43) (end 0.26 -0.43)
    (stroke (width 0.155) (type solid)) (layer "F.SilkS") (tstamp cce7f26c-1169-45b5-8345-f6fa59b460dd))
  (fp_line (start 0.78 0.43) (end 0.78 -0.43)
    (stroke (width 0.155) (type solid)) (layer "F.SilkS") (tstamp 8b39d693-e508-4bd4-b2f8-e4ec4cdf839f))
  (fp_line (start -0.5 -0.25) (end -0.35 -0.25)
    (stroke (width 0.025) (type solid)) (layer "Dwgs.User") (tstamp 5231a02e-9ee0-4e24-95ed-868aae62272f))
  (fp_line (start -0.5 -0.25) (end 0.5 -0.25)
    (stroke (width 0.025) (type solid)) (layer "Dwgs.User") (tstamp 1f3b0e77-6811-4ac2-b6c3-6c0a4e3434a8))
  (fp_line (start -0.5 0.25) (end -0.5 -0.25)
    (stroke (width 0.025) (type solid)) (layer "Dwgs.User") (tstamp 7204405d-e60e-495a-a598-ea5ba7ff9260))
  (fp_line (start -0.5 0.25) (end -0.5 -0.25)
    (stroke (width 0.025) (type solid)) (layer "Dwgs.User") (tstamp 7269d40f-63f6-41fd-b090-b72729cd89f2))
  (fp_line (start -0.35 -0.25) (end -0.35 0.25)
    (stroke (width 0.025) (type solid)) (layer "Dwgs.User") (tstamp 268ae8fe-4c9b-4043-bb06-c2123101c419))
  (fp_line (start -0.35 0.25) (end -0.5 0.25)
    (stroke (width 0.025) (type solid)) (layer "Dwgs.User") (tstamp b13aa478-4930-4528-8639-0006ef857a76))
  (fp_line (start 0.35 -0.25) (end 0.5 -0.25)
    (stroke (width 0.025) (type solid)) (layer "Dwgs.User") (tstamp 2b38e4e1-580d-48d0-bdba-e123684547df))
  (fp_line (start 0.35 0.25) (end 0.35 -0.25)
    (stroke (width 0.025) (type solid)) (layer "Dwgs.User") (tstamp d906c2f0-75a5-4d13-b872-725399a6b258))
  (fp_line (start 0.5 -0.25) (end 0.5 0.25)
    (stroke (width 0.025) (type solid)) (layer "Dwgs.User") (tstamp 6a871704-3d8f-4366-8b6c-903b53f22e59))
  (fp_line (start 0.5 -0.25) (end 0.5 0.25)
    (stroke (width 0.025) (type solid)) (layer "Dwgs.User") (tstamp e2c2d910-31e2-4d44-8a02-782f9ed565c1))
  (fp_line (start 0.5 0.25) (end -0.5 0.25)
    (stroke (width 0.025) (type solid)) (layer "Dwgs.User") (tstamp ed49a2e1-b352-4b74-9cdb-9865161b285b))
  (fp_line (start 0.5 0.25) (end 0.35 0.25)
    (stroke (width 0.025) (type solid)) (layer "Dwgs.User") (tstamp 2e120180-263a-48e2-a7f7-0a241451c2a5))
  (fp_line (start -0.84 -0.49) (end 0.84 -0.49)
    (stroke (width 0.05) (type solid)) (layer "F.CrtYd") (tstamp b8695139-809b-466d-a8b9-5744d4d85bd1))
  (fp_line (start -0.84 0.49) (end -0.84 -0.49)
    (stroke (width 0.05) (type solid)) (layer "F.CrtYd") (tstamp f8cadf63-7a97-4006-a16d-fd85e9e5490b))
  (fp_line (start 0 -0.258) (end 0 0.258)
    (stroke (width 0.05) (type solid)) (layer "F.CrtYd") (tstamp f470d552-34d7-4a1f-9fc3-18c3ec1c8208))
  (fp_line (start 0.258 0) (end -0.258 0)
    (stroke (width 0.05) (type solid)) (layer "F.CrtYd") (tstamp 8bfc2dbc-c10b-4eb4-9293-44c02e370e59))
  (fp_line (start 0.84 -0.49) (end 0.84 0.49)
    (stroke (width 0.05) (type solid)) (layer "F.CrtYd") (tstamp 9f722c56-540f-43e5-ab24-d8ad84a6dc8d))
  (fp_line (start 0.84 0.49) (end -0.84 0.49)
    (stroke (width 0.05) (type solid)) (layer "F.CrtYd") (tstamp 4eaf1ff0-00cc-4ac0-a07f-8775c5db05fe))
  (fp_circle (center 0 0) (end 0 0.193)
    (stroke (width 0.05) (type solid)) (fill none) (layer "F.CrtYd") (tstamp a1a2c487-073a-4c52-9b0c-159029d114c2))
  (fp_line (start -0.525 -0.275) (end 0.525 -0.275)
    (stroke (width 0.12) (type solid)) (layer "F.Fab") (tstamp 1e289a4a-7e91-4d8a-b035-1c9b017ab23a))
  (fp_line (start -0.525 0.275) (end -0.525 -0.275)
    (stroke (width 0.12) (type solid)) (layer "F.Fab") (tstamp 45a0d7b4-cc66-4bd4-892f-78da4abfa9d4))
  (fp_line (start 0.525 -0.275) (end 0.525 0.275)
    (stroke (width 0.12) (type solid)) (layer "F.Fab") (tstamp fe7d8de9-64a8-45d5-a645-e9ef371239d3))
  (fp_line (start 0.525 0.275) (end -0.525 0.275)
    (stroke (width 0.12) (type solid)) (layer "F.Fab") (tstamp 72316b86-1a28-43c4-ba3c-b84025b9307f))
  (pad "1" smd roundrect (at -0.4 0) (size 0.4 0.5) (layers "F.Cu" "F.Paste" "F.Mask") (roundrect_rratio 0.25) (tstamp ff5e244c-751c-4ea3-af39-2adca4552528))
  (pad "2" smd roundrect (at 0.4 0) (size 0.4 0.5) (layers "F.Cu" "F.Paste" "F.Mask") (roundrect_rratio 0.25) (tstamp 396bad55-2d57-423c-b550-5b7e5819e76b))
  (model "E:/OneDrive/work/destinationSpace/development/hardware/.sharedResources/kicad/Destination_Space_Master/.models/CGA0402.STEP"
    (offset (xyz 0 -0.3 0.25))
    (scale (xyz 1 1 1))
    (rotate (xyz 0 0 0))
  )
)
