(footprint "CAPC100X50X55L30N" (version 20221018) (generator pcbnew)
  (layer "F.Cu")
  (descr "Capacitor, Chip; 1.00 mm L X 0.50 mm W X 0.55 mm H body")
  (tags "0402; 1005")
  (attr smd)
  (fp_text reference "REF**" (at 0 -1.05) (layer "F.SilkS")
      (effects (font (size 0.75 0.75) (thickness 0.12)))
    (tstamp d8b4b4f3-ff28-439f-b200-2644385c73ed)
  )
  (fp_text value "Val**" (at 0 0) (layer "F.Fab")
      (effects (font (size 0.5 0.5) (thickness 0.05)))
    (tstamp 4ddc3f91-74ed-4aba-8436-e65776f582b0)
  )
  (fp_text user "${REFERENCE}" (at 0 0) (layer "F.Fab")
      (effects (font (size 0.5 0.5) (thickness 0.05)))
    (tstamp 6106e9ee-4f1a-4e12-b41e-cbc60544141b)
  )
  (fp_line (start -0.93 -0.47) (end -0.31 -0.47)
    (stroke (width 0.12) (type solid)) (layer "F.SilkS") (tstamp f4a09d94-a452-42e7-9b8d-bdd18e8ac6b0))
  (fp_line (start -0.93 0.47) (end -0.93 -0.47)
    (stroke (width 0.12) (type solid)) (layer "F.SilkS") (tstamp 8297b6bf-6659-400a-a1d4-6e59fb7df45f))
  (fp_line (start -0.31 0.47) (end -0.93 0.47)
    (stroke (width 0.12) (type solid)) (layer "F.SilkS") (tstamp 975aa146-378d-4d03-8694-f7f4b8d8edb8))
  (fp_line (start 0.31 0.47) (end 0.93 0.47)
    (stroke (width 0.12) (type solid)) (layer "F.SilkS") (tstamp 88659517-349f-40d9-9e0f-6b9f068aaad8))
  (fp_line (start 0.93 -0.47) (end 0.31 -0.47)
    (stroke (width 0.12) (type solid)) (layer "F.SilkS") (tstamp 754a8f76-8c1d-4974-bed8-4b5f03fc8ba0))
  (fp_line (start 0.93 0.47) (end 0.93 -0.47)
    (stroke (width 0.12) (type solid)) (layer "F.SilkS") (tstamp f4522642-49d9-404a-9c32-21a4fdb0ec05))
  (fp_line (start -0.5 -0.25) (end -0.2 -0.25)
    (stroke (width 0.025) (type solid)) (layer "Dwgs.User") (tstamp 32129027-4aec-4dc1-b85a-bd016a46b679))
  (fp_line (start -0.5 -0.25) (end 0.5 -0.25)
    (stroke (width 0.025) (type solid)) (layer "Dwgs.User") (tstamp daed64a2-d28e-4e63-8418-a4a26e53c7bd))
  (fp_line (start -0.5 0.25) (end -0.5 -0.25)
    (stroke (width 0.025) (type solid)) (layer "Dwgs.User") (tstamp a0ea3032-0883-47d7-8689-ed64d10c5fb2))
  (fp_line (start -0.5 0.25) (end -0.5 -0.25)
    (stroke (width 0.025) (type solid)) (layer "Dwgs.User") (tstamp e8e0a144-52fb-48d3-b11b-344b1d006354))
  (fp_line (start -0.2 -0.25) (end -0.2 0.25)
    (stroke (width 0.025) (type solid)) (layer "Dwgs.User") (tstamp e5b198a7-8a52-45fc-8966-74b4e77f1bed))
  (fp_line (start -0.2 0.25) (end -0.5 0.25)
    (stroke (width 0.025) (type solid)) (layer "Dwgs.User") (tstamp 4ab7b8f0-aae1-41a7-a2fe-4b975220cdbc))
  (fp_line (start 0.2 -0.25) (end 0.5 -0.25)
    (stroke (width 0.025) (type solid)) (layer "Dwgs.User") (tstamp 44a5cdf7-84d5-4136-a3fa-ec2add78e96c))
  (fp_line (start 0.2 0.25) (end 0.2 -0.25)
    (stroke (width 0.025) (type solid)) (layer "Dwgs.User") (tstamp a1305212-9669-4035-a3e7-e4f09ed4e18d))
  (fp_line (start 0.5 -0.25) (end 0.5 0.25)
    (stroke (width 0.025) (type solid)) (layer "Dwgs.User") (tstamp 5bb621a9-1ef2-4151-b7a3-e0466fc2565a))
  (fp_line (start 0.5 -0.25) (end 0.5 0.25)
    (stroke (width 0.025) (type solid)) (layer "Dwgs.User") (tstamp 955ccdf9-2729-44e6-aefd-f11705576bac))
  (fp_line (start 0.5 0.25) (end -0.5 0.25)
    (stroke (width 0.025) (type solid)) (layer "Dwgs.User") (tstamp b216d749-743f-4263-b147-8b3a7c88147c))
  (fp_line (start 0.5 0.25) (end 0.2 0.25)
    (stroke (width 0.025) (type solid)) (layer "Dwgs.User") (tstamp dd594ce7-2caf-4674-886b-89b60cd7b35a))
  (fp_line (start -0.99 -0.53) (end 0.99 -0.53)
    (stroke (width 0.05) (type solid)) (layer "F.CrtYd") (tstamp e6ca23d3-7f27-4170-8506-a45e7ac2ba9c))
  (fp_line (start -0.99 0.53) (end -0.99 -0.53)
    (stroke (width 0.05) (type solid)) (layer "F.CrtYd") (tstamp 0370db54-b092-40ea-9d75-d0bb1788a5cd))
  (fp_line (start 0 -0.278) (end 0 0.278)
    (stroke (width 0.05) (type solid)) (layer "F.CrtYd") (tstamp fb0db1b9-94c4-4044-8552-955aff5747d7))
  (fp_line (start 0.278 0) (end -0.278 0)
    (stroke (width 0.05) (type solid)) (layer "F.CrtYd") (tstamp be9058b9-ae71-4223-ab80-8318eb5d0dbe))
  (fp_line (start 0.99 -0.53) (end 0.99 0.53)
    (stroke (width 0.05) (type solid)) (layer "F.CrtYd") (tstamp 72269a81-3900-4f28-be38-00e66f698416))
  (fp_line (start 0.99 0.53) (end -0.99 0.53)
    (stroke (width 0.05) (type solid)) (layer "F.CrtYd") (tstamp eea052a7-ecc0-49d5-90e7-3a39a9464f85))
  (fp_circle (center 0 0) (end 0 0.208)
    (stroke (width 0.05) (type solid)) (fill none) (layer "F.CrtYd") (tstamp f633c479-01ae-47b3-b844-94081b78641e))
  (fp_line (start -0.525 -0.275) (end 0.525 -0.275)
    (stroke (width 0.15) (type solid)) (layer "F.Fab") (tstamp c14fe6b6-73f0-42fb-ae98-31bbfcbe30ad))
  (fp_line (start -0.525 0.275) (end -0.525 -0.275)
    (stroke (width 0.15) (type solid)) (layer "F.Fab") (tstamp 55882329-bbc2-4a25-be37-cf5a1fbb3d37))
  (fp_line (start 0.525 -0.275) (end 0.525 0.275)
    (stroke (width 0.15) (type solid)) (layer "F.Fab") (tstamp 7e88ec41-a3ca-410f-8337-b93fcaf0fb45))
  (fp_line (start 0.525 0.275) (end -0.525 0.275)
    (stroke (width 0.15) (type solid)) (layer "F.Fab") (tstamp 20d2b7b9-a016-4113-8381-05566a3b2fde))
  (pad "1" smd rect (at -0.437 0) (size 0.625 0.58) (layers "F.Cu" "F.Paste" "F.Mask") (tstamp 5efac9af-6984-4cb2-b715-96741dc5db56))
  (pad "2" smd rect (at 0.437 0) (size 0.625 0.58) (layers "F.Cu" "F.Paste" "F.Mask") (tstamp bc7e2e10-ed82-472f-a27b-5db1b02bad23))
  (model ":DESTINATION_SPACE_MODELS:Capacitor_Ceramic_SMD/C0402C104K4RACTU.stp"
    (offset (xyz -0.525 -0.275 0))
    (scale (xyz 1 1 1))
    (rotate (xyz -90 0 0))
  )
)
