(footprint "CAPPM730X430X200L130X240N" (version 20221018) (generator pcbnew)
  (layer "F.Cu")
  (descr "Capacitor, Polarized, Molded Body; 6.70 mm L X 4.30 mm W X 2.00 mm H body")
  (attr smd)
  (fp_text reference "REF**" (at 0 -3.25) (layer "F.SilkS")
      (effects (font (size 1.2 1.2) (thickness 0.12)))
    (tstamp 89845c73-e800-4ce3-8405-3a8a4c00e1c0)
  )
  (fp_text value "Val**" (at 0 0) (layer "F.SilkS")
      (effects (font (size 0.5 0.5) (thickness 0.05)))
    (tstamp 62d31ac1-2c75-4467-93e7-6852f9e1f47f)
  )
  (fp_text user "${REFERENCE}" (at 0 0) (layer "F.Fab")
      (effects (font (size 0.5 0.5) (thickness 0.05)))
    (tstamp 2794b2c9-44c5-4363-84d2-15f591f0d590)
  )
  (fp_line (start -3.56 -2.36) (end 3.56 -2.36)
    (stroke (width 0.12) (type solid)) (layer "F.SilkS") (tstamp aed2bacc-6329-4965-9bbc-419681647f78))
  (fp_line (start -3.56 -1.445) (end -3.56 -2.36)
    (stroke (width 0.12) (type solid)) (layer "F.SilkS") (tstamp ce7d783d-f4d8-483a-8d97-6bc41e373e49))
  (fp_line (start -3.56 2.36) (end -3.56 1.445)
    (stroke (width 0.12) (type solid)) (layer "F.SilkS") (tstamp 677cfe51-ecc9-4d9d-b8fa-eef7cb138592))
  (fp_line (start -3.56 2.36) (end 3.56 2.36)
    (stroke (width 0.12) (type solid)) (layer "F.SilkS") (tstamp 07a49672-2cec-40f9-8dd4-85bfbb80b326))
  (fp_line (start 3.56 -1.445) (end 3.56 -2.36)
    (stroke (width 0.12) (type solid)) (layer "F.SilkS") (tstamp dcb7d67b-d862-4858-bd7b-495266f6ed2a))
  (fp_line (start 3.56 2.36) (end 3.56 1.445)
    (stroke (width 0.12) (type solid)) (layer "F.SilkS") (tstamp 86e957d2-980f-4a02-bad8-8effa33564d9))
  (fp_circle (center -4.625 0) (end -4.625 0.125)
    (stroke (width 0.25) (type solid)) (fill none) (layer "F.SilkS") (tstamp bef01f31-90da-4bf7-b41c-560eab4ba741))
  (fp_line (start -3.65 -1.2) (end -2.35 -1.2)
    (stroke (width 0.025) (type solid)) (layer "Dwgs.User") (tstamp 5d2bc974-8abd-4490-9cd9-5c6d3778a5be))
  (fp_line (start -3.65 1.2) (end -3.65 -1.2)
    (stroke (width 0.025) (type solid)) (layer "Dwgs.User") (tstamp 9ee0b9b7-d70f-4eb4-a57e-a3b7df4e6cc9))
  (fp_line (start -3.35 -2.15) (end 3.35 -2.15)
    (stroke (width 0.025) (type solid)) (layer "Dwgs.User") (tstamp 0ba920a5-7b0d-4473-8785-7ee21ba2a1de))
  (fp_line (start -3.35 2.15) (end -3.35 -2.15)
    (stroke (width 0.025) (type solid)) (layer "Dwgs.User") (tstamp 1545fb2f-ccd0-4b8b-ae1d-943ce75d0579))
  (fp_line (start -2.35 -1.2) (end -2.35 1.2)
    (stroke (width 0.025) (type solid)) (layer "Dwgs.User") (tstamp cd9507e0-9e62-4c9f-8102-e26d3397fdf4))
  (fp_line (start -2.35 1.2) (end -3.65 1.2)
    (stroke (width 0.025) (type solid)) (layer "Dwgs.User") (tstamp ff1c10dd-4834-43cb-b760-7a7cdfe6b0af))
  (fp_line (start 2.35 -1.2) (end 3.65 -1.2)
    (stroke (width 0.025) (type solid)) (layer "Dwgs.User") (tstamp b60ccf48-556d-498f-a742-16c2d868f3c0))
  (fp_line (start 2.35 1.2) (end 2.35 -1.2)
    (stroke (width 0.025) (type solid)) (layer "Dwgs.User") (tstamp 28dc5055-8eef-4907-9cdc-a3f6b794cf69))
  (fp_line (start 3.35 -2.15) (end 3.35 2.15)
    (stroke (width 0.025) (type solid)) (layer "Dwgs.User") (tstamp 5ad0c122-c64f-4897-a7f5-eebdb381659d))
  (fp_line (start 3.35 2.15) (end -3.35 2.15)
    (stroke (width 0.025) (type solid)) (layer "Dwgs.User") (tstamp 49f7f76b-8ce8-4e31-a581-663593019b92))
  (fp_line (start 3.65 -1.2) (end 3.65 1.2)
    (stroke (width 0.025) (type solid)) (layer "Dwgs.User") (tstamp c2e2b8be-85fb-4574-8e65-2ba383964dc5))
  (fp_line (start 3.65 1.2) (end 2.35 1.2)
    (stroke (width 0.025) (type solid)) (layer "Dwgs.User") (tstamp b91d5aa4-9de5-4524-a880-576a2e06e7d3))
  (fp_line (start -4.455 -1.465) (end -4.455 1.465)
    (stroke (width 0.05) (type solid)) (layer "F.CrtYd") (tstamp df2c9a9c-266a-44e4-89d7-4b957a3d54d0))
  (fp_line (start -4.455 1.465) (end -3.7 1.465)
    (stroke (width 0.05) (type solid)) (layer "F.CrtYd") (tstamp 1a3eeb92-75aa-4b85-93ee-1f4dd77a47f3))
  (fp_line (start -3.7 -2.5) (end -3.7 -1.465)
    (stroke (width 0.05) (type solid)) (layer "F.CrtYd") (tstamp 31233d4b-3912-4233-b883-26e479767a6c))
  (fp_line (start -3.7 -1.465) (end -4.455 -1.465)
    (stroke (width 0.05) (type solid)) (layer "F.CrtYd") (tstamp c8052088-ae65-4639-b51a-00c10f1d6292))
  (fp_line (start -3.7 1.465) (end -3.7 2.5)
    (stroke (width 0.05) (type solid)) (layer "F.CrtYd") (tstamp d153a4be-507f-496e-a21d-b1d939691260))
  (fp_line (start -3.7 2.5) (end 3.7 2.5)
    (stroke (width 0.05) (type solid)) (layer "F.CrtYd") (tstamp 17301f48-addc-439d-a169-f5632d6077e2))
  (fp_line (start 0 -0.35) (end 0 0.35)
    (stroke (width 0.05) (type solid)) (layer "F.CrtYd") (tstamp 59bad508-914f-4e89-ba8a-e083dd95676a))
  (fp_line (start 0.35 0) (end -0.35 0)
    (stroke (width 0.05) (type solid)) (layer "F.CrtYd") (tstamp f4641f9b-00f7-4e5e-bc4e-a0b8f972ed48))
  (fp_line (start 3.7 -2.5) (end -3.7 -2.5)
    (stroke (width 0.05) (type solid)) (layer "F.CrtYd") (tstamp 8a8fc14d-d2f1-4611-b7bb-8049edb0ce04))
  (fp_line (start 3.7 -1.465) (end 3.7 -2.5)
    (stroke (width 0.05) (type solid)) (layer "F.CrtYd") (tstamp c5cdaaf6-9138-4b19-a099-1dc728a7c9d4))
  (fp_line (start 3.7 1.465) (end 4.455 1.465)
    (stroke (width 0.05) (type solid)) (layer "F.CrtYd") (tstamp a8a5d16c-66d8-4f41-8827-03d39052f87d))
  (fp_line (start 3.7 2.5) (end 3.7 1.465)
    (stroke (width 0.05) (type solid)) (layer "F.CrtYd") (tstamp 89da37cb-05e0-4883-a38c-9049f10b12c8))
  (fp_line (start 4.455 -1.465) (end 3.7 -1.465)
    (stroke (width 0.05) (type solid)) (layer "F.CrtYd") (tstamp a6dd7199-ea43-4b1c-9889-7e2430b54b7b))
  (fp_line (start 4.455 1.465) (end 4.455 -1.465)
    (stroke (width 0.05) (type solid)) (layer "F.CrtYd") (tstamp 6ef66685-1e4d-4da1-88e1-b9b4d3e9bd8b))
  (fp_circle (center 0 0) (end 0 0.25)
    (stroke (width 0.05) (type solid)) (fill none) (layer "F.CrtYd") (tstamp 32598031-4f3a-4bb8-9103-4e8f5c88f02a))
  (fp_line (start -3.5 -2.3) (end -3.5 1.3)
    (stroke (width 0.12) (type solid)) (layer "F.Fab") (tstamp 42e3c730-cc69-41e9-93cc-825c2e3259c1))
  (fp_line (start -3.5 1.3) (end -2.5 2.3)
    (stroke (width 0.12) (type solid)) (layer "F.Fab") (tstamp 0ee865d1-018d-4ad0-9a76-c7061d6e0a5c))
  (fp_line (start -2.5 2.3) (end 3.5 2.3)
    (stroke (width 0.12) (type solid)) (layer "F.Fab") (tstamp 91f1faf4-c0f6-4898-847a-68b13dbb7414))
  (fp_line (start 3.5 -2.3) (end -3.5 -2.3)
    (stroke (width 0.12) (type solid)) (layer "F.Fab") (tstamp fbd31a7b-240a-41de-a11d-0b6569a3913a))
  (fp_line (start 3.5 2.3) (end 3.5 -2.3)
    (stroke (width 0.12) (type solid)) (layer "F.Fab") (tstamp 017ec7de-dce0-477e-9fd6-ccfde63dcafe))
  (pad "1" smd rect (at -3.146 0) (size 2.218 2.529) (layers "F.Cu" "F.Paste" "F.Mask") (tstamp 20983f57-8f8e-4632-a861-736386b509cf))
  (pad "2" smd rect (at 3.146 0) (size 2.218 2.529) (layers "F.Cu" "F.Paste" "F.Mask") (tstamp 82817514-1036-4152-a6a2-3f9c1b604704))
)
