(footprint "SOT23-6P95_280X100L40X37N" (version 20221018) (generator pcbnew)
  (layer "F.Cu")
  (descr "Small Outline Transistor, SOT-23 Type, 0.95 mm pitch; 6 pin, 2.90 mm L X 1.90 mm W X 1.00 mm H body")
  (attr smd)
  (fp_text reference "REF**" (at 0 -2.54) (layer "F.SilkS")
      (effects (font (size 1.2 1.2) (thickness 0.12)))
    (tstamp 6d1d9540-ef93-4566-bd57-2036bb26fcc3)
  )
  (fp_text value "Val**" (at 0 0) (layer "F.Fab")
      (effects (font (size 1.27 1.27) (thickness 0.15)))
    (tstamp 8434f6c0-2e0a-4261-a8cc-38514336eb0e)
  )
  (fp_text user "${REFERENCE}" (at 0 0) (layer "F.Fab")
      (effects (font (size 1.42 1.42) (thickness 0.14)))
    (tstamp 8c9f93f4-51ea-4885-815b-62fb558be683)
  )
  (fp_line (start -1.56 1.01) (end -1.56 -1.01)
    (stroke (width 0.12) (type solid)) (layer "F.SilkS") (tstamp 77ae7c40-8973-4dc9-9e4e-80b32881f2d3))
  (fp_line (start 1.56 -1.01) (end 1.56 1.01)
    (stroke (width 0.12) (type solid)) (layer "F.SilkS") (tstamp db4b7b0e-c4b9-46e0-8667-f0000bafca58))
  (fp_circle (center -1.604 1.406) (end -1.604 1.531)
    (stroke (width 0.25) (type solid)) (fill none) (layer "F.SilkS") (tstamp cc0ae009-eee4-4c1d-860a-ea86149533a6))
  (fp_line (start -1.45 -0.95) (end 1.45 -0.95)
    (stroke (width 0.025) (type solid)) (layer "Dwgs.User") (tstamp 345cc4d3-77f8-4ae3-b8f9-65ad415aee7a))
  (fp_line (start -1.45 0.95) (end -1.45 -0.95)
    (stroke (width 0.025) (type solid)) (layer "Dwgs.User") (tstamp c9b7ac64-1812-4bc4-8db4-23f5204b211d))
  (fp_line (start -1.138 -1.4) (end -0.762 -1.4)
    (stroke (width 0.025) (type solid)) (layer "Dwgs.User") (tstamp 6e3d7cdb-c498-4953-a38a-826ebb79f7b6))
  (fp_line (start -1.138 -1) (end -1.138 -1.4)
    (stroke (width 0.025) (type solid)) (layer "Dwgs.User") (tstamp 4f0be7e7-8749-4260-a47f-1fe3fa193792))
  (fp_line (start -1.138 1) (end -0.762 1)
    (stroke (width 0.025) (type solid)) (layer "Dwgs.User") (tstamp 87215a95-4b52-447e-a851-5323b1e147b6))
  (fp_line (start -1.138 1.4) (end -1.138 1)
    (stroke (width 0.025) (type solid)) (layer "Dwgs.User") (tstamp 98d5e50e-44dd-49a5-b00b-7dc167d578e9))
  (fp_line (start -0.762 -1.4) (end -0.762 -1)
    (stroke (width 0.025) (type solid)) (layer "Dwgs.User") (tstamp b8e8d6aa-5f4b-4b15-970e-18b677d029e6))
  (fp_line (start -0.762 -1) (end -1.138 -1)
    (stroke (width 0.025) (type solid)) (layer "Dwgs.User") (tstamp a67d2f9e-faf3-4fdf-8ea6-aa4d6248ede2))
  (fp_line (start -0.762 1) (end -0.762 1.4)
    (stroke (width 0.025) (type solid)) (layer "Dwgs.User") (tstamp 44838bd7-83e4-41c5-9f42-54137a4ae5c8))
  (fp_line (start -0.762 1.4) (end -1.138 1.4)
    (stroke (width 0.025) (type solid)) (layer "Dwgs.User") (tstamp ae7664a1-fb53-4d6f-a696-63f60da08361))
  (fp_line (start -0.188 -1.4) (end 0.188 -1.4)
    (stroke (width 0.025) (type solid)) (layer "Dwgs.User") (tstamp 1df529fc-a256-4763-b2a1-996854557933))
  (fp_line (start -0.188 -1) (end -0.188 -1.4)
    (stroke (width 0.025) (type solid)) (layer "Dwgs.User") (tstamp 6409b246-6dfb-4f63-bdd8-b342efc0e02a))
  (fp_line (start -0.188 1) (end 0.188 1)
    (stroke (width 0.025) (type solid)) (layer "Dwgs.User") (tstamp 00fba73d-887d-44dc-9f9c-d4029f666c5b))
  (fp_line (start -0.188 1.4) (end -0.188 1)
    (stroke (width 0.025) (type solid)) (layer "Dwgs.User") (tstamp a7e3e09e-2b16-4878-aedb-ca5647c862cd))
  (fp_line (start 0.188 -1.4) (end 0.188 -1)
    (stroke (width 0.025) (type solid)) (layer "Dwgs.User") (tstamp 592e4e31-4753-4ac3-ba0a-fe04ca43e922))
  (fp_line (start 0.188 -1) (end -0.188 -1)
    (stroke (width 0.025) (type solid)) (layer "Dwgs.User") (tstamp 94c65bb8-7a25-448f-b6f8-c79d0d78a88a))
  (fp_line (start 0.188 1) (end 0.188 1.4)
    (stroke (width 0.025) (type solid)) (layer "Dwgs.User") (tstamp d9b84b48-5797-430d-9e13-215453af61b6))
  (fp_line (start 0.188 1.4) (end -0.188 1.4)
    (stroke (width 0.025) (type solid)) (layer "Dwgs.User") (tstamp 5205d09f-77b9-45ec-929c-a674532f3e52))
  (fp_line (start 0.762 -1.4) (end 1.138 -1.4)
    (stroke (width 0.025) (type solid)) (layer "Dwgs.User") (tstamp e1a9ac14-b090-486a-8ae2-81ff4d64f28f))
  (fp_line (start 0.762 -1) (end 0.762 -1.4)
    (stroke (width 0.025) (type solid)) (layer "Dwgs.User") (tstamp 8be9170c-94e7-462f-9b51-6d57016f5eb7))
  (fp_line (start 0.762 1) (end 1.138 1)
    (stroke (width 0.025) (type solid)) (layer "Dwgs.User") (tstamp 94210e29-d7f0-41b3-984c-809fd851d608))
  (fp_line (start 0.762 1.4) (end 0.762 1)
    (stroke (width 0.025) (type solid)) (layer "Dwgs.User") (tstamp dde4326a-808b-46b8-9ff0-e5b6c064e079))
  (fp_line (start 1.138 -1.4) (end 1.138 -1)
    (stroke (width 0.025) (type solid)) (layer "Dwgs.User") (tstamp d89d267e-6ebc-4b5a-afb1-564c968f1d63))
  (fp_line (start 1.138 -1) (end 0.762 -1)
    (stroke (width 0.025) (type solid)) (layer "Dwgs.User") (tstamp d45ffd50-8e1d-4d2d-bb00-e0eced6a796a))
  (fp_line (start 1.138 1) (end 1.138 1.4)
    (stroke (width 0.025) (type solid)) (layer "Dwgs.User") (tstamp 42d4e152-ee12-4054-8672-8d821891841b))
  (fp_line (start 1.138 1.4) (end 0.762 1.4)
    (stroke (width 0.025) (type solid)) (layer "Dwgs.User") (tstamp 7e56eff6-e5a2-452f-b007-9e78fceb6e1c))
  (fp_line (start 1.45 -0.95) (end 1.45 0.95)
    (stroke (width 0.025) (type solid)) (layer "Dwgs.User") (tstamp b3a4e392-17f2-452a-b5ec-f9cbcdf73aee))
  (fp_line (start 1.45 0.95) (end -1.45 0.95)
    (stroke (width 0.025) (type solid)) (layer "Dwgs.User") (tstamp 381df2a8-6de2-4b49-8e87-46d1168675f2))
  (fp_line (start -1.7 -1.15) (end -1.7 1.15)
    (stroke (width 0.05) (type solid)) (layer "F.CrtYd") (tstamp 0ca1645b-37fa-4b8d-b712-1eb5802bb239))
  (fp_line (start -1.7 1.15) (end -1.434 1.15)
    (stroke (width 0.05) (type solid)) (layer "F.CrtYd") (tstamp 0cbba608-7046-40f9-ba07-23caff83df62))
  (fp_line (start -1.434 -1.856) (end -1.434 -1.15)
    (stroke (width 0.05) (type solid)) (layer "F.CrtYd") (tstamp 9d11ae71-5f1b-4d4d-a436-7d1ae3d2af38))
  (fp_line (start -1.434 -1.15) (end -1.7 -1.15)
    (stroke (width 0.05) (type solid)) (layer "F.CrtYd") (tstamp e97bec90-51f8-4d94-822d-faf0d44515aa))
  (fp_line (start -1.434 1.15) (end -1.434 1.856)
    (stroke (width 0.05) (type solid)) (layer "F.CrtYd") (tstamp 9b29aee2-11da-45ff-b749-ba55fceca88c))
  (fp_line (start -1.434 1.856) (end 1.434 1.856)
    (stroke (width 0.05) (type solid)) (layer "F.CrtYd") (tstamp f65c17d0-f24a-41bc-b766-3c8ba930f357))
  (fp_line (start -0.35 0) (end 0.35 0)
    (stroke (width 0.05) (type solid)) (layer "F.CrtYd") (tstamp b9ae81ae-5b23-45e0-b801-2f3adebf2f61))
  (fp_line (start 0 -0.35) (end 0 0.35)
    (stroke (width 0.05) (type solid)) (layer "F.CrtYd") (tstamp 1e27e5a9-1867-4301-aa57-4105035e59ce))
  (fp_line (start 1.434 -1.856) (end -1.434 -1.856)
    (stroke (width 0.05) (type solid)) (layer "F.CrtYd") (tstamp b591151a-3553-410c-8fd7-a5ee367dcdc9))
  (fp_line (start 1.434 -1.15) (end 1.434 -1.856)
    (stroke (width 0.05) (type solid)) (layer "F.CrtYd") (tstamp 11646e6e-00a9-4be3-9432-9c5e5868fc3d))
  (fp_line (start 1.434 1.15) (end 1.7 1.15)
    (stroke (width 0.05) (type solid)) (layer "F.CrtYd") (tstamp 27547104-be4b-46b0-ba92-5c766813f5aa))
  (fp_line (start 1.434 1.856) (end 1.434 1.15)
    (stroke (width 0.05) (type solid)) (layer "F.CrtYd") (tstamp 5e766101-1dda-4180-9e6f-5291008e507a))
  (fp_line (start 1.7 -1.15) (end 1.434 -1.15)
    (stroke (width 0.05) (type solid)) (layer "F.CrtYd") (tstamp 6fe0189f-d91e-4e60-a631-5b2f57530d2d))
  (fp_line (start 1.7 1.15) (end 1.7 -1.15)
    (stroke (width 0.05) (type solid)) (layer "F.CrtYd") (tstamp a2715de1-020a-4a8d-b64c-12dc0648b4ef))
  (fp_circle (center 0 0) (end 0 0.25)
    (stroke (width 0.05) (type solid)) (fill none) (layer "F.CrtYd") (tstamp 596dea9b-47d5-439f-8871-6152667755d9))
  (fp_line (start -1.5 -0.95) (end 1.5 -0.95)
    (stroke (width 0.12) (type solid)) (layer "F.Fab") (tstamp 9ef2fe95-ae0c-400c-ac8a-4eb47e5f5697))
  (fp_line (start -1.5 0.317) (end -1.5 -0.95)
    (stroke (width 0.12) (type solid)) (layer "F.Fab") (tstamp 8971d01d-fcba-43b6-8842-cd7c0927017c))
  (fp_line (start -0.867 0.95) (end -1.5 0.317)
    (stroke (width 0.12) (type solid)) (layer "F.Fab") (tstamp 00c62118-cb8a-465a-b860-d2d9f4ca7d51))
  (fp_line (start 1.5 -0.95) (end 1.5 0.95)
    (stroke (width 0.12) (type solid)) (layer "F.Fab") (tstamp 0d0c7a7f-b301-4bb5-8958-b3fef9c35b12))
  (fp_line (start 1.5 0.95) (end -0.867 0.95)
    (stroke (width 0.12) (type solid)) (layer "F.Fab") (tstamp 7572aca2-921c-4690-ad9d-2df29b0d2fce))
  (pad "1" smd rect (at -0.95 1.303 90) (size 0.706 0.567) (layers "F.Cu" "F.Paste" "F.Mask") (tstamp d6cd7763-d55c-446d-a6c1-fbb2bb7b75fe))
  (pad "2" smd rect (at 0 1.303 90) (size 0.706 0.567) (layers "F.Cu" "F.Paste" "F.Mask") (tstamp 6bb41801-0c10-4c38-8347-38944b40bce6))
  (pad "3" smd rect (at 0.95 1.303 90) (size 0.706 0.567) (layers "F.Cu" "F.Paste" "F.Mask") (tstamp 3dc5c70e-4de4-4fd0-89ba-7d662769961c))
  (pad "4" smd rect (at 0.95 -1.303 90) (size 0.706 0.567) (layers "F.Cu" "F.Paste" "F.Mask") (tstamp 80840138-dde9-4fa4-a2be-36d6a4e14634))
  (pad "5" smd rect (at 0 -1.303 90) (size 0.706 0.567) (layers "F.Cu" "F.Paste" "F.Mask") (tstamp 5e79e199-b6b7-4ae9-a35a-c083d2123d25))
  (pad "6" smd rect (at -0.95 -1.303 90) (size 0.706 0.567) (layers "F.Cu" "F.Paste" "F.Mask") (tstamp 6d82cf9a-1705-4a03-830f-aaa458491010))
  (model "D:/OneDrive/work/destinationSpace/development/hardware/.sharedResources/kicad/Destination_Space_Master/.models/DMP2035UVTQ-7.stp"
    (offset (xyz 0 0 0))
    (scale (xyz 1 1 1))
    (rotate (xyz 0 0 -90))
  )
)
