(footprint "SOT223-4P230_700X180L75X75N" (version 20221018) (generator pcbnew)
  (layer "F.Cu")
  (descr "Small Outline Transistor, SOT-223 Type, 2.30 mm pitch; 4 pin, 6.50 mm L X 3.50 mm W X 1.80 mm H body")
  (attr smd)
  (fp_text reference "REF**" (at 0 -5) (layer "F.SilkS")
      (effects (font (size 1.2 1.2) (thickness 0.12)))
    (tstamp be9fc00f-d4df-455f-a06d-f3027b00fd33)
  )
  (fp_text value "Val**" (at 0 0) (layer "F.Fab")
      (effects (font (size 0.5 0.5) (thickness 0.05)))
    (tstamp 34596943-5e66-4e0f-aef1-f607eefb2128)
  )
  (fp_text user "${REFERENCE}" (at 0 0) (layer "F.Fab")
      (effects (font (size 0.5 0.5) (thickness 0.05)))
    (tstamp a667395e-098e-41b5-a8b3-d17ff161af99)
  )
  (fp_line (start -3.415 -1.91) (end 3.415 -1.91)
    (stroke (width 0.12) (type solid)) (layer "F.SilkS") (tstamp 090262a5-f6ed-49c5-acf6-7274ea9f1040))
  (fp_line (start -3.415 1.91) (end -3.415 -1.91)
    (stroke (width 0.12) (type solid)) (layer "F.SilkS") (tstamp 3a045dea-c6aa-4d21-85de-7b7d9c5b4f23))
  (fp_line (start 3.415 -1.91) (end 3.415 1.91)
    (stroke (width 0.12) (type solid)) (layer "F.SilkS") (tstamp 14aacf47-bdf4-41c5-aa4e-ad133289971b))
  (fp_line (start 3.415 1.91) (end -3.415 1.91)
    (stroke (width 0.12) (type solid)) (layer "F.SilkS") (tstamp d43abca3-18b7-4125-b324-fdb73eacda2f))
  (fp_circle (center -3.166 3.655) (end -3.166 3.78)
    (stroke (width 0.25) (type solid)) (fill none) (layer "F.SilkS") (tstamp 9e298c4d-a000-4593-8224-52590566e01d))
  (fp_line (start -3.25 -1.75) (end 3.25 -1.75)
    (stroke (width 0.025) (type solid)) (layer "Dwgs.User") (tstamp aa20db17-30dc-4e01-a3ff-211a99d8b822))
  (fp_line (start -3.25 1.75) (end -3.25 -1.75)
    (stroke (width 0.025) (type solid)) (layer "Dwgs.User") (tstamp afbe6246-5e43-4440-af52-0f876c110125))
  (fp_line (start -2.675 2.75) (end -1.925 2.75)
    (stroke (width 0.025) (type solid)) (layer "Dwgs.User") (tstamp d3bdb16f-cbcf-4e5f-88cf-95f8c8e81bc3))
  (fp_line (start -2.675 3.5) (end -2.675 2.75)
    (stroke (width 0.025) (type solid)) (layer "Dwgs.User") (tstamp 8f3d1c82-1da3-4686-a5df-c654ce9be4ab))
  (fp_line (start -1.925 2.75) (end -1.925 3.5)
    (stroke (width 0.025) (type solid)) (layer "Dwgs.User") (tstamp 4f6ff71b-5d3d-4424-9474-062edb31db3d))
  (fp_line (start -1.925 3.5) (end -2.675 3.5)
    (stroke (width 0.025) (type solid)) (layer "Dwgs.User") (tstamp da19f0ca-b392-483d-b412-71902930cb91))
  (fp_line (start -1.5 -3.5) (end 1.5 -3.5)
    (stroke (width 0.025) (type solid)) (layer "Dwgs.User") (tstamp 26500c42-4f3c-48a0-a3b1-20e18aa1e691))
  (fp_line (start -1.5 -2.75) (end -1.5 -3.5)
    (stroke (width 0.025) (type solid)) (layer "Dwgs.User") (tstamp bb58840d-a39d-41cf-8b58-3ab26932cd56))
  (fp_line (start -0.375 2.75) (end 0.375 2.75)
    (stroke (width 0.025) (type solid)) (layer "Dwgs.User") (tstamp 3050c978-70f4-4bad-9627-fac2f2aee654))
  (fp_line (start -0.375 3.5) (end -0.375 2.75)
    (stroke (width 0.025) (type solid)) (layer "Dwgs.User") (tstamp daf685ff-0f58-472d-a2e0-329a65f35969))
  (fp_line (start 0.375 2.75) (end 0.375 3.5)
    (stroke (width 0.025) (type solid)) (layer "Dwgs.User") (tstamp 655f6b64-9542-4278-a578-6812c4dca5f2))
  (fp_line (start 0.375 3.5) (end -0.375 3.5)
    (stroke (width 0.025) (type solid)) (layer "Dwgs.User") (tstamp 0c891b7f-d537-45cc-a196-b13cb6037f6c))
  (fp_line (start 1.5 -3.5) (end 1.5 -2.75)
    (stroke (width 0.025) (type solid)) (layer "Dwgs.User") (tstamp 941f4c71-9f3a-4861-abf1-0e71e10300ca))
  (fp_line (start 1.5 -2.75) (end -1.5 -2.75)
    (stroke (width 0.025) (type solid)) (layer "Dwgs.User") (tstamp c17193b1-ac11-4383-953a-5c7f69ee16fc))
  (fp_line (start 1.925 2.75) (end 2.675 2.75)
    (stroke (width 0.025) (type solid)) (layer "Dwgs.User") (tstamp 7c8a2ff2-1ad9-4951-a85e-daa502bb94f7))
  (fp_line (start 1.925 3.5) (end 1.925 2.75)
    (stroke (width 0.025) (type solid)) (layer "Dwgs.User") (tstamp ba53c181-0808-4f53-b7a1-980ba7aa184c))
  (fp_line (start 2.675 2.75) (end 2.675 3.5)
    (stroke (width 0.025) (type solid)) (layer "Dwgs.User") (tstamp 8b7be1d0-4db3-43d5-a39c-b19f38e4c2f0))
  (fp_line (start 2.675 3.5) (end 1.925 3.5)
    (stroke (width 0.025) (type solid)) (layer "Dwgs.User") (tstamp 482f19cb-9730-49ae-a682-fb8444533a01))
  (fp_line (start 3.25 -1.75) (end 3.25 1.75)
    (stroke (width 0.025) (type solid)) (layer "Dwgs.User") (tstamp 84f3a7f7-f34f-46c0-8acb-5efb5ddbaf5c))
  (fp_line (start 3.25 1.75) (end -3.25 1.75)
    (stroke (width 0.025) (type solid)) (layer "Dwgs.User") (tstamp 1c4ff2a2-5bc8-41c6-bf20-48297906026c))
  (fp_line (start -3.55 -2.05) (end -3.55 2.05)
    (stroke (width 0.05) (type solid)) (layer "F.CrtYd") (tstamp 5582d1d4-c9f9-46c4-ac66-e54ee0860911))
  (fp_line (start -3.55 2.05) (end -2.996 2.05)
    (stroke (width 0.05) (type solid)) (layer "F.CrtYd") (tstamp 326f4452-c83e-4243-95b6-a37186a8d2e8))
  (fp_line (start -2.996 2.05) (end -2.996 4.105)
    (stroke (width 0.05) (type solid)) (layer "F.CrtYd") (tstamp 419b0a72-dbda-408d-aaeb-a29b91727a9b))
  (fp_line (start -2.996 4.105) (end 2.996 4.105)
    (stroke (width 0.05) (type solid)) (layer "F.CrtYd") (tstamp 0608acab-097d-41be-ab62-689073f76e8a))
  (fp_line (start -1.816 -4.105) (end -1.816 -2.05)
    (stroke (width 0.05) (type solid)) (layer "F.CrtYd") (tstamp 290c1970-92d3-4471-9235-b76aaae50462))
  (fp_line (start -1.816 -2.05) (end -3.55 -2.05)
    (stroke (width 0.05) (type solid)) (layer "F.CrtYd") (tstamp 7b09187f-b2f8-4e29-8a6d-bd75cc8d4bfa))
  (fp_line (start -0.35 0) (end 0.35 0)
    (stroke (width 0.05) (type solid)) (layer "F.CrtYd") (tstamp 49460dec-6941-4ef6-b47b-1ddb2e23f663))
  (fp_line (start 0 -0.35) (end 0 0.35)
    (stroke (width 0.05) (type solid)) (layer "F.CrtYd") (tstamp fb539b1a-4901-46d9-ae9c-c6754bf01653))
  (fp_line (start 1.816 -4.105) (end -1.816 -4.105)
    (stroke (width 0.05) (type solid)) (layer "F.CrtYd") (tstamp bd82faad-5e6e-49b7-bd2a-b39bf636118b))
  (fp_line (start 1.816 -2.05) (end 1.816 -4.105)
    (stroke (width 0.05) (type solid)) (layer "F.CrtYd") (tstamp eba2318b-cf64-4c91-ae9a-3b645a077896))
  (fp_line (start 2.996 2.05) (end 3.55 2.05)
    (stroke (width 0.05) (type solid)) (layer "F.CrtYd") (tstamp 877185c6-72a8-45ae-86d7-429465d2f39b))
  (fp_line (start 2.996 4.105) (end 2.996 2.05)
    (stroke (width 0.05) (type solid)) (layer "F.CrtYd") (tstamp b6e9f59f-3231-463e-82a2-a2a8c5529aff))
  (fp_line (start 3.55 -2.05) (end 1.816 -2.05)
    (stroke (width 0.05) (type solid)) (layer "F.CrtYd") (tstamp 5bd5f4dc-0d4c-488f-b102-6c368f31fdbe))
  (fp_line (start 3.55 2.05) (end 3.55 -2.05)
    (stroke (width 0.05) (type solid)) (layer "F.CrtYd") (tstamp 3f3412b7-eae8-4fbb-b752-7629fd754f40))
  (fp_circle (center 0 0) (end 0 0.25)
    (stroke (width 0.05) (type solid)) (fill none) (layer "F.CrtYd") (tstamp b99e3abd-2f45-4199-8ce3-1201838b3aba))
  (fp_line (start -3.35 -1.85) (end 3.35 -1.85)
    (stroke (width 0.12) (type solid)) (layer "F.Fab") (tstamp eb738b47-e7ad-4774-88c8-f6e8940ed6bb))
  (fp_line (start -3.35 0.85) (end -3.35 -1.85)
    (stroke (width 0.12) (type solid)) (layer "F.Fab") (tstamp 31acd448-55e6-4c3b-902b-44f235245e1c))
  (fp_line (start -2.35 1.85) (end -3.35 0.85)
    (stroke (width 0.12) (type solid)) (layer "F.Fab") (tstamp 0cd024c2-34b0-4eea-a953-68fe4dcf52d3))
  (fp_line (start 3.35 -1.85) (end 3.35 1.85)
    (stroke (width 0.12) (type solid)) (layer "F.Fab") (tstamp 2059585e-f344-460d-ba87-f2f6f9aaf5a1))
  (fp_line (start 3.35 1.85) (end -2.35 1.85)
    (stroke (width 0.12) (type solid)) (layer "F.Fab") (tstamp be0d97e2-19a9-45ec-a020-ac5275dbe814))
  (pad "1" smd rect (at -2.3 3.075 90) (size 1.66 0.992) (layers "F.Cu" "F.Paste" "F.Mask") (tstamp 4c28c0eb-a517-4565-80d2-5d1c735270f5))
  (pad "2" smd rect (at 0 3.075 90) (size 1.66 0.992) (layers "F.Cu" "F.Paste" "F.Mask") (tstamp b4febabb-705f-4d54-8221-fb13431c6729))
  (pad "3" smd rect (at 2.3 3.075 90) (size 1.66 0.992) (layers "F.Cu" "F.Paste" "F.Mask") (tstamp c44bf8e7-ed11-40f2-aab4-1892dfbce776))
  (pad "4" smd rect (at 0 -3.075 90) (size 1.66 3.232) (layers "F.Cu" "F.Paste" "F.Mask") (tstamp 81e2db8a-f965-4a97-9e69-dc07fe38d7ad))
)
