(footprint "B3DK3BRG" (version 20221018) (generator pcbnew)
  (layer "F.Cu")
  (attr smd)
  (fp_text reference "REF**" (at 0 -2 unlocked) (layer "F.SilkS")
      (effects (font (size 0.75 0.75) (thickness 0.12)))
    (tstamp 763b8972-0294-45a6-b594-d1a6713f72ac)
  )
  (fp_text value "B3DK3BRG" (at 0 0 unlocked) (layer "F.Fab") hide
      (effects (font (size 0.5 0.5) (thickness 0.05)))
    (tstamp a94b8d45-946d-4c80-a428-e2603a6c7cea)
  )
  (fp_text user "${REFERENCE}" (at 0 0 unlocked) (layer "F.Fab") hide
      (effects (font (size 0.5 0.5) (thickness 0.05)))
    (tstamp bbaeb2c9-02ee-4d6a-ad2f-22d196c17961)
  )
  (fp_rect (start -1.4 -1.4) (end 1.4 1.4)
    (stroke (width 0.1) (type default)) (fill none) (layer "F.SilkS") (tstamp f3e60e34-56cc-4f8f-997d-e412e77d62a8))
  (fp_circle (center 1.6 1.6) (end 1.7 1.6)
    (stroke (width 0.1) (type solid)) (fill solid) (layer "F.SilkS") (tstamp 39987376-8cd6-4fcd-bcdd-52cd1aa5863e))
  (fp_rect (start -1 -1) (end 1 1)
    (stroke (width 0.15) (type default)) (fill none) (layer "Dwgs.User") (tstamp 87232133-8afc-410e-8614-099a7d4219d1))
  (pad "1" smd rect (at 0.85 0.85) (size 0.9 0.9) (layers "F.Cu" "F.Paste" "F.Mask")
    (thermal_bridge_angle 45) (tstamp f8394988-e576-4cad-81ee-704073c4b32c))
  (pad "2" smd rect (at -0.85 0.85) (size 0.9 0.9) (layers "F.Cu" "F.Paste" "F.Mask")
    (thermal_bridge_angle 45) (tstamp 5d55e7bb-3440-4142-b39e-8e5ef98fd2b6))
  (pad "3" smd rect (at -0.85 -0.85) (size 0.9 0.9) (layers "F.Cu" "F.Paste" "F.Mask")
    (thermal_bridge_angle 45) (tstamp 3ac652b6-28d9-47af-bce7-4c4604f131f5))
  (pad "4" smd rect (at 0.85 -0.85) (size 0.9 0.9) (layers "F.Cu" "F.Paste" "F.Mask")
    (thermal_bridge_angle 45) (tstamp fdaa183b-fda5-4376-a13d-bb514625a5d7))
  (model ":DESTINATION_SPACE_MODELS:LED_SMD/User Library-WS2812-2020.step"
    (offset (xyz 0 0 0))
    (scale (xyz 1 1 1))
    (rotate (xyz 0 0 0))
  )
)
