(footprint "IN-PI15TAT5R5G5B" (version 20221018) (generator pcbnew)
  (layer "F.Cu")
  (attr smd)
  (fp_text reference "REF**" (at 0 -1.55 unlocked) (layer "F.SilkS")
      (effects (font (size 0.75 0.75) (thickness 0.12)))
    (tstamp 1ed502a4-6c06-437c-b588-7c0f5aa5f340)
  )
  (fp_text value "IN-PI15TAT5R5G5B" (at 0 0 unlocked) (layer "F.Fab")
      (effects (font (size 0.5 0.5) (thickness 0.05)))
    (tstamp e7d14668-efb1-49a2-a8cb-e44da734869e)
  )
  (fp_text user "${REFERENCE}" (at 0 0 unlocked) (layer "F.Fab")
      (effects (font (size 0.5 0.5) (thickness 0.05)))
    (tstamp 2257d223-2522-4caa-aadb-1b13858b2316)
  )
  (fp_rect (start -0.9 -0.9) (end 0.9 0.9)
    (stroke (width 0.12) (type default)) (fill none) (layer "F.SilkS") (tstamp fb2af7da-a2f2-4bd1-b0e9-821a12d4bc5c))
  (fp_circle (center -1.2 0.475) (end -1.08 0.475)
    (stroke (width 0.12) (type solid)) (fill solid) (layer "F.SilkS") (tstamp 33683c8f-0d69-4bfe-8ce6-a909439fb698))
  (fp_rect (start -0.75 -0.75) (end 0.75 0.75)
    (stroke (width 0.12) (type default)) (fill none) (layer "F.Fab") (tstamp 3b98a782-9260-4f06-b9f1-af71dd15799a))
  (pad "1" smd rect (at -0.475 0.475) (size 0.55 0.55) (layers "F.Cu" "F.Paste" "F.Mask")
    (thermal_bridge_angle 45) (tstamp f00a20ed-40a2-4efc-8239-519993f09c7e))
  (pad "2" smd rect (at 0.475 0.475) (size 0.55 0.55) (layers "F.Cu" "F.Paste" "F.Mask")
    (thermal_bridge_angle 45) (tstamp a1238429-1fb5-4233-aa61-e3f17d4d1eda))
  (pad "3" smd rect (at 0.475 -0.475) (size 0.55 0.55) (layers "F.Cu" "F.Paste" "F.Mask")
    (thermal_bridge_angle 45) (tstamp cfb04e26-b664-476d-a164-8ff0cb1c9c97))
  (pad "4" smd rect (at -0.475 -0.475) (size 0.55 0.55) (layers "F.Cu" "F.Paste" "F.Mask")
    (thermal_bridge_angle 45) (tstamp aea234b8-a49e-45de-bc58-43ee28b64d75))
  (model ":DESTINATION_SPACE_MODELS:LED_SMD/IPIXELSK6805-E-J_ADA.step"
    (offset (xyz 0 0 0))
    (scale (xyz 1 1 1))
    (rotate (xyz 0 0 -90))
  )
)
