(footprint "LEDC160X60X115L30N" (version 20221018) (generator pcbnew)
  (layer "F.Cu")
  (descr "LED, Chip; 1.60 mm L X 0.60 mm W X 1.15 mm H body")
  (attr smd)
  (fp_text reference "REF**" (at 0 -1.05) (layer "F.SilkS")
      (effects (font (size 0.75 0.75) (thickness 0.12)))
    (tstamp 24f56909-c6f4-44e6-9174-654c15c0ed26)
  )
  (fp_text value "Val**" (at 0 0) (layer "F.Fab")
      (effects (font (size 0.5 0.5) (thickness 0.05)))
    (tstamp f6fbfe3b-03a9-4ed4-adb2-af01b1969d8f)
  )
  (fp_text user "${REFERENCE}" (at 0 0) (layer "F.Fab")
      (effects (font (size 0.5 0.5) (thickness 0.05)))
    (tstamp 0ceacf83-50ae-429c-bcfc-966501cd1a6d)
  )
  (fp_line (start -0.264 -0.3) (end 0.264 -0.3)
    (stroke (width 0.12) (type solid)) (layer "F.SilkS") (tstamp 1351f4e7-8356-4bb8-a088-133b4a0be2bf))
  (fp_line (start -0.264 0.3) (end 0.264 0.3)
    (stroke (width 0.12) (type solid)) (layer "F.SilkS") (tstamp 57d5acd0-e9f9-47d4-ab82-d9b0409267a0))
  (fp_circle (center -1.526 0) (end -1.526 0.125)
    (stroke (width 0.25) (type solid)) (fill none) (layer "F.SilkS") (tstamp 8bd340e0-bb22-4a86-83cc-811fd6531583))
  (fp_line (start -0.8 -0.3) (end -0.5 -0.3)
    (stroke (width 0.025) (type solid)) (layer "Dwgs.User") (tstamp 1daeb3ec-73be-45d0-bbee-140452e7c33c))
  (fp_line (start -0.8 -0.3) (end 0.8 -0.3)
    (stroke (width 0.025) (type solid)) (layer "Dwgs.User") (tstamp afe95a1f-e050-4cd6-a8b1-ae94eb43be52))
  (fp_line (start -0.8 0.3) (end -0.8 -0.3)
    (stroke (width 0.025) (type solid)) (layer "Dwgs.User") (tstamp 2bff42d2-e099-4a53-a683-03985aa494c6))
  (fp_line (start -0.8 0.3) (end -0.8 -0.3)
    (stroke (width 0.025) (type solid)) (layer "Dwgs.User") (tstamp 35f98d11-88ef-4fb3-a1b0-3c5cb0f77355))
  (fp_line (start -0.5 -0.3) (end -0.5 0.3)
    (stroke (width 0.025) (type solid)) (layer "Dwgs.User") (tstamp cae22398-57d3-47a4-8cc9-0e96755e9121))
  (fp_line (start -0.5 0.3) (end -0.8 0.3)
    (stroke (width 0.025) (type solid)) (layer "Dwgs.User") (tstamp 27d67fd8-2348-4a66-ad40-e70b7ae68ec3))
  (fp_line (start 0.5 -0.3) (end 0.8 -0.3)
    (stroke (width 0.025) (type solid)) (layer "Dwgs.User") (tstamp f4138e0f-a4be-49d9-a629-f67d542c97a2))
  (fp_line (start 0.5 0.3) (end 0.5 -0.3)
    (stroke (width 0.025) (type solid)) (layer "Dwgs.User") (tstamp dce823f9-048d-475d-aefb-18bc4c891c8c))
  (fp_line (start 0.8 -0.3) (end 0.8 0.3)
    (stroke (width 0.025) (type solid)) (layer "Dwgs.User") (tstamp 550797d9-8a31-4ed1-b5a6-a5540a5111ad))
  (fp_line (start 0.8 -0.3) (end 0.8 0.3)
    (stroke (width 0.025) (type solid)) (layer "Dwgs.User") (tstamp 7c586502-ec6b-49cf-aebe-aedc06e4598e))
  (fp_line (start 0.8 0.3) (end -0.8 0.3)
    (stroke (width 0.025) (type solid)) (layer "Dwgs.User") (tstamp 4e041896-1333-4393-aa34-7a42f5e5062f))
  (fp_line (start 0.8 0.3) (end 0.5 0.3)
    (stroke (width 0.025) (type solid)) (layer "Dwgs.User") (tstamp ef8d81e7-50d5-4010-9e52-e9c01f992e54))
  (fp_line (start -1.356 -0.556) (end 1.356 -0.556)
    (stroke (width 0.05) (type solid)) (layer "F.CrtYd") (tstamp 55bda23e-3120-4ec9-8001-59c5954506f2))
  (fp_line (start -1.356 0.556) (end -1.356 -0.556)
    (stroke (width 0.05) (type solid)) (layer "F.CrtYd") (tstamp ae6dc144-4355-4df5-86b1-d066892d8df0))
  (fp_line (start 0 -0.291) (end 0 0.291)
    (stroke (width 0.05) (type solid)) (layer "F.CrtYd") (tstamp 90aa9877-d449-42c9-b5df-e72a127e1393))
  (fp_line (start 0.291 0) (end -0.291 0)
    (stroke (width 0.05) (type solid)) (layer "F.CrtYd") (tstamp 12384b38-368d-426d-a141-80c1b411c456))
  (fp_line (start 1.356 -0.556) (end 1.356 0.556)
    (stroke (width 0.05) (type solid)) (layer "F.CrtYd") (tstamp 8691cd9e-5e1f-45ae-8138-d11bdd02f579))
  (fp_line (start 1.356 0.556) (end -1.356 0.556)
    (stroke (width 0.05) (type solid)) (layer "F.CrtYd") (tstamp 7a3d67a7-cacb-49de-a519-788a490db229))
  (fp_circle (center 0 0) (end 0 0.218)
    (stroke (width 0.05) (type solid)) (fill none) (layer "F.CrtYd") (tstamp e6a6a2c7-b0f8-40cf-8cd2-96b841a9200c))
  (fp_line (start -0.8 -0.3) (end -0.8 0.1)
    (stroke (width 0.12) (type solid)) (layer "F.Fab") (tstamp 9fbb3be2-2813-47e7-a7e9-6796b86a5076))
  (fp_line (start -0.8 0.1) (end -0.6 0.3)
    (stroke (width 0.12) (type solid)) (layer "F.Fab") (tstamp 9ef84bcc-a501-44e5-a125-e73095c239d2))
  (fp_line (start -0.6 0.3) (end 0.8 0.3)
    (stroke (width 0.12) (type solid)) (layer "F.Fab") (tstamp 57801ee7-3d12-4864-95ce-a88aceb2a706))
  (fp_line (start 0.8 -0.3) (end -0.8 -0.3)
    (stroke (width 0.12) (type solid)) (layer "F.Fab") (tstamp f13800f1-68a0-4468-9a3c-d7142baab015))
  (fp_line (start 0.8 0.3) (end 0.8 -0.3)
    (stroke (width 0.12) (type solid)) (layer "F.Fab") (tstamp 270094f0-a2d8-488b-8c43-d24f0deae64e))
  (pad "A" smd rect (at 0.8 0) (size 0.712 0.712) (layers "F.Cu" "F.Paste" "F.Mask") (tstamp 79dcde05-d0d9-40d3-a272-0acce86f9d1c))
  (pad "K" smd rect (at -0.8 0) (size 0.712 0.712) (layers "F.Cu" "F.Paste" "F.Mask") (tstamp 2ca8e159-2f85-4d80-8890-83b46daca6f5))
  (model ":DESTINATION_SPACE_MODELS:LED_SMD/LTST-C193TGKT-5A.STEP"
    (offset (xyz 0 0 0))
    (scale (xyz 1 1 1))
    (rotate (xyz -90 0 -90))
  )
)
