(footprint "LOGO" (version 20221018) (generator bitmap2component)
  (layer "F.Cu")
  (attr board_only exclude_from_pos_files exclude_from_bom)
  (fp_text reference "G***" (at 0 0) (layer "F.SilkS")
      (effects (font (size 1.5 1.5) (thickness 0.3)))
    (tstamp 4fa80230-9fbd-421b-9cba-e6e9c464674a)
  )
  (fp_text value "LOGO" (at 0.75 0) (layer "F.SilkS") hide
      (effects (font (size 1.5 1.5) (thickness 0.3)))
    (tstamp f3eee983-1b67-4740-be22-47c474dbb8ec)
  )
  (fp_poly
    (pts
      (xy 2.682653 -17.571138)
      (xy 3.295867 -17.545776)
      (xy 3.853479 -17.503649)
      (xy 4.316886 -17.446490)
      (xy 5.624871 -17.186747)
      (xy 6.893092 -16.824834)
      (xy 8.117061 -16.363018)
      (xy 9.292288 -15.803565)
      (xy 10.414285 -15.148740)
      (xy 11.478560 -14.400809)
      (xy 12.480626 -13.562039)
      (xy 13.005367 -13.061068)
      (xy 13.893299 -12.095257)
      (xy 14.691642 -11.064758)
      (xy 15.398130 -9.974061)
      (xy 16.010497 -8.827656)
      (xy 16.526477 -7.630031)
      (xy 16.943804 -6.385677)
      (xy 17.260212 -5.099081)
      (xy 17.390789 -4.372588)
      (xy 17.429870 -4.107128)
      (xy 17.459864 -3.858128)
      (xy 17.481898 -3.604498)
      (xy 17.497102 -3.325147)
      (xy 17.506604 -2.998982)
      (xy 17.511533 -2.604915)
      (xy 17.513019 -2.121852)
      (xy 17.513023 -2.088816)
      (xy 17.507767 -1.436354)
      (xy 17.490032 -0.868996)
      (xy 17.456872 -0.360851)
      (xy 17.405339 0.113973)
      (xy 17.332486 0.581366)
      (xy 17.235365 1.067219)
      (xy 17.111030 1.597424)
      (xy 17.078681 1.726754)
      (xy 16.709046 2.968152)
      (xy 16.241520 4.162035)
      (xy 15.680918 5.304041)
      (xy 15.032055 6.389807)
      (xy 14.299747 7.414973)
      (xy 13.488808 8.375176)
      (xy 12.604054 9.266054)
      (xy 11.650300 10.083245)
      (xy 10.632360 10.822388)
      (xy 9.555050 11.479120)
      (xy 8.423185 12.049080)
      (xy 7.241581 12.527905)
      (xy 6.015051 12.911234)
      (xy 4.748412 13.194705)
      (xy 4.344737 13.262181)
      (xy 4.002816 13.308546)
      (xy 3.644699 13.343528)
      (xy 3.246072 13.368695)
      (xy 2.782618 13.385617)
      (xy 2.283772 13.395177)
      (xy 1.899067 13.399193)
      (xy 1.539453 13.400916)
      (xy 1.223998 13.400415)
      (xy 0.971771 13.397758)
      (xy 0.801842 13.393012)
      (xy 0.751974 13.389705)
      (xy -0.518587 13.217835)
      (xy -1.721183 12.967792)
      (xy -2.871250 12.635265)
      (xy -3.984222 12.215942)
      (xy -4.823747 11.832138)
      (xy -5.960674 11.211219)
      (xy -7.036030 10.500626)
      (xy -8.045144 9.706122)
      (xy -8.983345 8.833472)
      (xy -9.845959 7.888443)
      (xy -10.628316 6.876799)
      (xy -11.325744 5.804306)
      (xy -11.933571 4.676729)
      (xy -12.447125 3.499833)
      (xy -12.861735 2.279383)
      (xy -13.012452 1.726754)
      (xy -13.143382 1.182863)
      (xy -13.246427 0.689205)
      (xy -13.324535 0.219891)
      (xy -13.380653 -0.250971)
      (xy -13.417729 -0.749272)
      (xy -13.438710 -1.300903)
      (xy -13.446543 -1.931756)
      (xy -13.446696 -2.026870)
      (xy -12.892826 -2.026870)
      (xy -12.884705 -1.460632)
      (xy -12.863231 -0.925888)
      (xy -12.828404 -0.451055)
      (xy -12.791780 -0.139254)
      (xy -12.547188 1.173299)
      (xy -12.202124 2.438855)
      (xy -11.757141 3.656127)
      (xy -11.212790 4.823829)
      (xy -10.569623 5.940675)
      (xy -9.828191 7.005379)
      (xy -9.600697 7.296930)
      (xy -9.347418 7.595977)
      (xy -9.030889 7.942535)
      (xy -8.674110 8.313602)
      (xy -8.300082 8.686179)
      (xy -7.931805 9.037265)
      (xy -7.592279 9.343860)
      (xy -7.352631 9.544995)
      (xy -6.351062 10.279087)
      (xy -5.287746 10.932002)
      (xy -4.176485 11.497102)
      (xy -3.031081 11.967749)
      (xy -1.865334 12.337306)
      (xy -1.217028 12.495828)
      (xy -0.897921 12.567768)
      (xy -0.652727 12.621573)
      (xy -0.461379 12.651960)
      (xy -0.303806 12.653648)
      (xy -0.159941 12.621355)
      (xy -0.009714 12.549799)
      (xy 0.166944 12.433698)
      (xy 0.390101 12.267770)
      (xy 0.679827 12.046733)
      (xy 0.781442 11.969855)
      (xy 1.127935 11.709410)
      (xy 1.395575 11.510589)
      (xy 1.594029 11.367377)
      (xy 1.732960 11.273758)
      (xy 1.822036 11.223715)
      (xy 1.870921 11.211232)
      (xy 1.889281 11.230294)
      (xy 1.886783 11.274884)
      (xy 1.885327 11.282775)
      (xy 1.836391 11.346794)
      (xy 1.711612 11.464831)
      (xy 1.524945 11.624970)
      (xy 1.290345 11.815298)
      (xy 1.021767 12.023899)
      (xy 0.981468 12.054474)
      (xy 0.715470 12.258432)
      (xy 0.486802 12.439063)
      (xy 0.307878 12.586113)
      (xy 0.191110 12.689328)
      (xy 0.148912 12.738455)
      (xy 0.150507 12.740885)
      (xy 0.296257 12.770291)
      (xy 0.533320 12.795894)
      (xy 0.841653 12.817187)
      (xy 1.201216 12.833661)
      (xy 1.591966 12.844809)
      (xy 1.993861 12.850122)
      (xy 2.386860 12.849093)
      (xy 2.750921 12.841214)
      (xy 3.066001 12.825975)
      (xy 3.175473 12.817562)
      (xy 3.414017 12.793183)
      (xy 3.580387 12.761118)
      (xy 3.713626 12.707184)
      (xy 3.852773 12.617196)
      (xy 3.969506 12.529086)
      (xy 4.130303 12.402084)
      (xy 4.211362 12.326048)
      (xy 4.222938 12.286277)
      (xy 4.175284 12.268072)
      (xy 4.153756 12.264968)
      (xy 4.105872 12.259285)
      (xy 4.068251 12.247089)
      (xy 4.037326 12.214987)
      (xy 4.009532 12.149586)
      (xy 3.981301 12.037492)
      (xy 3.949069 11.865313)
      (xy 3.909269 11.619656)
      (xy 3.858336 11.287127)
      (xy 3.812025 10.981503)
      (xy 3.767006 10.665571)
      (xy 3.732990 10.388023)
      (xy 3.715397 10.204837)
      (xy 4.168019 10.204837)
      (xy 4.207014 10.547265)
      (xy 4.231895 10.735266)
      (xy 4.257178 10.878055)
      (xy 4.274278 10.937081)
      (xy 4.347825 10.963821)
      (xy 4.481965 10.947231)
      (xy 4.638959 10.896345)
      (xy 4.781072 10.820198)
      (xy 4.790351 10.813519)
      (xy 4.919497 10.675826)
      (xy 4.953578 10.508104)
      (xy 4.932983 10.382001)
      (xy 4.846410 10.248720)
      (xy 4.680378 10.171643)
      (xy 4.455957 10.158977)
      (xy 4.384206 10.168313)
      (xy 4.168019 10.204837)
      (xy 3.715397 10.204837)
      (xy 3.711807 10.167452)
      (xy 3.705288 10.022448)
      (xy 3.712620 9.972519)
      (xy 3.818606 9.921215)
      (xy 4.001779 9.872335)
      (xy 4.228002 9.832416)
      (xy 4.463135 9.807999)
      (xy 4.594976 9.803509)
      (xy 4.921393 9.836906)
      (xy 5.161196 9.938991)
      (xy 5.317631 10.112602)
      (xy 5.393943 10.360578)
      (xy 5.403071 10.510318)
      (xy 5.393469 10.698192)
      (xy 5.351352 10.826870)
      (xy 5.256749 10.947853)
      (xy 5.218052 10.987445)
      (xy 4.990640 11.153740)
      (xy 4.714007 11.267952)
      (xy 4.457186 11.307456)
      (xy 4.387390 11.314522)
      (xy 4.354834 11.353407)
      (xy 4.352293 11.450637)
      (xy 4.371307 11.622850)
      (xy 4.399048 11.837914)
      (xy 4.429101 11.978959)
      (xy 4.476309 12.046910)
      (xy 4.555516 12.042695)
      (xy 4.681566 11.967239)
      (xy 4.869302 11.821471)
      (xy 5.060367 11.665863)
      (xy 5.276885 11.492292)
      (xy 5.464103 11.347669)
      (xy 5.604518 11.245118)
      (xy 5.680626 11.197761)
      (xy 5.687012 11.196053)
      (xy 5.743200 11.219795)
      (xy 5.719334 11.292862)
      (xy 5.612803 11.418012)
      (xy 5.420998 11.598007)
      (xy 5.141309 11.835605)
      (xy 4.888581 12.040275)
      (xy 4.039880 12.717847)
      (xy 4.345489 12.678420)
      (xy 4.690155 12.622490)
      (xy 5.108517 12.536431)
      (xy 5.569407 12.427719)
      (xy 6.041656 12.303831)
      (xy 6.494096 12.172244)
      (xy 6.620099 12.132769)
      (xy 7.706876 11.733542)
      (xy 8.785739 11.235427)
      (xy 9.835051 10.650092)
      (xy 10.833177 9.989203)
      (xy 11.418860 9.544995)
      (xy 11.717908 9.291716)
      (xy 12.064465 8.975187)
      (xy 12.435532 8.618409)
      (xy 12.808109 8.244381)
      (xy 13.159195 7.876104)
      (xy 13.465790 7.536578)
      (xy 13.666926 7.296930)
      (xy 14.434483 6.248697)
      (xy 15.105742 5.145452)
      (xy 15.679108 3.990848)
      (xy 16.152988 2.788537)
      (xy 16.525789 1.542174)
      (xy 16.795916 0.255411)
      (xy 16.829250 0.047657)
      (xy 16.887377 -0.431734)
      (xy 16.928850 -0.987055)
      (xy 16.953459 -1.589100)
      (xy 16.960999 -2.208665)
      (xy 16.951261 -2.816546)
      (xy 16.924037 -3.383536)
      (xy 16.879120 -3.880431)
      (xy 16.858310 -4.038377)
      (xy 16.616233 -5.344359)
      (xy 16.278113 -6.595434)
      (xy 15.842087 -7.796208)
      (xy 15.306289 -8.951283)
      (xy 14.668855 -10.065262)
      (xy 14.044226 -10.985335)
      (xy 13.904792 -11.170707)
      (xy 13.787392 -11.316339)
      (xy 13.708494 -11.402327)
      (xy 13.687039 -11.417024)
      (xy 13.625221 -11.380685)
      (xy 13.499200 -11.278420)
      (xy 13.323093 -11.123528)
      (xy 13.111017 -10.929308)
      (xy 12.877089 -10.709060)
      (xy 12.635428 -10.476082)
      (xy 12.400150 -10.243674)
      (xy 12.185373 -10.025134)
      (xy 12.005214 -9.833762)
      (xy 11.998282 -9.826150)
      (xy 11.718381 -9.509762)
      (xy 11.434715 -9.173699)
      (xy 11.156747 -8.830669)
      (xy 10.893940 -8.493382)
      (xy 10.655755 -8.174548)
      (xy 10.451657 -7.886877)
      (xy 10.291108 -7.643077)
      (xy 10.183570 -7.455858)
      (xy 10.138506 -7.337930)
      (xy 10.137720 -7.327208)
      (xy 10.103802 -7.238689)
      (xy 10.026316 -7.129825)
      (xy 9.937089 -7.005696)
      (xy 9.930021 -6.905505)
      (xy 10.007782 -6.789887)
      (xy 10.052655 -6.741491)
      (xy 10.190397 -6.597719)
      (xy 9.955177 -6.413039)
      (xy 9.807661 -6.300037)
      (xy 9.687799 -6.213138)
      (xy 9.644318 -6.184699)
      (xy 9.586724 -6.102220)
      (xy 9.525826 -5.934355)
      (xy 9.467141 -5.706769)
      (xy 9.416186 -5.445130)
      (xy 9.378476 -5.175105)
      (xy 9.359530 -4.922361)
      (xy 9.358330 -4.854093)
      (xy 9.402094 -4.310090)
      (xy 9.536690 -3.805044)
      (xy 9.765270 -3.334895)
      (xy 10.090991 -2.895585)
      (xy 10.517007 -2.483053)
      (xy 11.046473 -2.093241)
      (xy 11.682543 -1.722089)
      (xy 11.865082 -1.628490)
      (xy 12.154643 -1.476730)
      (xy 12.440059 -1.315006)
      (xy 12.690001 -1.161813)
      (xy 12.873140 -1.035643)
      (xy 12.885173 -1.026326)
      (xy 13.197872 -0.725524)
      (xy 13.474760 -0.354146)
      (xy 13.687175 0.047209)
      (xy 13.740053 0.184548)
      (xy 13.810685 0.496320)
      (xy 13.839266 0.876460)
      (xy 13.826376 1.290413)
      (xy 13.772593 1.703623)
      (xy 13.709956 1.977412)
      (xy 13.589654 2.337338)
      (xy 13.417045 2.756115)
      (xy 13.206578 3.203403)
      (xy 12.972702 3.648868)
      (xy 12.729868 4.062170)
      (xy 12.678569 4.142841)
      (xy 12.474020 4.448793)
      (xy 12.244418 4.774066)
      (xy 11.999835 5.106160)
      (xy 11.750343 5.432573)
      (xy 11.506014 5.740801)
      (xy 11.276918 6.018345)
      (xy 11.073128 6.252702)
      (xy 10.904716 6.431371)
      (xy 10.781752 6.541849)
      (xy 10.720942 6.572807)
      (xy 10.663672 6.562354)
      (xy 10.650900 6.523150)
      (xy 10.689411 6.443422)
      (xy 10.785994 6.311401)
      (xy 10.947436 6.115314)
      (xy 11.062656 5.980178)
      (xy 11.727533 5.164817)
      (xy 12.298477 4.378089)
      (xy 12.773493 3.623274)
      (xy 13.150587 2.903649)
      (xy 13.427763 2.222493)
      (xy 13.512126 1.954872)
      (xy 13.583665 1.686581)
      (xy 13.625162 1.466127)
      (xy 13.642099 1.245732)
      (xy 13.639958 0.977618)
      (xy 13.636143 0.874037)
      (xy 13.619846 0.587972)
      (xy 13.593379 0.376400)
      (xy 13.549272 0.202444)
      (xy 13.480049 0.029226)
      (xy 13.453391 -0.027851)
      (xy 13.243344 -0.378037)
      (xy 12.958040 -0.697740)
      (xy 12.586782 -0.996438)
      (xy 12.118871 -1.283608)
      (xy 11.914658 -1.391094)
      (xy 11.296018 -1.724024)
      (xy 10.777187 -2.047989)
      (xy 10.348129 -2.372590)
      (xy 9.998809 -2.707428)
      (xy 9.719190 -3.062105)
      (xy 9.499237 -3.446223)
      (xy 9.331106 -3.862832)
      (xy 9.236155 -4.263908)
      (xy 9.192264 -4.723743)
      (xy 9.200194 -5.201698)
      (xy 9.260710 -5.657127)
      (xy 9.294653 -5.804443)
      (xy 9.344301 -6.000445)
      (xy 9.364500 -6.113437)
      (xy 9.354436 -6.168066)
      (xy 9.313296 -6.188981)
      (xy 9.281791 -6.194355)
      (xy 9.190722 -6.252066)
      (xy 9.071010 -6.390730)
      (xy 8.967640 -6.544956)
      (xy 8.821379 -6.756967)
      (xy 8.705104 -6.864800)
      (xy 8.657007 -6.879167)
      (xy 8.578885 -6.851986)
      (xy 8.559428 -6.752291)
      (xy 8.560775 -6.725488)
      (xy 8.536344 -6.611554)
      (xy 8.453304 -6.406963)
      (xy 8.311234 -6.110810)
      (xy 8.109712 -5.722187)
      (xy 7.990392 -5.500050)
      (xy 7.784927 -5.117995)
      (xy 7.628950 -4.814550)
      (xy 7.517754 -4.570988)
      (xy 7.446635 -4.368583)
      (xy 7.410888 -4.188611)
      (xy 7.405808 -4.012346)
      (xy 7.426690 -3.821063)
      (xy 7.468828 -3.596036)
      (xy 7.488453 -3.502415)
      (xy 7.657041 -2.972960)
      (xy 7.929946 -2.481338)
      (xy 8.306408 -2.028379)
      (xy 8.785664 -1.614907)
      (xy 9.366954 -1.241752)
      (xy 9.747807 -1.045429)
      (xy 10.256169 -0.778499)
      (xy 10.672178 -0.503535)
      (xy 11.014775 -0.207601)
      (xy 11.093407 -0.126436)
      (xy 11.407417 0.286360)
      (xy 11.618963 0.742498)
      (xy 11.728078 1.241680)
      (xy 11.734798 1.783606)
      (xy 11.639156 2.367975)
      (xy 11.441187 2.994489)
      (xy 11.140926 3.662847)
      (xy 10.738407 4.372750)
      (xy 10.541703 4.678947)
      (xy 10.152369 5.230954)
      (xy 9.690163 5.827292)
      (xy 9.172848 6.447514)
      (xy 8.618188 7.071176)
      (xy 8.043946 7.677832)
      (xy 7.467886 8.247037)
      (xy 7.323155 8.383435)
      (xy 7.052058 8.632522)
      (xy 6.850583 8.807920)
      (xy 6.710396 8.915522)
      (xy 6.623163 8.961224)
      (xy 6.580551 8.950921)
      (xy 6.572807 8.914181)
      (xy 6.610711 8.862119)
      (xy 6.717634 8.742406)
      (xy 6.883396 8.565739)
      (xy 7.097815 8.342810)
      (xy 7.350709 8.084316)
      (xy 7.631898 7.800952)
      (xy 7.646619 7.786220)
      (xy 8.454454 6.952216)
      (xy 9.164336 6.163600)
      (xy 9.778476 5.416994)
      (xy 10.299082 4.709019)
      (xy 10.728365 4.036297)
      (xy 11.068534 3.395447)
      (xy 11.321799 2.783092)
      (xy 11.490369 2.195853)
      (xy 11.558262 1.805087)
      (xy 11.561798 1.357779)
      (xy 11.469398 0.904106)
      (xy 11.290873 0.472745)
      (xy 11.036036 0.092375)
      (xy 10.933718 -0.020274)
      (xy 10.727472 -0.217405)
      (xy 10.519350 -0.385883)
      (xy 10.282666 -0.543824)
      (xy 9.990732 -0.709343)
      (xy 9.692106 -0.863076)
      (xy 9.431559 -0.998307)
      (xy 9.171506 -1.141398)
      (xy 8.951543 -1.270234)
      (xy 8.865254 -1.324847)
      (xy 8.347619 -1.724728)
      (xy 7.924041 -2.175566)
      (xy 7.597746 -2.672516)
      (xy 7.371959 -3.210728)
      (xy 7.254820 -3.745472)
      (xy 7.213378 -4.065286)
      (xy 6.805138 -3.313784)
      (xy 6.662860 -3.054714)
      (xy 6.538852 -2.834267)
      (xy 6.442800 -2.669245)
      (xy 6.384390 -2.576447)
      (xy 6.371858 -2.562281)
      (xy 6.317567 -2.590203)
      (xy 6.189173 -2.665997)
      (xy 6.006547 -2.777705)
      (xy 5.814111 -2.897890)
      (xy 5.281402 -3.233498)
      (xy 5.320275 -2.995368)
      (xy 5.461493 -2.455813)
      (xy 5.702010 -1.962033)
      (xy 6.042735 -1.512996)
      (xy 6.484577 -1.107672)
      (xy 7.028442 -0.745030)
      (xy 7.529116 -0.488827)
      (xy 8.074212 -0.191727)
      (xy 8.531839 0.159248)
      (xy 8.897546 0.558846)
      (xy 9.166882 1.001815)
      (xy 9.335393 1.482905)
      (xy 9.373910 1.687193)
      (xy 9.393435 2.195304)
      (xy 9.313220 2.747201)
      (xy 9.134860 3.340387)
      (xy 8.859949 3.972367)
      (xy 8.490082 4.640644)
      (xy 8.026854 5.342724)
      (xy 7.471860 6.076110)
      (xy 6.826694 6.838307)
      (xy 6.092952 7.626818)
      (xy 5.272228 8.439147)
      (xy 4.745434 8.930790)
      (xy 4.409894 9.232071)
      (xy 4.146780 9.455598)
      (xy 3.951814 9.604402)
      (xy 3.820715 9.681518)
      (xy 3.749202 9.689978)
      (xy 3.732018 9.648953)
      (xy 3.771370 9.597029)
      (xy 3.880760 9.483534)
      (xy 4.047184 9.321162)
      (xy 4.257641 9.122608)
      (xy 4.490887 8.908056)
      (xy 5.308588 8.139495)
      (xy 6.061048 7.381153)
      (xy 6.742445 6.639894)
      (xy 7.346957 5.922581)
      (xy 7.868762 5.236075)
      (xy 8.302038 4.587241)
      (xy 8.598570 4.066228)
      (xy 8.855200 3.528774)
      (xy 9.036090 3.048155)
      (xy 9.146957 2.605213)
      (xy 9.193518 2.180786)
      (xy 9.195809 2.064836)
      (xy 9.158135 1.590230)
      (xy 9.040230 1.164780)
      (xy 8.836297 0.780585)
      (xy 8.540540 0.429743)
      (xy 8.147162 0.104352)
      (xy 7.650366 -0.203490)
      (xy 7.456853 -0.305570)
      (xy 7.174881 -0.454591)
      (xy 6.892115 -0.613733)
      (xy 6.643769 -0.762653)
      (xy 6.482671 -0.868377)
      (xy 6.013669 -1.260041)
      (xy 5.643496 -1.701204)
      (xy 5.372048 -2.190153)
      (xy 5.199219 -2.725172)
      (xy 5.124905 -3.304550)
      (xy 5.140385 -3.704167)
      (xy 5.292588 -3.704167)
      (xy 5.402032 -3.871272)
      (xy 5.457912 -3.957863)
      (xy 5.565607 -4.125899)
      (xy 5.717110 -4.362845)
      (xy 5.904415 -4.656168)
      (xy 6.119518 -4.993331)
      (xy 6.354410 -5.361801)
      (xy 6.504911 -5.598026)
      (xy 6.776237 -6.023202)
      (xy 6.995264 -6.363627)
      (xy 7.169058 -6.628816)
      (xy 7.304685 -6.828285)
      (xy 7.409214 -6.971550)
      (xy 7.489710 -7.068127)
      (xy 7.553241 -7.127531)
      (xy 7.606873 -7.159279)
      (xy 7.657674 -7.172887)
      (xy 7.676147 -7.175130)
      (xy 7.805631 -7.193445)
      (xy 7.844083 -7.232617)
      (xy 7.803098 -7.321664)
      (xy 7.760888 -7.387174)
      (xy 7.696357 -7.554351)
      (xy 7.679313 -7.797654)
      (xy 7.680783 -7.846606)
      (xy 7.693737 -8.164012)
      (xy 7.525265 -8.162159)
      (xy 7.425082 -8.146519)
      (xy 7.332284 -8.089260)
      (xy 7.223467 -7.971189)
      (xy 7.110774 -7.822283)
      (xy 6.705031 -7.227502)
      (xy 6.335658 -6.612224)
      (xy 6.010608 -5.993576)
      (xy 5.737836 -5.388685)
      (xy 5.525296 -4.814678)
      (xy 5.380940 -4.288683)
      (xy 5.327695 -3.982676)
      (xy 5.292588 -3.704167)
      (xy 5.140385 -3.704167)
      (xy 5.149001 -3.926571)
      (xy 5.271402 -4.589523)
      (xy 5.492002 -5.291691)
      (xy 5.810698 -6.031363)
      (xy 6.227384 -6.806823)
      (xy 6.741955 -7.616359)
      (xy 6.910625 -7.858876)
      (xy 7.071247 -8.087156)
      (xy 7.176655 -8.246927)
      (xy 7.236141 -8.360506)
      (xy 7.258997 -8.450210)
      (xy 7.255781 -8.513504)
      (xy 7.984186 -8.513504)
      (xy 8.183650 -8.548757)
      (xy 8.345030 -8.580236)
      (xy 8.469971 -8.609517)
      (xy 8.477407 -8.611634)
      (xy 8.530427 -8.665126)
      (xy 8.631496 -8.801695)
      (xy 8.638465 -8.811946)
      (xy 9.872694 -8.811946)
      (xy 10.097171 -8.470363)
      (xy 10.210743 -8.307123)
      (xy 10.303630 -8.191072)
      (xy 10.357915 -8.144302)
      (xy 10.361423 -8.144544)
      (xy 10.408286 -8.192731)
      (xy 10.507339 -8.312805)
      (xy 10.644461 -8.487131)
      (xy 10.805535 -8.698076)
      (xy 10.820025 -8.717325)
      (xy 11.163893 -9.151885)
      (xy 11.564201 -9.620271)
      (xy 11.994457 -10.093689)
      (xy 12.428169 -10.543345)
      (xy 12.838847 -10.940446)
      (xy 12.998110 -11.084649)
      (xy 13.199378 -11.265208)
      (xy 13.366277 -11.420040)
      (xy 13.482999 -11.534100)
      (xy 13.533739 -11.592348)
      (xy 13.534681 -11.595289)
      (xy 13.500988 -11.651476)
      (xy 13.410322 -11.769545)
      (xy 13.279540 -11.927950)
      (xy 13.220439 -11.997006)
      (xy 12.905351 -12.361548)
      (xy 12.624433 -12.126936)
      (xy 12.498653 -12.015182)
      (xy 12.311658 -11.840302)
      (xy 12.080383 -11.618560)
      (xy 11.821763 -11.366223)
      (xy 11.552735 -11.099556)
      (xy 11.505200 -11.051981)
      (xy 11.217678 -10.761819)
      (xy 10.994470 -10.529691)
      (xy 10.819918 -10.336077)
      (xy 10.678364 -10.161454)
      (xy 10.554148 -9.986300)
      (xy 10.431613 -9.791094)
      (xy 10.295100 -9.556314)
      (xy 10.269790 -9.511791)
      (xy 9.872694 -8.811946)
      (xy 8.638465 -8.811946)
      (xy 8.772066 -9.008464)
      (xy 8.943593 -9.272552)
      (xy 9.137528 -9.581080)
      (xy 9.334810 -9.903730)
      (xy 9.538481 -10.240987)
      (xy 9.722748 -10.545684)
      (xy 9.879948 -10.805183)
      (xy 10.002415 -11.006843)
      (xy 10.082485 -11.138028)
      (xy 10.112406 -11.185997)
      (xy 10.160512 -11.163985)
      (xy 10.275079 -11.089653)
      (xy 10.433637 -10.977780)
      (xy 10.475075 -10.947476)
      (xy 10.644731 -10.828048)
      (xy 10.780295 -10.742734)
      (xy 10.857263 -10.706699)
      (xy 10.863854 -10.706873)
      (xy 10.913729 -10.748659)
      (xy 11.031453 -10.857271)
      (xy 11.205297 -11.021578)
      (xy 11.423529 -11.230446)
      (xy 11.674419 -11.472743)
      (xy 11.825773 -11.619818)
      (xy 12.747095 -12.517049)
      (xy 12.423866 -12.836905)
      (xy 12.100638 -13.156761)
      (xy 11.634420 -12.750810)
      (xy 11.396618 -12.536058)
      (xy 11.099284 -12.255552)
      (xy 10.758419 -11.925422)
      (xy 10.390028 -11.561798)
      (xy 10.010113 -11.180811)
      (xy 9.634677 -10.798591)
      (xy 9.279722 -10.431269)
      (xy 8.961253 -10.094974)
      (xy 8.695273 -9.805836)
      (xy 8.552837 -9.644720)
      (xy 8.348730 -9.404849)
      (xy 8.207108 -9.227002)
      (xy 8.115334 -9.090940)
      (xy 8.060773 -8.976421)
      (xy 8.030788 -8.863205)
      (xy 8.019765 -8.790836)
      (xy 7.984186 -8.513504)
      (xy 7.255781 -8.513504)
      (xy 7.254518 -8.538359)
      (xy 7.234414 -8.636501)
      (xy 7.207486 -8.882263)
      (xy 7.226150 -9.135889)
      (xy 7.283114 -9.368270)
      (xy 7.371086 -9.550296)
      (xy 7.482771 -9.652857)
      (xy 7.489764 -9.655732)
      (xy 7.643262 -9.659407)
      (xy 7.800012 -9.571041)
      (xy 7.902309 -9.452637)
      (xy 8.001887 -9.300840)
      (xy 8.497540 -9.872459)
      (xy 8.751352 -10.155785)
      (xy 9.068985 -10.495735)
      (xy 9.432029 -10.873778)
      (xy 9.822076 -11.271378)
      (xy 10.220717 -11.670002)
      (xy 10.609541 -12.051116)
      (xy 10.970141 -12.396186)
      (xy 11.284106 -12.686678)
      (xy 11.363158 -12.757491)
      (xy 11.563155 -12.938918)
      (xy 11.728524 -13.096404)
      (xy 11.843355 -13.214251)
      (xy 11.891739 -13.276755)
      (xy 11.892325 -13.279756)
      (xy 11.849071 -13.342300)
      (xy 11.729253 -13.456660)
      (xy 11.547785 -13.611072)
      (xy 11.319583 -13.793772)
      (xy 11.059561 -13.992997)
      (xy 10.782635 -14.196985)
      (xy 10.503718 -14.393970)
      (xy 10.332676 -14.509857)
      (xy 9.242263 -15.173496)
      (xy 8.119680 -15.734775)
      (xy 6.957082 -16.196666)
      (xy 5.746619 -16.562141)
      (xy 4.480445 -16.834168)
      (xy 3.982676 -16.913710)
      (xy 3.574653 -16.959001)
      (xy 3.084448 -16.990939)
      (xy 2.540481 -17.009524)
      (xy 1.971169 -17.014756)
      (xy 1.404931 -17.006635)
      (xy 0.870186 -16.985161)
      (xy 0.395353 -16.950334)
      (xy 0.083553 -16.913710)
      (xy -1.229001 -16.669118)
      (xy -2.494557 -16.324055)
      (xy -3.711828 -15.879071)
      (xy -4.879530 -15.334720)
      (xy -5.996376 -14.691553)
      (xy -7.061081 -13.950122)
      (xy -7.352631 -13.722627)
      (xy -7.651679 -13.469348)
      (xy -7.998236 -13.152819)
      (xy -8.369303 -12.796041)
      (xy -8.741880 -12.422013)
      (xy -9.092966 -12.053736)
      (xy -9.399561 -11.714209)
      (xy -9.600697 -11.474562)
      (xy -10.369826 -10.424841)
      (xy -11.040846 -9.322614)
      (xy -11.613207 -8.169168)
      (xy -12.086356 -6.965789)
      (xy -12.459741 -5.713761)
      (xy -12.732811 -4.414372)
      (xy -12.791780 -4.038377)
      (xy -12.837071 -3.630354)
      (xy -12.869009 -3.140150)
      (xy -12.887594 -2.596182)
      (xy -12.892826 -2.026870)
      (xy -13.446696 -2.026870)
      (xy -13.446795 -2.088816)
      (xy -13.445484 -2.578031)
      (xy -13.440798 -2.976956)
      (xy -13.431609 -3.306682)
      (xy -13.416788 -3.588300)
      (xy -13.395206 -3.842902)
      (xy -13.365734 -4.091578)
      (xy -13.327243 -4.355419)
      (xy -13.324560 -4.372588)
      (xy -13.064817 -5.680572)
      (xy -12.702904 -6.948794)
      (xy -12.241088 -8.172763)
      (xy -11.681634 -9.347990)
      (xy -11.026809 -10.469986)
      (xy -10.278879 -11.534262)
      (xy -9.440108 -12.536327)
      (xy -8.939138 -13.061068)
      (xy -7.973326 -13.949000)
      (xy -6.942828 -14.747343)
      (xy -5.852131 -15.453831)
      (xy -4.705726 -16.066198)
      (xy -3.508101 -16.582178)
      (xy -2.263746 -16.999505)
      (xy -0.977151 -17.315913)
      (xy -0.250658 -17.446490)
      (xy 0.226226 -17.504948)
      (xy 0.785622 -17.546642)
      (xy 1.399907 -17.571571)
      (xy 2.041458 -17.579737)
    )

    (stroke (width 0.000000) (type solid)) (fill solid) (layer "F.SilkS") (tstamp 6902c5fa-446c-48d6-b1cc-4f9a20678e93))
  (fp_poly
    (pts
      (xy 2.717511 9.925810)
      (xy 2.895830 9.953514)
      (xy 3.052956 9.990540)
      (xy 3.154710 10.029401)
      (xy 3.175000 10.051304)
      (xy 3.158679 10.107752)
      (xy 3.118980 10.226062)
      (xy 3.114912 10.237764)
      (xy 3.064193 10.352566)
      (xy 3.001488 10.381443)
      (xy 2.910981 10.355446)
      (xy 2.685570 10.299877)
      (xy 2.466770 10.296716)
      (xy 2.283754 10.341503)
      (xy 2.165693 10.429778)
      (xy 2.144281 10.472675)
      (xy 2.140254 10.616744)
      (xy 2.231010 10.743482)
      (xy 2.423153 10.859899)
      (xy 2.564191 10.918258)
      (xy 2.870994 11.058523)
      (xy 3.077251 11.217272)
      (xy 3.193605 11.406029)
      (xy 3.230695 11.636317)
      (xy 3.230702 11.640061)
      (xy 3.215286 11.834480)
      (xy 3.155734 11.975761)
      (xy 3.074308 12.075814)
      (xy 2.843511 12.244312)
      (xy 2.546671 12.337933)
      (xy 2.203389 12.353046)
      (xy 1.875677 12.297790)
      (xy 1.699883 12.225797)
      (xy 1.626540 12.123311)
      (xy 1.648201 11.978111)
      (xy 1.661639 11.946443)
      (xy 1.708375 11.862170)
      (xy 1.766786 11.841832)
      (xy 1.876770 11.877308)
      (xy 1.917831 11.894293)
      (xy 2.158609 11.962095)
      (xy 2.388665 11.970105)
      (xy 2.584985 11.924140)
      (xy 2.724555 11.830022)
      (xy 2.784364 11.693567)
      (xy 2.785088 11.674992)
      (xy 2.738735 11.525238)
      (xy 2.595257 11.396679)
      (xy 2.348027 11.283612)
      (xy 2.318448 11.273314)
      (xy 2.112345 11.177581)
      (xy 1.914822 11.046497)
      (xy 1.863526 11.002363)
      (xy 1.736901 10.862245)
      (xy 1.681103 10.728722)
      (xy 1.671053 10.598193)
      (xy 1.720801 10.345602)
      (xy 1.862840 10.143601)
      (xy 2.086367 10.000568)
      (xy 2.380576 9.924882)
      (xy 2.552180 9.914912)
    )

    (stroke (width 0.000000) (type solid)) (fill solid) (layer "F.SilkS") (tstamp 2be1490b-ffe5-4b21-a2a6-e3062df0bf60))
  (fp_poly
    (pts
      (xy -1.228684 10.044867)
      (xy -1.202719 10.049529)
      (xy -1.066508 10.092954)
      (xy -1.034526 10.154647)
      (xy -1.037076 10.162668)
      (xy -1.035311 10.209005)
      (xy -0.963066 10.212895)
      (xy -0.867437 10.194337)
      (xy -0.584625 10.175440)
      (xy -0.332069 10.241661)
      (xy -0.128786 10.380064)
      (xy 0.006206 10.577715)
      (xy 0.053895 10.820944)
      (xy 0.040446 10.980912)
      (xy 0.006336 11.190337)
      (xy -0.041987 11.422964)
      (xy -0.098075 11.652540)
      (xy -0.155482 11.852811)
      (xy -0.207760 11.997522)
      (xy -0.248460 12.060420)
      (xy -0.250658 12.061071)
      (xy -0.345892 12.059642)
      (xy -0.435094 12.047121)
      (xy -0.526187 12.017373)
      (xy -0.577062 11.957548)
      (xy -0.589739 11.848723)
      (xy -0.566235 11.671977)
      (xy -0.508568 11.408389)
      (xy -0.504884 11.392841)
      (xy -0.453064 11.164026)
      (xy -0.413375 10.968548)
      (xy -0.391974 10.837594)
      (xy -0.389912 10.810375)
      (xy -0.438070 10.676550)
      (xy -0.559488 10.580870)
      (xy -0.719584 10.533538)
      (xy -0.883776 10.544757)
      (xy -1.017482 10.624732)
      (xy -1.017824 10.625110)
      (xy -1.069301 10.719845)
      (xy -1.134851 10.893866)
      (xy -1.204055 11.117778)
      (xy -1.239953 11.251754)
      (xy -1.303155 11.497631)
      (xy -1.353662 11.653117)
      (xy -1.408217 11.735266)
      (xy -1.483562 11.761132)
      (xy -1.596438 11.747768)
      (xy -1.704291 11.724733)
      (xy -1.748175 11.712038)
      (xy -1.774959 11.685325)
      (xy -1.783122 11.628039)
      (xy -1.771139 11.523624)
      (xy -1.737487 11.355525)
      (xy -1.680642 11.107186)
      (xy -1.626260 10.876849)
      (xy -1.557580 10.589992)
      (xy -1.497245 10.343918)
      (xy -1.450093 10.157904)
      (xy -1.420961 10.051223)
      (xy -1.414587 10.033555)
      (xy -1.354547 10.029115)
    )

    (stroke (width 0.000000) (type solid)) (fill solid) (layer "F.SilkS") (tstamp 84e56516-87d9-4fad-9667-4adbec7069b0))
  (fp_poly
    (pts
      (xy 6.451578 9.323971)
      (xy 6.502853 9.376334)
      (xy 6.608258 9.498458)
      (xy 6.755784 9.675362)
      (xy 6.933422 9.892062)
      (xy 7.129161 10.133577)
      (xy 7.330993 10.384923)
      (xy 7.526907 10.631119)
      (xy 7.704894 10.857183)
      (xy 7.852945 11.048131)
      (xy 7.959051 11.188982)
      (xy 8.011200 11.264754)
      (xy 8.014267 11.273480)
      (xy 7.952649 11.301202)
      (xy 7.827619 11.347267)
      (xy 7.798246 11.357399)
      (xy 7.692578 11.388998)
      (xy 7.614437 11.386329)
      (xy 7.534995 11.335198)
      (xy 7.425423 11.221414)
      (xy 7.350801 11.137128)
      (xy 7.098312 10.850376)
      (xy 6.738082 10.960672)
      (xy 6.377851 11.070968)
      (xy 6.363296 11.342392)
      (xy 6.344002 11.588423)
      (xy 6.312568 11.745318)
      (xy 6.260718 11.835277)
      (xy 6.180177 11.880499)
      (xy 6.160704 11.885927)
      (xy 6.014275 11.927784)
      (xy 5.931149 11.956151)
      (xy 5.867466 11.964913)
      (xy 5.855792 11.903745)
      (xy 5.867374 11.831060)
      (xy 5.879543 11.723177)
      (xy 5.893628 11.525906)
      (xy 5.908372 11.261218)
      (xy 5.922522 10.951084)
      (xy 5.932237 10.694737)
      (xy 5.938822 10.510426)
      (xy 6.351747 10.510426)
      (xy 6.367591 10.630777)
      (xy 6.420808 10.671572)
      (xy 6.532579 10.648681)
      (xy 6.724089 10.577972)
      (xy 6.728229 10.576422)
      (xy 6.799661 10.536538)
      (xy 6.816346 10.478092)
      (xy 6.771871 10.384372)
      (xy 6.659823 10.238664)
      (xy 6.549215 10.109868)
      (xy 6.354183 9.887061)
      (xy 6.352092 10.294653)
      (xy 6.351747 10.510426)
      (xy 5.938822 10.510426)
      (xy 5.946723 10.289307)
      (xy 5.960524 9.980852)
      (xy 5.976660 9.755007)
      (xy 5.998150 9.597406)
      (xy 6.028015 9.493682)
      (xy 6.069273 9.429469)
      (xy 6.124944 9.390400)
      (xy 6.198047 9.362111)
      (xy 6.213406 9.357017)
      (xy 6.352086 9.322856)
      (xy 6.444446 9.320862)
    )

    (stroke (width 0.000000) (type solid)) (fill solid) (layer "F.SilkS") (tstamp 013a9f6c-a2b0-4ea2-a1e2-bc384c0dbf22))
  (fp_poly
    (pts
      (xy -2.817385 9.456209)
      (xy -2.639367 9.520160)
      (xy -2.369094 9.696274)
      (xy -2.186482 9.933975)
      (xy -2.099314 10.221691)
      (xy -2.092794 10.332805)
      (xy -2.141538 10.643598)
      (xy -2.276404 10.901515)
      (xy -2.480345 11.095711)
      (xy -2.736312 11.215342)
      (xy -3.027260 11.249563)
      (xy -3.336139 11.187530)
      (xy -3.397807 11.162949)
      (xy -3.659882 11.002266)
      (xy -3.854568 10.787035)
      (xy -3.968766 10.538818)
      (xy -3.985460 10.328506)
      (xy -3.518248 10.328506)
      (xy -3.516962 10.522786)
      (xy -3.448172 10.693785)
      (xy -3.304964 10.817254)
      (xy -3.279130 10.829137)
      (xy -3.053346 10.878076)
      (xy -2.854926 10.820008)
      (xy -2.700924 10.683853)
      (xy -2.584513 10.480966)
      (xy -2.550512 10.269123)
      (xy -2.591125 10.072340)
      (xy -2.698559 9.914633)
      (xy -2.865019 9.820016)
      (xy -2.986647 9.803509)
      (xy -3.186230 9.848445)
      (xy -3.345967 9.967088)
      (xy -3.458945 10.135191)
      (xy -3.518248 10.328506)
      (xy -3.985460 10.328506)
      (xy -3.989375 10.279177)
      (xy -3.977082 10.209433)
      (xy -3.853971 9.891670)
      (xy -3.661258 9.649640)
      (xy -3.414131 9.491169)
      (xy -3.127778 9.424084)
    )

    (stroke (width 0.000000) (type solid)) (fill solid) (layer "F.SilkS") (tstamp cd22ce78-2059-4e19-bc8d-049d679d1a1d))
  (fp_poly
    (pts
      (xy 9.160053 8.100295)
      (xy 9.190790 8.155751)
      (xy 9.210562 8.282350)
      (xy 9.219470 8.309488)
      (xy 9.189010 8.376865)
      (xy 9.048622 8.452997)
      (xy 8.967686 8.483839)
      (xy 8.635970 8.644794)
      (xy 8.397334 8.853284)
      (xy 8.255549 9.099436)
      (xy 8.214386 9.373380)
      (xy 8.277617 9.665245)
      (xy 8.417979 9.922502)
      (xy 8.574428 10.067314)
      (xy 8.791467 10.174740)
      (xy 9.021043 10.225528)
      (xy 9.156882 10.218508)
      (xy 9.367010 10.146393)
      (xy 9.599414 10.025058)
      (xy 9.802594 9.883592)
      (xy 9.882245 9.808831)
      (xy 9.965200 9.730524)
      (xy 10.028370 9.733401)
      (xy 10.091059 9.783840)
      (xy 10.173619 9.883841)
      (xy 10.175999 9.980570)
      (xy 10.092473 10.096918)
      (xy 9.988183 10.194977)
      (xy 9.652335 10.432695)
      (xy 9.297842 10.580119)
      (xy 8.941840 10.633680)
      (xy 8.601468 10.589813)
      (xy 8.422876 10.520770)
      (xy 8.180951 10.345709)
      (xy 7.974590 10.090285)
      (xy 7.826693 9.784818)
      (xy 7.798959 9.694753)
      (xy 7.762644 9.358211)
      (xy 7.830655 9.031302)
      (xy 7.995947 8.726168)
      (xy 8.251470 8.454952)
      (xy 8.590178 8.229794)
      (xy 8.673231 8.188550)
      (xy 8.880975 8.109384)
      (xy 9.050294 8.079519)
    )

    (stroke (width 0.000000) (type solid)) (fill solid) (layer "F.SilkS") (tstamp 13bc95dd-4563-4b14-8bd9-930853322110))
  (fp_poly
    (pts
      (xy -4.306340 8.755379)
      (xy -4.186872 8.800519)
      (xy -4.147135 8.818771)
      (xy -4.023360 8.885965)
      (xy -3.984152 8.944419)
      (xy -4.010387 9.026125)
      (xy -4.016306 9.037636)
      (xy -4.092515 9.181025)
      (xy -4.197553 9.375108)
      (xy -4.320197 9.599568)
      (xy -4.449222 9.834088)
      (xy -4.573403 10.058351)
      (xy -4.681517 10.252041)
      (xy -4.762338 10.394841)
      (xy -4.804644 10.466433)
      (xy -4.808188 10.470991)
      (xy -4.856521 10.443532)
      (xy -4.964170 10.376469)
      (xy -4.999232 10.354118)
      (xy -5.114931 10.274757)
      (xy -5.176948 10.221963)
      (xy -5.180263 10.215526)
      (xy -5.154767 10.162430)
      (xy -5.086021 10.033272)
      (xy -4.985639 9.848947)
      (xy -4.865235 9.630351)
      (xy -4.736421 9.398380)
      (xy -4.610812 9.173929)
      (xy -4.500022 8.977893)
      (xy -4.415663 8.831168)
      (xy -4.369349 8.754649)
      (xy -4.365244 8.749118)
    )

    (stroke (width 0.000000) (type solid)) (fill solid) (layer "F.SilkS") (tstamp d5fbc098-46ce-4e59-8090-9d8eb9513123))
  (fp_poly
    (pts
      (xy -5.079950 7.755609)
      (xy -4.929459 7.829990)
      (xy -4.874736 7.900938)
      (xy -4.904922 7.997296)
      (xy -4.958501 8.078222)
      (xy -5.031279 8.188827)
      (xy -5.042208 8.261071)
      (xy -4.979600 8.326083)
      (xy -4.832127 8.414790)
      (xy -4.746602 8.504508)
      (xy -4.762869 8.624495)
      (xy -4.816677 8.709539)
      (xy -4.874602 8.773792)
      (xy -4.932735 8.776695)
      (xy -5.031568 8.715933)
      (xy -5.060237 8.695613)
      (xy -5.176981 8.618166)
      (xy -5.251376 8.579177)
      (xy -5.257315 8.578070)
      (xy -5.304265 8.621582)
      (xy -5.390280 8.734279)
      (xy -5.497802 8.889405)
      (xy -5.609275 9.060203)
      (xy -5.707142 9.219919)
      (xy -5.773848 9.341794)
      (xy -5.792982 9.394430)
      (xy -5.751806 9.469976)
      (xy -5.652212 9.562510)
      (xy -5.647132 9.566251)
      (xy -5.551454 9.648183)
      (xy -5.537953 9.717625)
      (xy -5.576978 9.793703)
      (xy -5.666892 9.889962)
      (xy -5.776332 9.901482)
      (xy -5.923328 9.826278)
      (xy -6.030949 9.743752)
      (xy -6.173143 9.598183)
      (xy -6.239490 9.446186)
      (xy -6.228739 9.270446)
      (xy -6.139640 9.053649)
      (xy -5.970942 8.778481)
      (xy -5.960087 8.762426)
      (xy -5.836134 8.576164)
      (xy -5.740556 8.425740)
      (xy -5.687653 8.333973)
      (xy -5.681579 8.317968)
      (xy -5.720931 8.261633)
      (xy -5.775962 8.214977)
      (xy -5.836282 8.158645)
      (xy -5.831734 8.095450)
      (xy -5.774831 8.000189)
      (xy -5.698029 7.903783)
      (xy -5.628347 7.892209)
      (xy -5.565667 7.923809)
      (xy -5.478667 7.959542)
      (xy -5.407866 7.924184)
      (xy -5.341156 7.842508)
      (xy -5.254283 7.743237)
      (xy -5.173774 7.724020)
    )

    (stroke (width 0.000000) (type solid)) (fill solid) (layer "F.SilkS") (tstamp bce0aaca-8bce-4e7e-8524-c6b549ab7a38))
  (fp_poly
    (pts
      (xy 10.475191 6.892202)
      (xy 10.545595 6.976645)
      (xy 10.582835 7.039614)
      (xy 10.585896 7.097185)
      (xy 10.542718 7.169136)
      (xy 10.441241 7.275246)
      (xy 10.269403 7.435295)
      (xy 10.261499 7.442545)
      (xy 9.890151 7.783116)
      (xy 10.044621 7.985637)
      (xy 10.145915 8.106840)
      (xy 10.223466 8.179188)
      (xy 10.243291 8.188158)
      (xy 10.303645 8.153878)
      (xy 10.422870 8.063235)
      (xy 10.577154 7.934527)
      (xy 10.605759 7.909649)
      (xy 10.767186 7.775658)
      (xy 10.901931 7.676954)
      (xy 10.984345 7.632084)
      (xy 10.990939 7.631140)
      (xy 11.068258 7.673822)
      (xy 11.134324 7.753592)
      (xy 11.165928 7.818222)
      (xy 11.160784 7.879421)
      (xy 11.106026 7.957624)
      (xy 10.988786 8.073266)
      (xy 10.859190 8.190530)
      (xy 10.507584 8.505017)
      (xy 10.723951 8.763862)
      (xy 10.940319 9.022707)
      (xy 11.082111 8.895520)
      (xy 11.200799 8.789311)
      (xy 11.362853 8.644603)
      (xy 11.496050 8.525829)
      (xy 11.768195 8.283325)
      (xy 11.870798 8.416772)
      (xy 11.944073 8.521368)
      (xy 11.974639 8.583003)
      (xy 11.935840 8.628072)
      (xy 11.831184 8.728635)
      (xy 11.679613 8.867935)
      (xy 11.500069 9.029217)
      (xy 11.311494 9.195726)
      (xy 11.132830 9.350706)
      (xy 10.983019 9.477401)
      (xy 10.881004 9.559056)
      (xy 10.846749 9.580702)
      (xy 10.805043 9.540539)
      (xy 10.701897 9.428393)
      (xy 10.548473 9.256779)
      (xy 10.355932 9.038209)
      (xy 10.135437 8.785197)
      (xy 10.076834 8.717544)
      (xy 9.851650 8.454893)
      (xy 9.653687 8.219443)
      (xy 9.493846 8.024536)
      (xy 9.383027 7.883515)
      (xy 9.332131 7.809721)
      (xy 9.330044 7.803499)
      (xy 9.369803 7.750182)
      (xy 9.475890 7.643566)
      (xy 9.628519 7.501029)
      (xy 9.807906 7.339948)
      (xy 9.994265 7.177703)
      (xy 10.167811 7.031670)
      (xy 10.308758 6.919228)
      (xy 10.397321 6.857755)
      (xy 10.414124 6.851316)
    )

    (stroke (width 0.000000) (type solid)) (fill solid) (layer "F.SilkS") (tstamp bc1b36dc-6edf-4115-8917-23351c2a4f43))
  (fp_poly
    (pts
      (xy -6.904699 6.865802)
      (xy -6.753790 6.938385)
      (xy -6.456804 7.124320)
      (xy -6.268663 7.332497)
      (xy -6.189213 7.563898)
      (xy -6.218296 7.819505)
      (xy -6.355758 8.100298)
      (xy -6.532443 8.330952)
      (xy -6.688581 8.512979)
      (xy -6.829496 8.682465)
      (xy -6.927709 8.806280)
      (xy -6.936296 8.817824)
      (xy -7.046272 8.967731)
      (xy -7.208437 8.837822)
      (xy -7.304357 8.739444)
      (xy -7.337272 8.659762)
      (xy -7.333279 8.647524)
      (xy -7.352476 8.593972)
      (xy -7.463566 8.550332)
      (xy -7.466841 8.549603)
      (xy -7.610635 8.486944)
      (xy -7.771465 8.373391)
      (xy -7.829388 8.320407)
      (xy -7.957335 8.169076)
      (xy -8.012857 8.026302)
      (xy -8.016155 7.981878)
      (xy -7.595186 7.981878)
      (xy -7.559980 8.103122)
      (xy -7.415654 8.215460)
      (xy -7.268335 8.282828)
      (xy -7.160713 8.284692)
      (xy -7.042127 8.220708)
      (xy -7.030815 8.212850)
      (xy -6.924530 8.104946)
      (xy -6.928853 8.004641)
      (xy -7.022132 7.920258)
      (xy -7.223806 7.811827)
      (xy -7.370242 7.780259)
      (xy -7.483870 7.822554)
      (xy -7.519472 7.853683)
      (xy -7.595186 7.981878)
      (xy -8.016155 7.981878)
      (xy -8.021052 7.915926)
      (xy -7.976444 7.686892)
      (xy -7.853507 7.521675)
      (xy -7.668576 7.425358)
      (xy -7.437985 7.403022)
      (xy -7.178068 7.459750)
      (xy -6.938206 7.579011)
      (xy -6.755857 7.680497)
      (xy -6.644411 7.707033)
      (xy -6.611311 7.691926)
      (xy -6.580860 7.593345)
      (xy -6.635678 7.468438)
      (xy -6.760554 7.338994)
      (xy -6.933758 7.229944)
      (xy -7.101177 7.136402)
      (xy -7.173388 7.054208)
      (xy -7.161709 6.962112)
      (xy -7.115648 6.888448)
      (xy -7.068508 6.838757)
      (xy -7.007996 6.829855)
    )

    (stroke (width 0.000000) (type solid)) (fill solid) (layer "F.SilkS") (tstamp a2b53187-9d0e-422f-8319-5351f9ff3dc3))
  (fp_poly
    (pts
      (xy -3.886037 8.263027)
      (xy -3.746467 8.339050)
      (xy -3.703850 8.463187)
      (xy -3.759889 8.613770)
      (xy -3.859504 8.721361)
      (xy -3.970921 8.732314)
      (xy -4.112705 8.656244)
      (xy -4.209931 8.540111)
      (xy -4.216924 8.416531)
      (xy -4.149343 8.312669)
      (xy -4.022845 8.255689)
    )

    (stroke (width 0.000000) (type solid)) (fill solid) (layer "F.SilkS") (tstamp cf0fe4ab-5b38-4256-b0b1-8b3eda9f073a))
  (fp_poly
    (pts
      (xy -8.368230 5.243495)
      (xy -8.289935 5.359220)
      (xy -8.265484 5.444258)
      (xy -8.269011 5.454405)
      (xy -8.245708 5.509281)
      (xy -8.146923 5.580141)
      (xy -8.106776 5.600729)
      (xy -7.889513 5.762142)
      (xy -7.744262 5.993498)
      (xy -7.687126 6.268379)
      (xy -7.686842 6.289600)
      (xy -7.697070 6.428441)
      (xy -7.740389 6.541937)
      (xy -7.835747 6.665562)
      (xy -7.951425 6.784887)
      (xy -8.119449 6.945144)
      (xy -8.302504 7.109592)
      (xy -8.479592 7.260614)
      (xy -8.629719 7.380593)
      (xy -8.731889 7.451910)
      (xy -8.760794 7.464035)
      (xy -8.813338 7.424721)
      (xy -8.899093 7.328730)
      (xy -8.909739 7.315360)
      (xy -8.984624 7.205583)
      (xy -9.012182 7.134950)
      (xy -9.011260 7.131073)
      (xy -8.965114 7.081573)
      (xy -8.853288 6.976993)
      (xy -8.694700 6.834736)
      (xy -8.578070 6.732540)
      (xy -8.382425 6.557994)
      (xy -8.258561 6.432026)
      (xy -8.190851 6.334148)
      (xy -8.163666 6.243868)
      (xy -8.160307 6.184790)
      (xy -8.196843 6.010587)
      (xy -8.306793 5.890594)
      (xy -8.409510 5.829516)
      (xy -8.511360 5.814458)
      (xy -8.631165 5.852585)
      (xy -8.787747 5.951065)
      (xy -8.999928 6.117065)
      (xy -9.083537 6.186363)
      (xy -9.260846 6.331037)
      (xy -9.406683 6.443586)
      (xy -9.499871 6.507976)
      (xy -9.520340 6.517105)
      (xy -9.582474 6.480288)
      (xy -9.680243 6.390268)
      (xy -9.693398 6.376475)
      (xy -9.746171 6.321169)
      (xy -9.778331 6.275063)
      (xy -9.780642 6.226263)
      (xy -9.743870 6.162873)
      (xy -9.658781 6.073001)
      (xy -9.516140 5.944751)
      (xy -9.306713 5.766231)
      (xy -9.054569 5.553657)
      (xy -8.500585 5.086199)
    )

    (stroke (width 0.000000) (type solid)) (fill solid) (layer "F.SilkS") (tstamp 68c26af7-738e-44de-a963-4c697d9aaa98))
  (fp_poly
    (pts
      (xy -3.431703 -11.563347)
      (xy -3.252870 -11.513405)
      (xy -3.014182 -11.425989)
      (xy -2.734611 -11.309042)
      (xy -2.433127 -11.170503)
      (xy -2.128699 -11.018314)
      (xy -1.840300 -10.860415)
      (xy -1.836776 -10.858381)
      (xy -0.982767 -10.304115)
      (xy -0.197954 -9.670844)
      (xy 0.511730 -8.966126)
      (xy 1.140354 -8.197518)
      (xy 1.681988 -7.372578)
      (xy 2.130699 -6.498861)
      (xy 2.480556 -5.583925)
      (xy 2.588087 -5.220642)
      (xy 2.783434 -4.303694)
      (xy 2.883852 -3.351236)
      (xy 2.889342 -2.386063)
      (xy 2.799904 -1.430968)
      (xy 2.615537 -0.508747)
      (xy 2.588087 -0.405235)
      (xy 2.279388 0.519027)
      (xy 1.869951 1.405492)
      (xy 1.366349 2.246287)
      (xy 0.775154 3.033536)
      (xy 0.102938 3.759365)
      (xy -0.643726 4.415899)
      (xy -1.458267 4.995263)
      (xy -2.330152 5.487615)
      (xy -2.536321 5.585228)
      (xy -2.784258 5.695175)
      (xy -3.052057 5.808640)
      (xy -3.317814 5.916809)
      (xy -3.559622 6.010868)
      (xy -3.755577 6.082002)
      (xy -3.883772 6.121397)
      (xy -3.917486 6.126340)
      (xy -3.965347 6.100249)
      (xy -4.010526 6.072224)
      (xy -4.061152 6.006050)
      (xy -4.026612 5.919968)
      (xy -3.901314 5.807941)
      (xy -3.679670 5.663932)
      (xy -3.577125 5.604186)
      (xy -2.949195 5.206234)
      (xy -2.316139 4.731602)
      (xy -1.702645 4.202454)
      (xy -1.133399 3.640956)
      (xy -0.633087 3.069274)
      (xy -0.375397 2.729386)
      (xy -0.139167 2.368665)
      (xy 0.112042 1.936221)
      (xy 0.361970 1.464155)
      (xy 0.594362 0.984570)
      (xy 0.792958 0.529565)
      (xy 0.941501 0.131243)
      (xy 0.943458 0.125275)
      (xy 1.204374 -0.849136)
      (xy 1.361997 -1.852187)
      (xy 1.415458 -2.868706)
      (xy 1.363889 -3.883521)
      (xy 1.224789 -4.793543)
      (xy 0.971485 -5.761306)
      (xy 0.615082 -6.699338)
      (xy 0.161961 -7.598523)
      (xy -0.381496 -8.449745)
      (xy -1.008909 -9.243887)
      (xy -1.713897 -9.971833)
      (xy -2.490080 -10.624467)
      (xy -3.196682 -11.110464)
      (xy -3.434931 -11.270809)
      (xy -3.573485 -11.394523)
      (xy -3.615990 -11.486583)
      (xy -3.566091 -11.551967)
      (xy -3.531711 -11.567875)
    )

    (stroke (width 0.000000) (type solid)) (fill solid) (layer "F.SilkS") (tstamp 51810230-3a5e-4c1d-9b34-0cd4b24878d4))
  (fp_poly
    (pts
      (xy 13.954801 4.138382)
      (xy 13.981223 4.237768)
      (xy 13.981349 4.247259)
      (xy 14.021684 4.412460)
      (xy 14.123278 4.597460)
      (xy 14.257710 4.755959)
      (xy 14.326617 4.809707)
      (xy 14.476200 4.880376)
      (xy 14.635636 4.928563)
      (xy 14.767217 4.975063)
      (xy 14.816641 5.032726)
      (xy 14.772334 5.084385)
      (xy 14.747040 5.093806)
      (xy 14.643921 5.121031)
      (xy 14.515750 5.150950)
      (xy 14.330795 5.239926)
      (xy 14.160851 5.402491)
      (xy 14.038925 5.602295)
      (xy 14.004453 5.714035)
      (xy 13.960814 5.867094)
      (xy 13.907667 5.942775)
      (xy 13.856723 5.925206)
      (xy 13.853050 5.919220)
      (xy 13.821189 5.841951)
      (xy 13.773951 5.706275)
      (xy 13.764361 5.676841)
      (xy 13.634250 5.434584)
      (xy 13.431304 5.244138)
      (xy 13.205105 5.140313)
      (xy 13.047642 5.081463)
      (xy 13.001015 5.016924)
      (xy 13.065191 4.951939)
      (xy 13.206515 4.900354)
      (xy 13.464129 4.783733)
      (xy 13.662233 4.599705)
      (xy 13.777729 4.371103)
      (xy 13.788287 4.325267)
      (xy 13.835134 4.191505)
      (xy 13.898371 4.126086)
    )

    (stroke (width 0.000000) (type solid)) (fill solid) (layer "F.SilkS") (tstamp 5ba32472-3f9a-4fba-abbf-2ea5e65eee89))
  (fp_poly
    (pts
      (xy -8.988481 4.322331)
      (xy -8.913742 4.437327)
      (xy -8.910975 4.441793)
      (xy -8.815990 4.595395)
      (xy -9.518631 5.054891)
      (xy -9.766380 5.215152)
      (xy -9.981624 5.351077)
      (xy -10.147067 5.452000)
      (xy -10.245416 5.507256)
      (xy -10.263867 5.514430)
      (xy -10.317869 5.471469)
      (xy -10.396615 5.365432)
      (xy -10.413131 5.339071)
      (xy -10.519800 5.163668)
      (xy -9.794250 4.694559)
      (xy -9.543496 4.535580)
      (xy -9.326171 4.403756)
      (xy -9.158924 4.308713)
      (xy -9.058401 4.260079)
      (xy -9.037331 4.256821)
    )

    (stroke (width 0.000000) (type solid)) (fill solid) (layer "F.SilkS") (tstamp 56787199-c714-4e60-bd40-37bd5ebb30ba))
  (fp_poly
    (pts
      (xy -9.795367 2.832367)
      (xy -9.738903 2.902854)
      (xy -9.671010 2.978855)
      (xy -9.588963 2.979914)
      (xy -9.511981 2.948816)
      (xy -9.356663 2.917830)
      (xy -9.228174 2.986858)
      (xy -9.132401 3.124318)
      (xy -9.117040 3.200676)
      (xy -9.175001 3.274306)
      (xy -9.272327 3.340860)
      (xy -9.464559 3.459666)
      (xy -9.370539 3.656829)
      (xy -9.313726 3.787150)
      (xy -9.309625 3.859432)
      (xy -9.360179 3.914799)
      (xy -9.383554 3.932259)
      (xy -9.493250 3.997656)
      (xy -9.568634 3.985308)
      (xy -9.641393 3.883844)
      (xy -9.669908 3.829496)
      (xy -9.734172 3.706152)
      (xy -9.774041 3.635195)
      (xy -9.777105 3.630892)
      (xy -9.831698 3.643437)
      (xy -9.954730 3.696885)
      (xy -10.117991 3.776737)
      (xy -10.293270 3.868491)
      (xy -10.452357 3.957648)
      (xy -10.567041 4.029707)
      (xy -10.595192 4.051395)
      (xy -10.655298 4.119543)
      (xy -10.654003 4.194508)
      (xy -10.605010 4.300974)
      (xy -10.551987 4.416704)
      (xy -10.536156 4.479542)
      (xy -10.537449 4.481622)
      (xy -10.604701 4.522299)
      (xy -10.710401 4.576100)
      (xy -10.800750 4.616427)
      (xy -10.823923 4.623246)
      (xy -10.868585 4.581905)
      (xy -10.941448 4.482190)
      (xy -10.943220 4.479492)
      (xy -11.045813 4.252977)
      (xy -11.071087 4.024839)
      (xy -11.015622 3.830674)
      (xy -11.006902 3.816613)
      (xy -10.915941 3.728009)
      (xy -10.753248 3.613564)
      (xy -10.548551 3.493441)
      (xy -10.470622 3.452851)
      (xy -10.273685 3.350613)
      (xy -10.121507 3.265480)
      (xy -10.036592 3.210334)
      (xy -10.026315 3.198567)
      (xy -10.049668 3.129978)
      (xy -10.082953 3.061849)
      (xy -10.105534 2.979284)
      (xy -10.051280 2.914543)
      (xy -9.977314 2.872105)
      (xy -9.861561 2.820851)
    )

    (stroke (width 0.000000) (type solid)) (fill solid) (layer "F.SilkS") (tstamp 937eeeef-4ddb-4da7-a91d-66f526241aaf))
  (fp_poly
    (pts
      (xy -8.451069 4.001576)
      (xy -8.365452 4.127439)
      (xy -8.355263 4.205482)
      (xy -8.397145 4.358315)
      (xy -8.501653 4.440354)
      (xy -8.637084 4.440067)
      (xy -8.764393 4.354276)
      (xy -8.844416 4.206798)
      (xy -8.829891 4.072687)
      (xy -8.731988 3.980102)
      (xy -8.605921 3.954824)
    )

    (stroke (width 0.000000) (type solid)) (fill solid) (layer "F.SilkS") (tstamp 073fda65-94da-444a-8503-97c3724f8b54))
  (fp_poly
    (pts
      (xy -10.377732 1.636936)
      (xy -10.205047 1.808780)
      (xy -10.082594 2.040769)
      (xy -10.027689 2.307825)
      (xy -10.026315 2.357060)
      (xy -10.034711 2.492636)
      (xy -10.076996 2.550057)
      (xy -10.178818 2.562266)
      (xy -10.186086 2.562281)
      (xy -10.289271 2.550896)
      (xy -10.342661 2.496081)
      (xy -10.371896 2.366845)
      (xy -10.376770 2.331810)
      (xy -10.432853 2.111489)
      (xy -10.516140 1.989856)
      (xy -10.607815 1.965998)
      (xy -10.689067 2.039000)
      (xy -10.741081 2.207950)
      (xy -10.750438 2.349956)
      (xy -10.782408 2.644691)
      (xy -10.879723 2.850452)
      (xy -11.044494 2.969979)
      (xy -11.255258 3.006123)
      (xy -11.443429 2.972337)
      (xy -11.600439 2.854715)
      (xy -11.775313 2.609578)
      (xy -11.888325 2.322648)
      (xy -11.920175 2.090605)
      (xy -11.911478 1.959041)
      (xy -11.864484 1.904764)
      (xy -11.747838 1.893873)
      (xy -11.738201 1.893860)
      (xy -11.619430 1.902463)
      (xy -11.566920 1.950110)
      (xy -11.551779 2.069558)
      (xy -11.550652 2.106488)
      (xy -11.518884 2.338444)
      (xy -11.442532 2.491468)
      (xy -11.329007 2.552912)
      (xy -11.289761 2.551735)
      (xy -11.219840 2.527363)
      (xy -11.177130 2.461326)
      (xy -11.149948 2.326911)
      (xy -11.136028 2.200219)
      (xy -11.107432 1.996822)
      (xy -11.067401 1.822617)
      (xy -11.036942 1.741337)
      (xy -10.923545 1.629547)
      (xy -10.752275 1.559104)
      (xy -10.583333 1.550318)
    )

    (stroke (width 0.000000) (type solid)) (fill solid) (layer "F.SilkS") (tstamp 393624d4-b018-41d9-97c0-c49de1ace91a))
  (fp_poly
    (pts
      (xy -11.194080 -0.427019)
      (xy -10.943723 -0.299535)
      (xy -10.752362 -0.079320)
      (xy -10.708662 -0.000849)
      (xy -10.603168 0.305312)
      (xy -10.602563 0.591483)
      (xy -10.705057 0.847510)
      (xy -10.894231 1.051951)
      (xy -11.018300 1.124345)
      (xy -11.175150 1.185045)
      (xy -11.325339 1.222406)
      (xy -11.429427 1.224784)
      (xy -11.447550 1.215315)
      (xy -11.467201 1.154196)
      (xy -11.501896 1.007415)
      (xy -11.546257 0.798826)
      (xy -11.582665 0.616019)
      (xy -11.630999 0.376358)
      (xy -11.674078 0.180280)
      (xy -11.706416 0.051779)
      (xy -11.717383 0.022100)
      (xy -11.344210 0.022100)
      (xy -11.326522 0.155286)
      (xy -11.296907 0.325847)
      (xy -11.261679 0.498140)
      (xy -11.227150 0.636520)
      (xy -11.220191 0.659128)
      (xy -11.165103 0.713313)
      (xy -11.080311 0.677833)
      (xy -10.986587 0.562338)
      (xy -10.977247 0.546270)
      (xy -10.927888 0.419586)
      (xy -10.946194 0.292253)
      (xy -10.967086 0.237677)
      (xy -11.040337 0.127441)
      (xy -11.148891 0.027587)
      (xy -11.259216 -0.037331)
      (xy -11.337777 -0.042758)
      (xy -11.343660 -0.038065)
      (xy -11.344210 0.022100)
      (xy -11.717383 0.022100)
      (xy -11.720301 0.014202)
      (xy -11.772014 0.031973)
      (xy -11.866521 0.109016)
      (xy -11.888948 0.130815)
      (xy -12.005311 0.322778)
      (xy -12.028500 0.565778)
      (xy -11.957608 0.848419)
      (xy -11.948026 0.871969)
      (xy -11.886377 1.029517)
      (xy -11.874903 1.118505)
      (xy -11.919331 1.172521)
      (xy -12.006774 1.216691)
      (xy -12.096594 1.248722)
      (xy -12.156087 1.227430)
      (xy -12.213522 1.133122)
      (xy -12.253764 1.044602)
      (xy -12.376866 0.666080)
      (xy -12.395427 0.324664)
      (xy -12.309421 0.020954)
      (xy -12.299563 0.001274)
      (xy -12.123078 -0.243618)
      (xy -11.889820 -0.396198)
      (xy -11.590564 -0.461917)
      (xy -11.509593 -0.465346)
    )

    (stroke (width 0.000000) (type solid)) (fill solid) (layer "F.SilkS") (tstamp 79a12fc0-e17d-4efd-bf0c-758a3d8d733f))
  (fp_poly
    (pts
      (xy -6.527474 -1.401049)
      (xy -6.466314 -1.275474)
      (xy -6.454061 -1.225989)
      (xy -6.381620 -1.056127)
      (xy -6.250412 -0.887658)
      (xy -6.091092 -0.750576)
      (xy -5.934315 -0.674873)
      (xy -5.884173 -0.668421)
      (xy -5.774496 -0.643553)
      (xy -5.683993 -0.586209)
      (xy -5.643738 -0.522281)
      (xy -5.664948 -0.485740)
      (xy -5.745492 -0.459590)
      (xy -5.884938 -0.428759)
      (xy -5.908554 -0.424385)
      (xy -6.128630 -0.333065)
      (xy -6.313859 -0.162127)
      (xy -6.433841 0.056731)
      (xy -6.456110 0.146527)
      (xy -6.498602 0.289649)
      (xy -6.559180 0.372620)
      (xy -6.619189 0.378423)
      (xy -6.651678 0.324917)
      (xy -6.679963 0.218659)
      (xy -6.711381 0.083553)
      (xy -6.811556 -0.136108)
      (xy -6.989375 -0.313594)
      (xy -7.211619 -0.417695)
      (xy -7.254024 -0.426270)
      (xy -7.399520 -0.461292)
      (xy -7.491433 -0.505088)
      (xy -7.500256 -0.514860)
      (xy -7.492894 -0.584548)
      (xy -7.403407 -0.641276)
      (xy -7.260969 -0.667341)
      (xy -7.248600 -0.667568)
      (xy -7.103784 -0.714869)
      (xy -6.946335 -0.834239)
      (xy -6.805160 -0.994376)
      (xy -6.709166 -1.163981)
      (xy -6.684210 -1.278672)
      (xy -6.659202 -1.407862)
      (xy -6.599363 -1.446917)
    )

    (stroke (width 0.000000) (type solid)) (fill solid) (layer "F.SilkS") (tstamp bfd742a9-07bb-4a86-9cad-251cbae3f266))
  (fp_poly
    (pts
      (xy -12.066380 -3.159496)
      (xy -11.770681 -3.154817)
      (xy -11.431925 -3.145681)
      (xy -11.335229 -3.142455)
      (xy -10.182185 -3.102424)
      (xy -10.202461 -2.456366)
      (xy -10.230092 -2.042227)
      (xy -10.288102 -1.719489)
      (xy -10.383013 -1.470737)
      (xy -10.521343 -1.278553)
      (xy -10.697773 -1.133265)
      (xy -10.952213 -1.020006)
      (xy -11.257926 -0.965851)
      (xy -11.569065 -0.975326)
      (xy -11.777700 -1.026650)
      (xy -12.055841 -1.160508)
      (xy -12.258971 -1.339434)
      (xy -12.421146 -1.591767)
      (xy -12.483723 -1.724941)
      (xy -12.524376 -1.852345)
      (xy -12.547700 -2.003432)
      (xy -12.558292 -2.207653)
      (xy -12.560462 -2.454366)
      (xy -12.222839 -2.454366)
      (xy -12.208584 -2.260927)
      (xy -12.180697 -2.065930)
      (xy -12.142495 -1.905150)
      (xy -12.118445 -1.844565)
      (xy -11.946400 -1.624221)
      (xy -11.709662 -1.483597)
      (xy -11.426340 -1.427884)
      (xy -11.114545 -1.462274)
      (xy -10.959812 -1.512419)
      (xy -10.780142 -1.641285)
      (xy -10.644410 -1.860663)
      (xy -10.560448 -2.155677)
      (xy -10.541868 -2.306309)
      (xy -10.513791 -2.656097)
      (xy -11.340806 -2.689605)
      (xy -11.632783 -2.699467)
      (xy -11.883574 -2.704208)
      (xy -12.072935 -2.703738)
      (xy -12.180621 -2.697964)
      (xy -12.197178 -2.693480)
      (xy -12.220142 -2.610475)
      (xy -12.222839 -2.454366)
      (xy -12.560462 -2.454366)
      (xy -12.560745 -2.486525)
      (xy -12.557686 -2.739618)
      (xy -12.549389 -2.950145)
      (xy -12.537175 -3.094060)
      (xy -12.524510 -3.146250)
      (xy -12.460356 -3.155267)
      (xy -12.301958 -3.159664)
    )

    (stroke (width 0.000000) (type solid)) (fill solid) (layer "F.SilkS") (tstamp d9aca935-5ec5-4508-8410-b248b845fbbc))
  (fp_poly
    (pts
      (xy -5.213932 -13.840930)
      (xy -5.163446 -13.691043)
      (xy -5.054947 -13.459294)
      (xy -4.860209 -13.264345)
      (xy -4.609926 -13.133020)
      (xy -4.482211 -13.075179)
      (xy -4.417804 -13.018979)
      (xy -4.415806 -13.006360)
      (xy -4.470603 -12.956979)
      (xy -4.597064 -12.895534)
      (xy -4.673592 -12.867105)
      (xy -4.928633 -12.729656)
      (xy -5.099709 -12.519255)
      (xy -5.173355 -12.307412)
      (xy -5.223862 -12.157114)
      (xy -5.284841 -12.108009)
      (xy -5.343181 -12.162822)
      (xy -5.375613 -12.265361)
      (xy -5.428231 -12.437250)
      (xy -5.495117 -12.577330)
      (xy -5.623907 -12.717467)
      (xy -5.801769 -12.838622)
      (xy -5.982407 -12.912375)
      (xy -6.057565 -12.922599)
      (xy -6.163128 -12.947484)
      (xy -6.182036 -13.005163)
      (xy -6.123049 -13.070925)
      (xy -5.994928 -13.120063)
      (xy -5.987006 -13.121613)
      (xy -5.750296 -13.219141)
      (xy -5.552962 -13.401765)
      (xy -5.420821 -13.644008)
      (xy -5.404801 -13.696203)
      (xy -5.343126 -13.855251)
      (xy -5.277544 -13.903451)
    )

    (stroke (width 0.000000) (type solid)) (fill solid) (layer "F.SilkS") (tstamp 3818affb-2e42-48ee-9968-1ccc050c1762))
  (fp_poly
    (pts
      (xy 7.274298 -14.235702)
      (xy 7.297138 -14.134320)
      (xy 7.346109 -13.940894)
      (xy 7.473319 -13.744693)
      (xy 7.650125 -13.574362)
      (xy 7.847885 -13.458542)
      (xy 8.007128 -13.424331)
      (xy 8.111214 -13.399526)
      (xy 8.128393 -13.342458)
      (xy 8.067155 -13.278396)
      (xy 7.943151 -13.233902)
      (xy 7.710910 -13.144899)
      (xy 7.509079 -12.985830)
      (xy 7.363022 -12.784103)
      (xy 7.298103 -12.567122)
      (xy 7.296930 -12.535661)
      (xy 7.273426 -12.436679)
      (xy 7.218384 -12.423820)
      (xy 7.155008 -12.486182)
      (xy 7.106505 -12.612861)
      (xy 7.103780 -12.626411)
      (xy 7.011914 -12.849287)
      (xy 6.842694 -13.048008)
      (xy 6.629763 -13.188929)
      (xy 6.499218 -13.230973)
      (xy 6.367515 -13.277113)
      (xy 6.299191 -13.340121)
      (xy 6.305149 -13.396793)
      (xy 6.396292 -13.423923)
      (xy 6.408468 -13.424123)
      (xy 6.625382 -13.475007)
      (xy 6.831062 -13.610750)
      (xy 6.998103 -13.805988)
      (xy 7.099099 -14.035356)
      (xy 7.106709 -14.070344)
      (xy 7.153836 -14.198597)
      (xy 7.218123 -14.256546)
    )

    (stroke (width 0.000000) (type solid)) (fill solid) (layer "F.SilkS") (tstamp 10d37c79-a4d5-425f-956d-50eb8c6028df))
)
