(footprint "LOGO" (version 20221018) (generator bitmap2component)
  (layer "F.Cu")
  (attr board_only exclude_from_pos_files exclude_from_bom)
  (fp_text reference "G***" (at 0 0) (layer "F.SilkS")
      (effects (font (size 1.5 1.5) (thickness 0.3)))
    (tstamp b05704c9-ffba-457d-9e2c-97e509337ef0)
  )
  (fp_text value "LOGO" (at 0.75 0) (layer "F.SilkS") hide
      (effects (font (size 1.5 1.5) (thickness 0.3)))
    (tstamp e38f3497-d8f6-4613-aad2-bfa2a135e0e1)
  )
  (fp_poly
    (pts
      (xy 1.914381 -12.539028)
      (xy 2.351980 -12.520929)
      (xy 2.749900 -12.490867)
      (xy 3.080594 -12.450078)
      (xy 4.013992 -12.264721)
      (xy 4.919014 -12.006455)
      (xy 5.792456 -11.676896)
      (xy 6.631116 -11.277661)
      (xy 7.431789 -10.810368)
      (xy 8.191272 -10.276634)
      (xy 8.906362 -9.678075)
      (xy 9.280824 -9.320575)
      (xy 9.914466 -8.631357)
      (xy 10.484176 -7.895978)
      (xy 10.988336 -7.117640)
      (xy 11.425330 -6.299548)
      (xy 11.793541 -5.444905)
      (xy 12.091352 -4.556915)
      (xy 12.317146 -3.638781)
      (xy 12.410328 -3.120344)
      (xy 12.438217 -2.930908)
      (xy 12.459621 -2.753218)
      (xy 12.475344 -2.572224)
      (xy 12.486194 -2.372875)
      (xy 12.492975 -2.140119)
      (xy 12.496493 -1.858906)
      (xy 12.497553 -1.514186)
      (xy 12.497556 -1.490610)
      (xy 12.493805 -1.025004)
      (xy 12.481149 -0.620129)
      (xy 12.457485 -0.257509)
      (xy 12.420711 0.081333)
      (xy 12.368722 0.414871)
      (xy 12.299415 0.761583)
      (xy 12.210688 1.139946)
      (xy 12.187603 1.232238)
      (xy 11.923826 2.118118)
      (xy 11.590192 2.970091)
      (xy 11.190138 3.785043)
      (xy 10.727100 4.559863)
      (xy 10.204514 5.291436)
      (xy 9.625816 5.976651)
      (xy 8.994442 6.612395)
      (xy 8.313828 7.195555)
      (xy 7.587411 7.723018)
      (xy 6.818627 8.191672)
      (xy 6.010911 8.598404)
      (xy 5.167700 8.940101)
      (xy 4.292430 9.213651)
      (xy 3.388538 9.415940)
      (xy 3.100469 9.464092)
      (xy 2.856469 9.497178)
      (xy 2.600912 9.522142)
      (xy 2.316445 9.540102)
      (xy 1.985718 9.552178)
      (xy 1.629734 9.559000)
      (xy 1.355202 9.561865)
      (xy 1.098576 9.563095)
      (xy 0.873462 9.562738)
      (xy 0.693470 9.560841)
      (xy 0.572206 9.557455)
      (xy 0.536619 9.555095)
      (xy -0.370072 9.432446)
      (xy -1.228263 9.254011)
      (xy -2.048968 9.016715)
      (xy -2.843201 8.717480)
      (xy -3.442299 8.443591)
      (xy -4.253627 8.000495)
      (xy -5.021017 7.493404)
      (xy -5.741137 6.926434)
      (xy -6.410650 6.303699)
      (xy -7.026225 5.629312)
      (xy -7.584527 4.907387)
      (xy -8.082222 4.142040)
      (xy -8.515976 3.337384)
      (xy -8.882456 2.497533)
      (xy -9.178328 1.626602)
      (xy -9.285882 1.232238)
      (xy -9.379315 0.844108)
      (xy -9.452850 0.491827)
      (xy -9.508589 0.156918)
      (xy -9.548636 -0.179097)
      (xy -9.575094 -0.534692)
      (xy -9.590066 -0.928344)
      (xy -9.595656 -1.378530)
      (xy -9.595764 -1.446405)
      (xy -9.200515 -1.446405)
      (xy -9.194719 -1.042329)
      (xy -9.179395 -0.660727)
      (xy -9.154542 -0.321879)
      (xy -9.128407 -0.099374)
      (xy -8.953862 0.837284)
      (xy -8.707620 1.740404)
      (xy -8.390073 2.609067)
      (xy -8.001616 3.442357)
      (xy -7.542642 4.239355)
      (xy -7.013546 4.999144)
      (xy -6.851202 5.207199)
      (xy -6.670458 5.420603)
      (xy -6.444579 5.667912)
      (xy -6.189976 5.932711)
      (xy -5.923064 6.198587)
      (xy -5.660256 6.449128)
      (xy -5.417965 6.667919)
      (xy -5.246949 6.811452)
      (xy -4.532214 7.335311)
      (xy -3.773415 7.801241)
      (xy -2.980403 8.204504)
      (xy -2.163025 8.540365)
      (xy -1.331131 8.804087)
      (xy -0.868490 8.917210)
      (xy -0.640770 8.968548)
      (xy -0.465797 9.006944)
      (xy -0.329247 9.028629)
      (xy -0.216801 9.029833)
      (xy -0.114137 9.006789)
      (xy -0.006933 8.955725)
      (xy 0.119133 8.872874)
      (xy 0.278381 8.754465)
      (xy 0.485134 8.596730)
      (xy 0.557648 8.541868)
      (xy 0.804911 8.356011)
      (xy 0.995903 8.214129)
      (xy 1.137522 8.111931)
      (xy 1.236666 8.045123)
      (xy 1.300231 8.009412)
      (xy 1.335117 8.000504)
      (xy 1.348219 8.014107)
      (xy 1.346436 8.045927)
      (xy 1.345397 8.051557)
      (xy 1.310476 8.097243)
      (xy 1.221432 8.181475)
      (xy 1.088223 8.295753)
      (xy 0.920809 8.431574)
      (xy 0.729148 8.580435)
      (xy 0.700390 8.602254)
      (xy 0.510569 8.747801)
      (xy 0.347388 8.876702)
      (xy 0.219705 8.981639)
      (xy 0.136378 9.055295)
      (xy 0.106265 9.090352)
      (xy 0.107404 9.092087)
      (xy 0.211413 9.113071)
      (xy 0.380584 9.131342)
      (xy 0.600616 9.146537)
      (xy 0.857205 9.158293)
      (xy 1.136050 9.166249)
      (xy 1.422849 9.170040)
      (xy 1.703299 9.169306)
      (xy 1.963098 9.163683)
      (xy 2.187943 9.152809)
      (xy 2.266065 9.146804)
      (xy 2.436293 9.129407)
      (xy 2.555018 9.106525)
      (xy 2.650099 9.068037)
      (xy 2.749396 9.003821)
      (xy 2.832699 8.940944)
      (xy 2.947446 8.850314)
      (xy 3.005291 8.796053)
      (xy 3.013551 8.767672)
      (xy 2.979545 8.754681)
      (xy 2.964182 8.752465)
      (xy 2.930012 8.748410)
      (xy 2.903165 8.739707)
      (xy 2.881096 8.716798)
      (xy 2.861261 8.670127)
      (xy 2.841116 8.590135)
      (xy 2.818114 8.467266)
      (xy 2.789713 8.291961)
      (xy 2.753366 8.054663)
      (xy 2.720318 7.836565)
      (xy 2.688192 7.611111)
      (xy 2.663917 7.413049)
      (xy 2.651362 7.282325)
      (xy 2.974360 7.282325)
      (xy 3.002188 7.526687)
      (xy 3.019944 7.660847)
      (xy 3.037985 7.762743)
      (xy 3.050189 7.804865)
      (xy 3.102673 7.823948)
      (xy 3.198397 7.812108)
      (xy 3.310430 7.775795)
      (xy 3.411844 7.721456)
      (xy 3.418466 7.716690)
      (xy 3.510627 7.618430)
      (xy 3.534947 7.498741)
      (xy 3.520250 7.408752)
      (xy 3.458471 7.313640)
      (xy 3.339987 7.258638)
      (xy 3.179837 7.249599)
      (xy 3.128635 7.256261)
      (xy 2.974360 7.282325)
      (xy 2.651362 7.282325)
      (xy 2.648800 7.255646)
      (xy 2.644149 7.152169)
      (xy 2.649381 7.116539)
      (xy 2.725014 7.079928)
      (xy 2.855729 7.045046)
      (xy 3.017165 7.016560)
      (xy 3.184960 6.999135)
      (xy 3.279043 6.995931)
      (xy 3.511979 7.019764)
      (xy 3.683107 7.092613)
      (xy 3.794741 7.216505)
      (xy 3.849198 7.393464)
      (xy 3.855712 7.500321)
      (xy 3.848860 7.634390)
      (xy 3.818805 7.726217)
      (xy 3.751295 7.812552)
      (xy 3.723680 7.840806)
      (xy 3.561395 7.959477)
      (xy 3.363986 8.040979)
      (xy 3.180714 8.069170)
      (xy 3.130907 8.074213)
      (xy 3.107674 8.101962)
      (xy 3.105861 8.171347)
      (xy 3.119430 8.294240)
      (xy 3.139226 8.447713)
      (xy 3.160672 8.548365)
      (xy 3.194361 8.596856)
      (xy 3.250884 8.593848)
      (xy 3.340835 8.540002)
      (xy 3.474806 8.435979)
      (xy 3.611154 8.324935)
      (xy 3.765664 8.201072)
      (xy 3.899265 8.097867)
      (xy 3.999468 8.024685)
      (xy 4.053780 7.990890)
      (xy 4.058337 7.989671)
      (xy 4.098433 8.006614)
      (xy 4.081402 8.058756)
      (xy 4.005380 8.148065)
      (xy 3.868505 8.276512)
      (xy 3.668914 8.446065)
      (xy 3.488564 8.592121)
      (xy 2.882919 9.075647)
      (xy 3.101005 9.047511)
      (xy 3.346964 9.007599)
      (xy 3.645514 8.946186)
      (xy 3.974412 8.868607)
      (xy 4.311416 8.780199)
      (xy 4.634284 8.686296)
      (xy 4.724202 8.658126)
      (xy 5.499742 8.373232)
      (xy 6.269634 8.017770)
      (xy 7.018439 7.600065)
      (xy 7.730717 7.128445)
      (xy 8.148669 6.811452)
      (xy 8.362074 6.630708)
      (xy 8.609383 6.404828)
      (xy 8.874182 6.150226)
      (xy 9.140058 5.883314)
      (xy 9.390599 5.620506)
      (xy 9.609390 5.378215)
      (xy 9.752923 5.207199)
      (xy 10.300663 4.459164)
      (xy 10.779684 3.671872)
      (xy 11.188846 2.847929)
      (xy 11.527014 1.989942)
      (xy 11.793050 1.100518)
      (xy 11.985817 0.182265)
      (xy 12.009605 0.034009)
      (xy 12.051086 -0.308092)
      (xy 12.080681 -0.704377)
      (xy 12.098243 -1.134006)
      (xy 12.103623 -1.576137)
      (xy 12.096674 -2.009929)
      (xy 12.077246 -2.414542)
      (xy 12.045193 -2.769134)
      (xy 12.030342 -2.881847)
      (xy 11.857593 -3.813815)
      (xy 11.616306 -4.706601)
      (xy 11.305151 -5.563491)
      (xy 10.922797 -6.387770)
      (xy 10.467915 -7.182722)
      (xy 10.022170 -7.839300)
      (xy 9.922668 -7.971584)
      (xy 9.838889 -8.075510)
      (xy 9.782586 -8.136872)
      (xy 9.767276 -8.147360)
      (xy 9.723162 -8.121428)
      (xy 9.633231 -8.048450)
      (xy 9.507558 -7.937917)
      (xy 9.356218 -7.799319)
      (xy 9.189284 -7.642146)
      (xy 9.016831 -7.475890)
      (xy 8.848933 -7.310040)
      (xy 8.695665 -7.154086)
      (xy 8.567100 -7.017520)
      (xy 8.562153 -7.012088)
      (xy 8.362412 -6.786309)
      (xy 8.159984 -6.546489)
      (xy 7.961622 -6.301698)
      (xy 7.774078 -6.061005)
      (xy 7.604107 -5.833480)
      (xy 7.458459 -5.628194)
      (xy 7.343889 -5.454214)
      (xy 7.267148 -5.320612)
      (xy 7.234990 -5.236457)
      (xy 7.234428 -5.228806)
      (xy 7.210224 -5.165637)
      (xy 7.154929 -5.087950)
      (xy 7.091256 -4.999370)
      (xy 7.086212 -4.927872)
      (xy 7.141703 -4.845366)
      (xy 7.173725 -4.810829)
      (xy 7.272020 -4.708231)
      (xy 7.104163 -4.576441)
      (xy 6.998894 -4.495801)
      (xy 6.913358 -4.433789)
      (xy 6.882330 -4.413494)
      (xy 6.841230 -4.354636)
      (xy 6.797772 -4.234845)
      (xy 6.755894 -4.072436)
      (xy 6.719531 -3.885727)
      (xy 6.692621 -3.693033)
      (xy 6.679101 -3.512670)
      (xy 6.678244 -3.463954)
      (xy 6.709475 -3.075745)
      (xy 6.805524 -2.715336)
      (xy 6.968643 -2.379831)
      (xy 7.201082 -2.066333)
      (xy 7.505094 -1.771944)
      (xy 7.882928 -1.493768)
      (xy 8.336838 -1.228909)
      (xy 8.467100 -1.162115)
      (xy 8.673735 -1.053816)
      (xy 8.877412 -0.938408)
      (xy 9.055774 -0.829087)
      (xy 9.186465 -0.739051)
      (xy 9.195052 -0.732402)
      (xy 9.418199 -0.517745)
      (xy 9.615791 -0.252724)
      (xy 9.767373 0.033689)
      (xy 9.805107 0.131696)
      (xy 9.855512 0.354181)
      (xy 9.875908 0.625455)
      (xy 9.866709 0.920858)
      (xy 9.828329 1.215731)
      (xy 9.783630 1.411111)
      (xy 9.697781 1.667960)
      (xy 9.574604 1.966805)
      (xy 9.424412 2.285997)
      (xy 9.257515 2.603887)
      (xy 9.084224 2.898826)
      (xy 9.047616 2.956394)
      (xy 8.901647 3.174725)
      (xy 8.737800 3.406845)
      (xy 8.563262 3.643833)
      (xy 8.385221 3.876765)
      (xy 8.210864 4.096722)
      (xy 8.047378 4.294782)
      (xy 7.901950 4.462022)
      (xy 7.781768 4.589523)
      (xy 7.694020 4.668362)
      (xy 7.650624 4.690454)
      (xy 7.609756 4.682995)
      (xy 7.600641 4.655018)
      (xy 7.628124 4.598123)
      (xy 7.697047 4.503910)
      (xy 7.812254 4.363980)
      (xy 7.894477 4.267545)
      (xy 8.368943 3.685691)
      (xy 8.776377 3.124270)
      (xy 9.115356 2.585623)
      (xy 9.384456 2.072088)
      (xy 9.582253 1.586005)
      (xy 9.642455 1.395026)
      (xy 9.693507 1.203569)
      (xy 9.723120 1.046250)
      (xy 9.735206 0.888973)
      (xy 9.733679 0.697643)
      (xy 9.730956 0.623726)
      (xy 9.719326 0.419585)
      (xy 9.700439 0.268605)
      (xy 9.668963 0.144467)
      (xy 9.619565 0.020856)
      (xy 9.600542 -0.019875)
      (xy 9.450649 -0.269773)
      (xy 9.247052 -0.497918)
      (xy 8.982116 -0.711073)
      (xy 8.648207 -0.916002)
      (xy 8.502478 -0.992705)
      (xy 8.061007 -1.230290)
      (xy 7.690762 -1.461476)
      (xy 7.384580 -1.693116)
      (xy 7.135300 -1.932061)
      (xy 6.935760 -2.185164)
      (xy 6.778797 -2.459277)
      (xy 6.658817 -2.756575)
      (xy 6.591058 -3.042789)
      (xy 6.559737 -3.370934)
      (xy 6.565396 -3.712010)
      (xy 6.608581 -4.037011)
      (xy 6.632803 -4.142138)
      (xy 6.668233 -4.282008)
      (xy 6.682647 -4.362640)
      (xy 6.675465 -4.401624)
      (xy 6.646107 -4.416550)
      (xy 6.623625 -4.420385)
      (xy 6.558637 -4.461569)
      (xy 6.473208 -4.560521)
      (xy 6.399442 -4.670579)
      (xy 6.295068 -4.821873)
      (xy 6.212092 -4.898824)
      (xy 6.177769 -4.909077)
      (xy 6.122021 -4.889680)
      (xy 6.108136 -4.818536)
      (xy 6.109097 -4.799410)
      (xy 6.091662 -4.718104)
      (xy 6.032404 -4.572105)
      (xy 5.931021 -4.360766)
      (xy 5.787212 -4.083439)
      (xy 5.702063 -3.924918)
      (xy 5.555441 -3.652278)
      (xy 5.444133 -3.435735)
      (xy 5.364782 -3.261925)
      (xy 5.314030 -3.117487)
      (xy 5.288521 -2.989056)
      (xy 5.284895 -2.863271)
      (xy 5.299797 -2.726768)
      (xy 5.329867 -2.566185)
      (xy 5.343872 -2.499376)
      (xy 5.464179 -2.121549)
      (xy 5.658928 -1.770720)
      (xy 5.927577 -1.447481)
      (xy 6.269581 -1.152422)
      (xy 6.684399 -0.886133)
      (xy 6.956181 -0.746034)
      (xy 7.318956 -0.555549)
      (xy 7.615826 -0.359330)
      (xy 7.860308 -0.148147)
      (xy 7.916421 -0.090227)
      (xy 8.140503 0.204350)
      (xy 8.291466 0.529858)
      (xy 8.369332 0.886081)
      (xy 8.374127 1.272808)
      (xy 8.305876 1.689823)
      (xy 8.164603 2.136912)
      (xy 7.950332 2.613862)
      (xy 7.663088 3.120460)
      (xy 7.522717 3.338967)
      (xy 7.244883 3.732887)
      (xy 6.915045 4.158443)
      (xy 6.545882 4.601043)
      (xy 6.150068 5.046097)
      (xy 5.740280 5.479016)
      (xy 5.329195 5.885209)
      (xy 5.225913 5.982545)
      (xy 5.032454 6.160297)
      (xy 4.888678 6.285464)
      (xy 4.788639 6.362251)
      (xy 4.726388 6.394864)
      (xy 4.695979 6.387512)
      (xy 4.690453 6.361293)
      (xy 4.717502 6.324141)
      (xy 4.793804 6.238712)
      (xy 4.912094 6.112640)
      (xy 5.065107 5.953555)
      (xy 5.245576 5.769090)
      (xy 5.446237 5.566876)
      (xy 5.456742 5.556364)
      (xy 6.033225 4.961206)
      (xy 6.539808 4.398438)
      (xy 6.978067 3.865649)
      (xy 7.349579 3.360427)
      (xy 7.655922 2.880362)
      (xy 7.898671 2.423042)
      (xy 8.079405 1.986056)
      (xy 8.199699 1.566994)
      (xy 8.248149 1.288137)
      (xy 8.250672 0.968932)
      (xy 8.184734 0.645184)
      (xy 8.057336 0.337358)
      (xy 7.875481 0.065920)
      (xy 7.802465 -0.014468)
      (xy 7.655284 -0.155144)
      (xy 7.506766 -0.275372)
      (xy 7.337865 -0.388081)
      (xy 7.129536 -0.506198)
      (xy 6.916432 -0.615904)
      (xy 6.730501 -0.712407)
      (xy 6.544924 -0.814519)
      (xy 6.387955 -0.906458)
      (xy 6.326378 -0.945431)
      (xy 5.956986 -1.230792)
      (xy 5.654714 -1.552517)
      (xy 5.421865 -1.907147)
      (xy 5.260740 -2.291224)
      (xy 5.177148 -2.672825)
      (xy 5.147574 -2.901049)
      (xy 4.856248 -2.364766)
      (xy 4.754717 -2.179890)
      (xy 4.666222 -2.022576)
      (xy 4.597678 -1.904813)
      (xy 4.555996 -1.838591)
      (xy 4.547053 -1.828482)
      (xy 4.508310 -1.848408)
      (xy 4.416686 -1.902495)
      (xy 4.286362 -1.982212)
      (xy 4.149036 -2.067978)
      (xy 3.768888 -2.307473)
      (xy 3.796628 -2.137539)
      (xy 3.897403 -1.752505)
      (xy 4.069039 -1.400136)
      (xy 4.312186 -1.079696)
      (xy 4.627491 -0.790451)
      (xy 5.015601 -0.531665)
      (xy 5.372889 -0.348835)
      (xy 5.761878 -0.136819)
      (xy 6.088448 0.113642)
      (xy 6.349422 0.398801)
      (xy 6.541624 0.714910)
      (xy 6.661876 1.058224)
      (xy 6.689362 1.204007)
      (xy 6.703296 1.566602)
      (xy 6.646053 1.960444)
      (xy 6.518773 2.383750)
      (xy 6.322592 2.834740)
      (xy 6.058649 3.311633)
      (xy 5.728083 3.812648)
      (xy 5.332031 4.336003)
      (xy 4.871631 4.879918)
      (xy 4.348022 5.442612)
      (xy 3.762340 6.022302)
      (xy 3.386412 6.373146)
      (xy 3.146966 6.588145)
      (xy 2.959204 6.747657)
      (xy 2.820073 6.853846)
      (xy 2.726519 6.908876)
      (xy 2.675487 6.914913)
      (xy 2.663223 6.885638)
      (xy 2.691306 6.848584)
      (xy 2.769368 6.767592)
      (xy 2.888131 6.651721)
      (xy 3.038316 6.510030)
      (xy 3.204764 6.356923)
      (xy 3.788287 5.808466)
      (xy 4.325254 5.267302)
      (xy 4.811510 4.738328)
      (xy 5.242899 4.226442)
      (xy 5.615266 3.736542)
      (xy 5.924458 3.273524)
      (xy 6.136068 2.901721)
      (xy 6.319203 2.518186)
      (xy 6.448289 2.175209)
      (xy 6.527405 1.859119)
      (xy 6.560632 1.556241)
      (xy 6.562267 1.473498)
      (xy 6.535382 1.134812)
      (xy 6.451243 0.831205)
      (xy 6.305714 0.557037)
      (xy 6.094657 0.306671)
      (xy 5.813937 0.074467)
      (xy 5.459416 -0.145214)
      (xy 5.321322 -0.218059)
      (xy 5.120102 -0.324403)
      (xy 4.918316 -0.437969)
      (xy 4.741093 -0.544241)
      (xy 4.626131 -0.619687)
      (xy 4.291444 -0.899185)
      (xy 4.027283 -1.214005)
      (xy 3.833573 -1.562926)
      (xy 3.710240 -1.944724)
      (xy 3.657209 -2.358176)
      (xy 3.668256 -2.643349)
      (xy 3.776870 -2.643349)
      (xy 3.854970 -2.762598)
      (xy 3.894847 -2.824390)
      (xy 3.971700 -2.944303)
      (xy 4.079815 -3.113392)
      (xy 4.213479 -3.322711)
      (xy 4.366979 -3.563316)
      (xy 4.534602 -3.826262)
      (xy 4.642001 -3.994836)
      (xy 4.835624 -4.298248)
      (xy 4.991925 -4.541180)
      (xy 5.115947 -4.730422)
      (xy 5.212732 -4.872767)
      (xy 5.287325 -4.975003)
      (xy 5.344769 -5.043921)
      (xy 5.390105 -5.086313)
      (xy 5.428378 -5.108969)
      (xy 5.464631 -5.118680)
      (xy 5.477813 -5.120281)
      (xy 5.570215 -5.133351)
      (xy 5.597655 -5.161304)
      (xy 5.568408 -5.224849)
      (xy 5.538286 -5.271599)
      (xy 5.492235 -5.390898)
      (xy 5.480072 -5.564523)
      (xy 5.481122 -5.599456)
      (xy 5.490366 -5.825962)
      (xy 5.370142 -5.824640)
      (xy 5.298649 -5.813479)
      (xy 5.232428 -5.772617)
      (xy 5.154774 -5.688360)
      (xy 5.074354 -5.582099)
      (xy 4.784810 -5.157654)
      (xy 4.521220 -4.718582)
      (xy 4.289260 -4.277106)
      (xy 4.094606 -3.845447)
      (xy 3.942933 -3.435827)
      (xy 3.839919 -3.060468)
      (xy 3.801923 -2.842097)
      (xy 3.776870 -2.643349)
      (xy 3.668256 -2.643349)
      (xy 3.674404 -2.802060)
      (xy 3.761751 -3.275153)
      (xy 3.919175 -3.776231)
      (xy 4.146601 -4.304071)
      (xy 4.443954 -4.857451)
      (xy 4.811160 -5.435148)
      (xy 4.931525 -5.608212)
      (xy 5.046148 -5.771116)
      (xy 5.121368 -5.885131)
      (xy 5.163818 -5.966182)
      (xy 5.180129 -6.030197)
      (xy 5.177833 -6.075364)
      (xy 5.697635 -6.075364)
      (xy 5.839975 -6.100521)
      (xy 5.955138 -6.122985)
      (xy 6.044298 -6.143881)
      (xy 6.049605 -6.145391)
      (xy 6.087440 -6.183564)
      (xy 6.159564 -6.281022)
      (xy 6.164537 -6.288337)
      (xy 7.045302 -6.288337)
      (xy 7.205492 -6.044578)
      (xy 7.286539 -5.928088)
      (xy 7.352825 -5.845272)
      (xy 7.391563 -5.811896)
      (xy 7.394067 -5.812069)
      (xy 7.427509 -5.846456)
      (xy 7.498194 -5.932142)
      (xy 7.596047 -6.056544)
      (xy 7.710992 -6.207077)
      (xy 7.721332 -6.220814)
      (xy 7.966721 -6.530923)
      (xy 8.252387 -6.865170)
      (xy 8.559424 -7.203008)
      (xy 8.868928 -7.523889)
      (xy 9.161993 -7.807267)
      (xy 9.275646 -7.910172)
      (xy 9.419274 -8.039022)
      (xy 9.538375 -8.149512)
      (xy 9.621670 -8.230907)
      (xy 9.657879 -8.272474)
      (xy 9.658551 -8.274572)
      (xy 9.634507 -8.314668)
      (xy 9.569807 -8.398924)
      (xy 9.476479 -8.511965)
      (xy 9.434303 -8.561244)
      (xy 9.209452 -8.821386)
      (xy 9.008984 -8.653964)
      (xy 8.919226 -8.574215)
      (xy 8.785784 -8.449417)
      (xy 8.620742 -8.291179)
      (xy 8.436187 -8.111108)
      (xy 8.244204 -7.920810)
      (xy 8.210283 -7.886860)
      (xy 8.005103 -7.679796)
      (xy 7.845818 -7.514146)
      (xy 7.721255 -7.375980)
      (xy 7.620240 -7.251366)
      (xy 7.531598 -7.126374)
      (xy 7.444155 -6.987072)
      (xy 7.346737 -6.819529)
      (xy 7.328676 -6.787757)
      (xy 7.045302 -6.288337)
      (xy 6.164537 -6.288337)
      (xy 6.259878 -6.428575)
      (xy 6.382282 -6.617032)
      (xy 6.520677 -6.837202)
      (xy 6.661460 -7.067450)
      (xy 6.806803 -7.308122)
      (xy 6.938299 -7.525559)
      (xy 7.050479 -7.710741)
      (xy 7.137873 -7.854649)
      (xy 7.195012 -7.948264)
      (xy 7.216364 -7.982496)
      (xy 7.250694 -7.966787)
      (xy 7.332450 -7.913743)
      (xy 7.445600 -7.833908)
      (xy 7.475170 -7.812283)
      (xy 7.596240 -7.727058)
      (xy 7.692980 -7.666177)
      (xy 7.747905 -7.640462)
      (xy 7.752609 -7.640586)
      (xy 7.788200 -7.670404)
      (xy 7.872210 -7.747912)
      (xy 7.996267 -7.865164)
      (xy 8.152001 -8.014215)
      (xy 8.331040 -8.187122)
      (xy 8.439049 -8.292077)
      (xy 9.096518 -8.932354)
      (xy 8.865857 -9.160608)
      (xy 8.635196 -9.388862)
      (xy 8.302496 -9.099169)
      (xy 8.132797 -8.945919)
      (xy 7.920615 -8.745746)
      (xy 7.677369 -8.510160)
      (xy 7.414479 -8.250673)
      (xy 7.143366 -7.978795)
      (xy 6.875449 -7.706037)
      (xy 6.622149 -7.443910)
      (xy 6.394884 -7.203925)
      (xy 6.205076 -6.997592)
      (xy 6.103432 -6.882617)
      (xy 5.957779 -6.711441)
      (xy 5.856715 -6.584528)
      (xy 5.791224 -6.487431)
      (xy 5.752288 -6.405709)
      (xy 5.730890 -6.324916)
      (xy 5.723024 -6.273273)
      (xy 5.697635 -6.075364)
      (xy 5.177833 -6.075364)
      (xy 5.176932 -6.093101)
      (xy 5.162586 -6.163137)
      (xy 5.143369 -6.338516)
      (xy 5.156689 -6.519508)
      (xy 5.197339 -6.685338)
      (xy 5.260117 -6.815235)
      (xy 5.339817 -6.888424)
      (xy 5.344808 -6.890476)
      (xy 5.454346 -6.893098)
      (xy 5.566205 -6.830039)
      (xy 5.639206 -6.745544)
      (xy 5.710266 -6.637219)
      (xy 6.063971 -7.045135)
      (xy 6.245095 -7.247321)
      (xy 6.471763 -7.489914)
      (xy 6.730837 -7.759691)
      (xy 7.009181 -8.043425)
      (xy 7.293656 -8.327889)
      (xy 7.571127 -8.599857)
      (xy 7.828457 -8.846104)
      (xy 8.052507 -9.053404)
      (xy 8.108920 -9.103938)
      (xy 8.251641 -9.233406)
      (xy 8.369650 -9.345791)
      (xy 8.451595 -9.429888)
      (xy 8.486123 -9.474492)
      (xy 8.486541 -9.476634)
      (xy 8.455675 -9.521266)
      (xy 8.370170 -9.602875)
      (xy 8.240672 -9.713065)
      (xy 8.077824 -9.843443)
      (xy 7.892268 -9.985613)
      (xy 7.694649 -10.131182)
      (xy 7.495610 -10.271754)
      (xy 7.373552 -10.354452)
      (xy 6.595417 -10.828034)
      (xy 5.794325 -11.228572)
      (xy 4.964677 -11.558185)
      (xy 4.100873 -11.818992)
      (xy 3.197312 -12.013115)
      (xy 2.842097 -12.069878)
      (xy 2.550925 -12.102198)
      (xy 2.201108 -12.124989)
      (xy 1.812924 -12.138252)
      (xy 1.406655 -12.141985)
      (xy 1.002579 -12.136190)
      (xy 0.620977 -12.120866)
      (xy 0.282129 -12.096013)
      (xy 0.059624 -12.069878)
      (xy -0.877034 -11.895333)
      (xy -1.780154 -11.649091)
      (xy -2.648817 -11.331544)
      (xy -3.482107 -10.943087)
      (xy -4.279105 -10.484113)
      (xy -5.038894 -9.955016)
      (xy -5.246949 -9.792673)
      (xy -5.460353 -9.611929)
      (xy -5.707662 -9.386049)
      (xy -5.972461 -9.131447)
      (xy -6.238338 -8.864535)
      (xy -6.488878 -8.601727)
      (xy -6.707669 -8.359436)
      (xy -6.851202 -8.188420)
      (xy -7.400064 -7.439323)
      (xy -7.878914 -6.652758)
      (xy -8.287360 -5.829641)
      (xy -8.625006 -4.970892)
      (xy -8.891459 -4.077426)
      (xy -9.086326 -3.150162)
      (xy -9.128407 -2.881847)
      (xy -9.160727 -2.590675)
      (xy -9.183519 -2.240858)
      (xy -9.196781 -1.852675)
      (xy -9.200515 -1.446405)
      (xy -9.595764 -1.446405)
      (xy -9.595835 -1.490610)
      (xy -9.594900 -1.839721)
      (xy -9.591556 -2.124400)
      (xy -9.584999 -2.359698)
      (xy -9.574422 -2.560665)
      (xy -9.559021 -2.742353)
      (xy -9.537989 -2.919812)
      (xy -9.510521 -3.108093)
      (xy -9.508607 -3.120344)
      (xy -9.323250 -4.053742)
      (xy -9.064984 -4.958764)
      (xy -8.735425 -5.832206)
      (xy -8.336190 -6.670866)
      (xy -7.868897 -7.471539)
      (xy -7.335163 -8.231022)
      (xy -6.736604 -8.946112)
      (xy -6.379104 -9.320575)
      (xy -5.689886 -9.954216)
      (xy -4.954507 -10.523926)
      (xy -4.176169 -11.028086)
      (xy -3.358077 -11.465080)
      (xy -2.503434 -11.833291)
      (xy -1.615444 -12.131102)
      (xy -0.697310 -12.356896)
      (xy -0.178874 -12.450078)
      (xy 0.161438 -12.491794)
      (xy 0.560631 -12.521547)
      (xy 0.998994 -12.539337)
      (xy 1.456815 -12.545164)
    )

    (stroke (width 0.000000) (type solid)) (fill solid) (layer "F.SilkS") (tstamp f787b9c6-d54b-47e3-a7d3-2e177f3f46ac))
  (fp_poly
    (pts
      (xy 1.939256 7.083207)
      (xy 2.066507 7.102977)
      (xy 2.178635 7.129399)
      (xy 2.251248 7.157131)
      (xy 2.265727 7.172761)
      (xy 2.254080 7.213043)
      (xy 2.225750 7.297471)
      (xy 2.222847 7.305822)
      (xy 2.186653 7.387747)
      (xy 2.141906 7.408354)
      (xy 2.077319 7.389802)
      (xy 1.916463 7.350147)
      (xy 1.760324 7.347891)
      (xy 1.629720 7.379852)
      (xy 1.545471 7.442846)
      (xy 1.530191 7.473458)
      (xy 1.527317 7.576268)
      (xy 1.592081 7.666710)
      (xy 1.729198 7.749787)
      (xy 1.829845 7.791433)
      (xy 2.048784 7.891528)
      (xy 2.195972 8.004814)
      (xy 2.279004 8.139513)
      (xy 2.305472 8.303851)
      (xy 2.305477 8.306522)
      (xy 2.294476 8.445263)
      (xy 2.251978 8.546083)
      (xy 2.193872 8.617482)
      (xy 2.029171 8.737725)
      (xy 1.817342 8.804534)
      (xy 1.572371 8.815319)
      (xy 1.338510 8.775888)
      (xy 1.213062 8.724512)
      (xy 1.160723 8.651376)
      (xy 1.176181 8.547760)
      (xy 1.185770 8.525161)
      (xy 1.219121 8.465023)
      (xy 1.260805 8.450509)
      (xy 1.339291 8.475825)
      (xy 1.368592 8.487946)
      (xy 1.540416 8.536331)
      (xy 1.704587 8.542047)
      (xy 1.844683 8.509246)
      (xy 1.944283 8.442081)
      (xy 1.986963 8.344705)
      (xy 1.987480 8.331450)
      (xy 1.954402 8.224583)
      (xy 1.852014 8.132842)
      (xy 1.675587 8.052155)
      (xy 1.654479 8.044806)
      (xy 1.507401 7.976489)
      (xy 1.366445 7.882946)
      (xy 1.329840 7.851451)
      (xy 1.239478 7.751461)
      (xy 1.199660 7.656177)
      (xy 1.192488 7.563030)
      (xy 1.227989 7.382777)
      (xy 1.329350 7.238626)
      (xy 1.488862 7.136555)
      (xy 1.698814 7.082545)
      (xy 1.821273 7.075430)
    )

    (stroke (width 0.000000) (type solid)) (fill solid) (layer "F.SilkS") (tstamp 34c54ad3-90dd-43ec-bf33-f58162cde701))
  (fp_poly
    (pts
      (xy -0.876808 7.168168)
      (xy -0.858279 7.171495)
      (xy -0.761077 7.202483)
      (xy -0.738254 7.246509)
      (xy -0.740074 7.252233)
      (xy -0.738814 7.285299)
      (xy -0.687259 7.288076)
      (xy -0.619016 7.274832)
      (xy -0.417198 7.261347)
      (xy -0.236970 7.308603)
      (xy -0.091904 7.407369)
      (xy 0.004428 7.548416)
      (xy 0.038459 7.721988)
      (xy 0.028862 7.836144)
      (xy 0.004521 7.985592)
      (xy -0.029963 8.151599)
      (xy -0.069989 8.315428)
      (xy -0.110955 8.458344)
      (xy -0.148261 8.561612)
      (xy -0.177305 8.606497)
      (xy -0.178874 8.606961)
      (xy -0.246834 8.605942)
      (xy -0.310490 8.597006)
      (xy -0.375495 8.575778)
      (xy -0.411801 8.533086)
      (xy -0.420847 8.455427)
      (xy -0.404074 8.329298)
      (xy -0.362923 8.141198)
      (xy -0.360293 8.130103)
      (xy -0.323314 7.966817)
      (xy -0.294992 7.827321)
      (xy -0.279719 7.733870)
      (xy -0.278248 7.714446)
      (xy -0.312614 7.618947)
      (xy -0.399259 7.550668)
      (xy -0.513506 7.516891)
      (xy -0.630677 7.524897)
      (xy -0.726091 7.581968)
      (xy -0.726335 7.582238)
      (xy -0.763070 7.649843)
      (xy -0.809847 7.774026)
      (xy -0.859233 7.933813)
      (xy -0.884850 8.029421)
      (xy -0.929951 8.204882)
      (xy -0.965994 8.315839)
      (xy -1.004925 8.374462)
      (xy -1.058692 8.392920)
      (xy -1.139243 8.383383)
      (xy -1.216209 8.366945)
      (xy -1.247524 8.357886)
      (xy -1.266638 8.338824)
      (xy -1.272463 8.297943)
      (xy -1.263912 8.223431)
      (xy -1.239897 8.103473)
      (xy -1.199332 7.926255)
      (xy -1.160524 7.761883)
      (xy -1.111513 7.557177)
      (xy -1.068457 7.381576)
      (xy -1.034809 7.248833)
      (xy -1.014020 7.172704)
      (xy -1.009471 7.160095)
      (xy -0.966626 7.156927)
    )

    (stroke (width 0.000000) (type solid)) (fill solid) (layer "F.SilkS") (tstamp 42c52a00-e6fb-4ec8-a97a-3c9b9cd12b5c))
  (fp_poly
    (pts
      (xy 4.603943 6.653726)
      (xy 4.640533 6.691093)
      (xy 4.715752 6.778243)
      (xy 4.821028 6.904484)
      (xy 4.947793 7.059124)
      (xy 5.087476 7.231472)
      (xy 5.231506 7.410837)
      (xy 5.371313 7.586526)
      (xy 5.498328 7.747849)
      (xy 5.603979 7.884112)
      (xy 5.679697 7.984626)
      (xy 5.716912 8.038697)
      (xy 5.719100 8.044925)
      (xy 5.675129 8.064707)
      (xy 5.585906 8.097580)
      (xy 5.564945 8.104810)
      (xy 5.489539 8.127360)
      (xy 5.433776 8.125455)
      (xy 5.377085 8.088967)
      (xy 5.298893 8.007770)
      (xy 5.245641 7.947622)
      (xy 5.065462 7.742991)
      (xy 4.808396 7.821700)
      (xy 4.551330 7.900409)
      (xy 4.540943 8.094101)
      (xy 4.527175 8.269673)
      (xy 4.504743 8.381636)
      (xy 4.467741 8.445831)
      (xy 4.410266 8.478102)
      (xy 4.396370 8.481976)
      (xy 4.291876 8.511846)
      (xy 4.232557 8.532089)
      (xy 4.187111 8.538342)
      (xy 4.178780 8.494691)
      (xy 4.187045 8.442822)
      (xy 4.195730 8.365835)
      (xy 4.205781 8.225060)
      (xy 4.216302 8.036174)
      (xy 4.226400 7.814858)
      (xy 4.233333 7.631925)
      (xy 4.238032 7.500398)
      (xy 4.532701 7.500398)
      (xy 4.544008 7.586282)
      (xy 4.581984 7.615394)
      (xy 4.661746 7.599059)
      (xy 4.798410 7.548600)
      (xy 4.801365 7.547493)
      (xy 4.852340 7.519032)
      (xy 4.864247 7.477324)
      (xy 4.832508 7.410444)
      (xy 4.752549 7.306464)
      (xy 4.673617 7.214554)
      (xy 4.534440 7.055555)
      (xy 4.532948 7.346419)
      (xy 4.532701 7.500398)
      (xy 4.238032 7.500398)
      (xy 4.243670 7.342604)
      (xy 4.253519 7.122486)
      (xy 4.265034 6.961320)
      (xy 4.280370 6.848853)
      (xy 4.301681 6.774834)
      (xy 4.331124 6.729010)
      (xy 4.370851 6.701131)
      (xy 4.423019 6.680943)
      (xy 4.433979 6.677308)
      (xy 4.532943 6.652930)
      (xy 4.598853 6.651507)
    )

    (stroke (width 0.000000) (type solid)) (fill solid) (layer "F.SilkS") (tstamp 8999dd6a-1b31-4598-9be9-6724457c4866))
  (fp_poly
    (pts
      (xy -2.010529 6.748093)
      (xy -1.883492 6.793729)
      (xy -1.690622 6.919407)
      (xy -1.560307 7.089034)
      (xy -1.498102 7.294352)
      (xy -1.493450 7.373645)
      (xy -1.528234 7.595432)
      (xy -1.624477 7.779485)
      (xy -1.770012 7.918066)
      (xy -1.952674 8.003436)
      (xy -2.160299 8.027857)
      (xy -2.380720 7.983590)
      (xy -2.424726 7.966048)
      (xy -2.611748 7.851382)
      (xy -2.750679 7.697790)
      (xy -2.832172 7.520659)
      (xy -2.844085 7.370577)
      (xy -2.510675 7.370577)
      (xy -2.509758 7.509218)
      (xy -2.460668 7.631246)
      (xy -2.358473 7.719355)
      (xy -2.340037 7.727835)
      (xy -2.178914 7.762759)
      (xy -2.037319 7.721320)
      (xy -1.927421 7.624158)
      (xy -1.844348 7.479375)
      (xy -1.820084 7.328201)
      (xy -1.849066 7.187773)
      (xy -1.925733 7.075231)
      (xy -2.044521 7.007711)
      (xy -2.131317 6.995931)
      (xy -2.273742 7.027998)
      (xy -2.387733 7.112663)
      (xy -2.468356 7.232624)
      (xy -2.510675 7.370577)
      (xy -2.844085 7.370577)
      (xy -2.846879 7.335375)
      (xy -2.838106 7.285605)
      (xy -2.750252 7.058844)
      (xy -2.612729 6.886128)
      (xy -2.436376 6.773041)
      (xy -2.232030 6.725168)
    )

    (stroke (width 0.000000) (type solid)) (fill solid) (layer "F.SilkS") (tstamp 7e98db53-0e07-4643-aaaf-1a0c7fd8ac1d))
  (fp_poly
    (pts
      (xy 6.536751 5.780492)
      (xy 6.558685 5.820067)
      (xy 6.572795 5.910410)
      (xy 6.579152 5.929775)
      (xy 6.557415 5.977856)
      (xy 6.457232 6.032185)
      (xy 6.399475 6.054195)
      (xy 6.162758 6.169055)
      (xy 5.992463 6.317836)
      (xy 5.891283 6.493494)
      (xy 5.861909 6.688985)
      (xy 5.907031 6.897264)
      (xy 6.007195 7.080847)
      (xy 6.118840 7.184187)
      (xy 6.273722 7.260847)
      (xy 6.437551 7.297090)
      (xy 6.534488 7.292081)
      (xy 6.684439 7.240618)
      (xy 6.850286 7.154032)
      (xy 6.995278 7.053080)
      (xy 7.052118 6.999729)
      (xy 7.111316 6.943848)
      (xy 7.156395 6.945901)
      (xy 7.201131 6.981895)
      (xy 7.260047 7.053258)
      (xy 7.261745 7.122285)
      (xy 7.202140 7.205312)
      (xy 7.127716 7.275289)
      (xy 6.888051 7.444928)
      (xy 6.635079 7.550132)
      (xy 6.381031 7.588354)
      (xy 6.138136 7.557050)
      (xy 6.010690 7.507779)
      (xy 5.838049 7.382853)
      (xy 5.690787 7.200579)
      (xy 5.585245 6.982593)
      (xy 5.565454 6.918322)
      (xy 5.539538 6.678160)
      (xy 5.588073 6.444873)
      (xy 5.706027 6.227125)
      (xy 5.888373 6.033580)
      (xy 6.130079 5.872905)
      (xy 6.189348 5.843472)
      (xy 6.337597 5.786978)
      (xy 6.458425 5.765666)
    )

    (stroke (width 0.000000) (type solid)) (fill solid) (layer "F.SilkS") (tstamp dbb1874f-1f05-49f0-8a46-000cb540329b))
  (fp_poly
    (pts
      (xy -3.073069 6.247970)
      (xy -2.987816 6.280183)
      (xy -2.959459 6.293208)
      (xy -2.871131 6.341158)
      (xy -2.843151 6.382872)
      (xy -2.861873 6.441178)
      (xy -2.866097 6.449393)
      (xy -2.920481 6.551717)
      (xy -2.995438 6.690218)
      (xy -3.082958 6.850396)
      (xy -3.175032 7.017753)
      (xy -3.263650 7.177791)
      (xy -3.340801 7.316011)
      (xy -3.398477 7.417915)
      (xy -3.428666 7.469004)
      (xy -3.431196 7.472257)
      (xy -3.465687 7.452661)
      (xy -3.542507 7.404804)
      (xy -3.567528 7.388854)
      (xy -3.650092 7.332221)
      (xy -3.694348 7.294546)
      (xy -3.696714 7.289953)
      (xy -3.678520 7.252063)
      (xy -3.629462 7.159893)
      (xy -3.557828 7.028356)
      (xy -3.471905 6.872363)
      (xy -3.379982 6.706825)
      (xy -3.290346 6.546653)
      (xy -3.211284 6.406759)
      (xy -3.151084 6.302054)
      (xy -3.118033 6.247449)
      (xy -3.115104 6.243502)
    )

    (stroke (width 0.000000) (type solid)) (fill solid) (layer "F.SilkS") (tstamp 91c8aa3b-7a3d-438b-946d-9ec3db2a8f90))
  (fp_poly
    (pts
      (xy -3.625129 5.534519)
      (xy -3.517737 5.587598)
      (xy -3.478685 5.638228)
      (xy -3.500227 5.706990)
      (xy -3.538461 5.764741)
      (xy -3.590397 5.843670)
      (xy -3.598196 5.895224)
      (xy -3.553518 5.941618)
      (xy -3.448279 6.004920)
      (xy -3.387247 6.068945)
      (xy -3.398856 6.154569)
      (xy -3.437254 6.215257)
      (xy -3.478590 6.261109)
      (xy -3.520074 6.263181)
      (xy -3.590603 6.219821)
      (xy -3.611062 6.205320)
      (xy -3.694372 6.150053)
      (xy -3.747461 6.122230)
      (xy -3.751700 6.121440)
      (xy -3.785204 6.152490)
      (xy -3.846585 6.232912)
      (xy -3.923314 6.343613)
      (xy -4.002863 6.465497)
      (xy -4.072703 6.579473)
      (xy -4.120305 6.666445)
      (xy -4.133960 6.704007)
      (xy -4.104576 6.757917)
      (xy -4.033504 6.823951)
      (xy -4.029879 6.826620)
      (xy -3.961602 6.885088)
      (xy -3.951967 6.934643)
      (xy -3.979816 6.988934)
      (xy -4.043980 7.057626)
      (xy -4.122078 7.065846)
      (xy -4.226976 7.012180)
      (xy -4.303776 6.953287)
      (xy -4.405248 6.849408)
      (xy -4.452594 6.740940)
      (xy -4.444922 6.615530)
      (xy -4.381340 6.460820)
      (xy -4.260954 6.264456)
      (xy -4.253208 6.252999)
      (xy -4.164754 6.120079)
      (xy -4.096548 6.012735)
      (xy -4.058795 5.947249)
      (xy -4.054460 5.935827)
      (xy -4.082543 5.895625)
      (xy -4.121814 5.862331)
      (xy -4.164859 5.822132)
      (xy -4.161614 5.777035)
      (xy -4.121007 5.709055)
      (xy -4.066200 5.640258)
      (xy -4.016474 5.631999)
      (xy -3.971744 5.654549)
      (xy -3.909660 5.680049)
      (xy -3.859135 5.654817)
      (xy -3.811530 5.596531)
      (xy -3.749536 5.525690)
      (xy -3.692084 5.511977)
    )

    (stroke (width 0.000000) (type solid)) (fill solid) (layer "F.SilkS") (tstamp e2caef8c-83b1-471f-8546-1b22a6a6e022))
  (fp_poly
    (pts
      (xy 7.475253 4.918379)
      (xy 7.525494 4.978638)
      (xy 7.552069 5.023574)
      (xy 7.554254 5.064658)
      (xy 7.523442 5.116003)
      (xy 7.451026 5.191725)
      (xy 7.328400 5.305938)
      (xy 7.322760 5.311112)
      (xy 7.057760 5.554149)
      (xy 7.167992 5.698671)
      (xy 7.240277 5.785163)
      (xy 7.295618 5.836791)
      (xy 7.309766 5.843192)
      (xy 7.352835 5.818729)
      (xy 7.437916 5.754046)
      (xy 7.548015 5.662198)
      (xy 7.568429 5.644444)
      (xy 7.683625 5.548826)
      (xy 7.779781 5.478390)
      (xy 7.838593 5.446370)
      (xy 7.843299 5.445696)
      (xy 7.898474 5.476155)
      (xy 7.945620 5.533080)
      (xy 7.968173 5.579201)
      (xy 7.964503 5.622873)
      (xy 7.925427 5.678680)
      (xy 7.841762 5.761204)
      (xy 7.749280 5.844885)
      (xy 7.498369 6.069308)
      (xy 7.652772 6.254024)
      (xy 7.807175 6.438739)
      (xy 7.908361 6.347977)
      (xy 7.993057 6.272185)
      (xy 8.108702 6.168919)
      (xy 8.203753 6.084160)
      (xy 8.397960 5.911105)
      (xy 8.471179 6.006335)
      (xy 8.523470 6.080976)
      (xy 8.545282 6.124960)
      (xy 8.517594 6.157122)
      (xy 8.442910 6.228885)
      (xy 8.334747 6.328292)
      (xy 8.206621 6.443385)
      (xy 8.072052 6.562208)
      (xy 7.944554 6.672804)
      (xy 7.837647 6.763216)
      (xy 7.764847 6.821486)
      (xy 7.740403 6.836933)
      (xy 7.710640 6.808272)
      (xy 7.637034 6.728243)
      (xy 7.527548 6.605776)
      (xy 7.390148 6.449802)
      (xy 7.232800 6.269249)
      (xy 7.190980 6.220971)
      (xy 7.030285 6.033539)
      (xy 6.889016 5.865518)
      (xy 6.774950 5.726429)
      (xy 6.695868 5.625794)
      (xy 6.659549 5.573134)
      (xy 6.658059 5.568694)
      (xy 6.686432 5.530647)
      (xy 6.762137 5.454564)
      (xy 6.871055 5.352847)
      (xy 6.999069 5.237897)
      (xy 7.132057 5.122116)
      (xy 7.255902 5.017905)
      (xy 7.356484 4.937665)
      (xy 7.419684 4.893797)
      (xy 7.431675 4.889202)
    )

    (stroke (width 0.000000) (type solid)) (fill solid) (layer "F.SilkS") (tstamp 66181afa-039f-413a-823d-8503652ad10d))
  (fp_poly
    (pts
      (xy -4.927298 4.899539)
      (xy -4.819607 4.951336)
      (xy -4.607673 5.084021)
      (xy -4.473413 5.232580)
      (xy -4.416716 5.397711)
      (xy -4.437470 5.580116)
      (xy -4.535565 5.780494)
      (xy -4.661650 5.945092)
      (xy -4.773072 6.074989)
      (xy -4.873632 6.195937)
      (xy -4.943718 6.284294)
      (xy -4.949846 6.292531)
      (xy -5.028326 6.399508)
      (xy -5.144049 6.306802)
      (xy -5.212500 6.236599)
      (xy -5.235988 6.179736)
      (xy -5.233139 6.171003)
      (xy -5.246838 6.132788)
      (xy -5.326113 6.101645)
      (xy -5.328450 6.101125)
      (xy -5.431064 6.056411)
      (xy -5.545835 5.975377)
      (xy -5.587170 5.937567)
      (xy -5.678475 5.829575)
      (xy -5.718096 5.727690)
      (xy -5.720450 5.695988)
      (xy -5.420040 5.695988)
      (xy -5.394916 5.782509)
      (xy -5.291922 5.862676)
      (xy -5.186793 5.910750)
      (xy -5.109993 5.912081)
      (xy -5.025369 5.866421)
      (xy -5.017296 5.860813)
      (xy -4.941449 5.783811)
      (xy -4.944534 5.712232)
      (xy -5.011099 5.652015)
      (xy -5.155017 5.574637)
      (xy -5.259516 5.552110)
      (xy -5.340602 5.582292)
      (xy -5.366009 5.604506)
      (xy -5.420040 5.695988)
      (xy -5.720450 5.695988)
      (xy -5.723944 5.648924)
      (xy -5.692111 5.485481)
      (xy -5.604381 5.367580)
      (xy -5.472411 5.298847)
      (xy -5.307858 5.282908)
      (xy -5.122378 5.323389)
      (xy -4.951208 5.408496)
      (xy -4.821081 5.480918)
      (xy -4.741552 5.499854)
      (xy -4.717932 5.489074)
      (xy -4.696202 5.418725)
      (xy -4.735320 5.329589)
      (xy -4.824433 5.237217)
      (xy -4.948034 5.159397)
      (xy -5.067507 5.092644)
      (xy -5.119038 5.033989)
      (xy -5.110704 4.968268)
      (xy -5.077834 4.915700)
      (xy -5.044194 4.880240)
      (xy -5.001011 4.873887)
    )

    (stroke (width 0.000000) (type solid)) (fill solid) (layer "F.SilkS") (tstamp 3896d9dd-c2e7-4a62-b724-8dda25c862e3))
  (fp_poly
    (pts
      (xy -2.773135 5.896620)
      (xy -2.673536 5.950871)
      (xy -2.643123 6.039457)
      (xy -2.683114 6.146915)
      (xy -2.754201 6.223694)
      (xy -2.833709 6.231510)
      (xy -2.934889 6.177226)
      (xy -3.004271 6.094351)
      (xy -3.009261 6.006163)
      (xy -2.961034 5.932046)
      (xy -2.870763 5.891384)
    )

    (stroke (width 0.000000) (type solid)) (fill solid) (layer "F.SilkS") (tstamp 2536a1b5-ef5d-46ca-95b4-2f49c9a0cd35))
  (fp_poly
    (pts
      (xy -5.971695 3.741836)
      (xy -5.915822 3.824420)
      (xy -5.898374 3.885104)
      (xy -5.900891 3.892345)
      (xy -5.884262 3.931506)
      (xy -5.813767 3.982072)
      (xy -5.785118 3.996765)
      (xy -5.630076 4.111951)
      (xy -5.526423 4.277050)
      (xy -5.485649 4.473209)
      (xy -5.485446 4.488353)
      (xy -5.492746 4.587432)
      (xy -5.523658 4.668425)
      (xy -5.591707 4.756645)
      (xy -5.674257 4.841797)
      (xy -5.794162 4.956159)
      (xy -5.924792 5.073512)
      (xy -6.051165 5.181283)
      (xy -6.158298 5.266902)
      (xy -6.231208 5.317795)
      (xy -6.251835 5.326447)
      (xy -6.289331 5.298392)
      (xy -6.350527 5.229892)
      (xy -6.358124 5.220351)
      (xy -6.411563 5.142012)
      (xy -6.431229 5.091607)
      (xy -6.430571 5.088841)
      (xy -6.397641 5.053517)
      (xy -6.317840 4.978887)
      (xy -6.204669 4.877370)
      (xy -6.121440 4.804442)
      (xy -5.981825 4.679883)
      (xy -5.893434 4.589990)
      (xy -5.845115 4.520143)
      (xy -5.825715 4.455718)
      (xy -5.823318 4.413559)
      (xy -5.849391 4.289245)
      (xy -5.927853 4.203616)
      (xy -6.001153 4.160030)
      (xy -6.073835 4.149285)
      (xy -6.159330 4.176493)
      (xy -6.271069 4.246769)
      (xy -6.422484 4.365229)
      (xy -6.482149 4.414682)
      (xy -6.608679 4.517923)
      (xy -6.712751 4.598240)
      (xy -6.779251 4.644189)
      (xy -6.793858 4.650704)
      (xy -6.838198 4.624431)
      (xy -6.907967 4.560191)
      (xy -6.917355 4.550348)
      (xy -6.955015 4.510881)
      (xy -6.977964 4.477979)
      (xy -6.979614 4.443155)
      (xy -6.953373 4.397919)
      (xy -6.892652 4.333784)
      (xy -6.790861 4.242264)
      (xy -6.641411 4.114869)
      (xy -6.461477 3.963173)
      (xy -6.066146 3.629588)
    )

    (stroke (width 0.000000) (type solid)) (fill solid) (layer "F.SilkS") (tstamp cdee9306-4666-4c71-a38b-d3e762b694ae))
  (fp_poly
    (pts
      (xy -2.448915 -8.251778)
      (xy -2.321297 -8.216139)
      (xy -2.150966 -8.153758)
      (xy -1.951460 -8.070302)
      (xy -1.736316 -7.971439)
      (xy -1.519072 -7.862834)
      (xy -1.313266 -7.750156)
      (xy -1.310752 -7.748704)
      (xy -0.701318 -7.353171)
      (xy -0.141264 -6.901260)
      (xy 0.365177 -6.398362)
      (xy 0.813773 -5.849872)
      (xy 1.200291 -5.261182)
      (xy 1.520498 -4.637685)
      (xy 1.770162 -3.984773)
      (xy 1.846897 -3.725529)
      (xy 1.986300 -3.071181)
      (xy 2.057960 -2.391492)
      (xy 2.061878 -1.702730)
      (xy 1.998053 -1.021161)
      (xy 1.866486 -0.363050)
      (xy 1.846897 -0.289182)
      (xy 1.626605 0.370385)
      (xy 1.334425 1.002980)
      (xy 0.975047 1.602984)
      (xy 0.553161 2.164777)
      (xy 0.073458 2.682739)
      (xy -0.459373 3.151252)
      (xy -1.040642 3.564695)
      (xy -1.662832 3.916044)
      (xy -1.809957 3.985703)
      (xy -1.986889 4.064162)
      (xy -2.177994 4.145132)
      (xy -2.367642 4.222324)
      (xy -2.540200 4.289446)
      (xy -2.680037 4.340208)
      (xy -2.771519 4.368321)
      (xy -2.795578 4.371848)
      (xy -2.829732 4.353230)
      (xy -2.861972 4.333230)
      (xy -2.898100 4.286008)
      (xy -2.873451 4.224578)
      (xy -2.784037 4.144634)
      (xy -2.625868 4.041867)
      (xy -2.552691 3.999231)
      (xy -2.104590 3.715247)
      (xy -1.652832 3.376542)
      (xy -1.215034 2.998934)
      (xy -0.808811 2.598241)
      (xy -0.451781 2.190280)
      (xy -0.267889 1.947731)
      (xy -0.099312 1.690315)
      (xy 0.079954 1.381716)
      (xy 0.258307 1.044843)
      (xy 0.424145 0.702604)
      (xy 0.565866 0.377906)
      (xy 0.671869 0.093657)
      (xy 0.673265 0.089398)
      (xy 0.859459 -0.605956)
      (xy 0.971941 -1.321748)
      (xy 1.010091 -2.047152)
      (xy 0.973291 -2.771339)
      (xy 0.874027 -3.420744)
      (xy 0.693265 -4.111354)
      (xy 0.438931 -4.780748)
      (xy 0.115578 -5.422420)
      (xy -0.272242 -6.029865)
      (xy -0.719973 -6.596577)
      (xy -1.223064 -7.116050)
      (xy -1.776959 -7.581779)
      (xy -2.281201 -7.928594)
      (xy -2.451219 -8.043019)
      (xy -2.550094 -8.131303)
      (xy -2.580425 -8.196998)
      (xy -2.544817 -8.243657)
      (xy -2.520282 -8.255009)
    )

    (stroke (width 0.000000) (type solid)) (fill solid) (layer "F.SilkS") (tstamp 3d8543ed-9d3f-4693-a9b5-4b029625aadc))
  (fp_poly
    (pts
      (xy 9.958355 2.953212)
      (xy 9.977210 3.024135)
      (xy 9.977300 3.030908)
      (xy 10.006084 3.148798)
      (xy 10.078582 3.280816)
      (xy 10.174515 3.393924)
      (xy 10.223689 3.432279)
      (xy 10.330433 3.482710)
      (xy 10.444209 3.517097)
      (xy 10.538107 3.550279)
      (xy 10.573377 3.591429)
      (xy 10.541759 3.628293)
      (xy 10.523709 3.635017)
      (xy 10.450121 3.654445)
      (xy 10.358657 3.675795)
      (xy 10.226670 3.739290)
      (xy 10.105395 3.855299)
      (xy 10.018387 3.997882)
      (xy 9.993787 4.077621)
      (xy 9.962646 4.186847)
      (xy 9.924720 4.240854)
      (xy 9.888365 4.228316)
      (xy 9.885744 4.224044)
      (xy 9.863008 4.168904)
      (xy 9.829298 4.072084)
      (xy 9.822454 4.051079)
      (xy 9.729605 3.878201)
      (xy 9.584780 3.742296)
      (xy 9.423361 3.668205)
      (xy 9.310993 3.626209)
      (xy 9.277719 3.580152)
      (xy 9.323516 3.533778)
      (xy 9.424367 3.496966)
      (xy 9.608204 3.413744)
      (xy 9.749574 3.282418)
      (xy 9.831994 3.119285)
      (xy 9.839528 3.086575)
      (xy 9.872959 2.991121)
      (xy 9.918086 2.944437)
    )

    (stroke (width 0.000000) (type solid)) (fill solid) (layer "F.SilkS") (tstamp acb53833-fc55-4861-96ab-f8e0c699b61b))
  (fp_poly
    (pts
      (xy -6.414316 3.084481)
      (xy -6.360981 3.166543)
      (xy -6.359007 3.169730)
      (xy -6.291223 3.279343)
      (xy -6.792639 3.607246)
      (xy -6.969436 3.721611)
      (xy -7.123037 3.818609)
      (xy -7.241100 3.890629)
      (xy -7.311284 3.930061)
      (xy -7.324450 3.935180)
      (xy -7.362987 3.904522)
      (xy -7.419182 3.828853)
      (xy -7.430967 3.810041)
      (xy -7.507088 3.684871)
      (xy -6.989325 3.350108)
      (xy -6.810383 3.236658)
      (xy -6.655297 3.142587)
      (xy -6.535947 3.074763)
      (xy -6.464211 3.040056)
      (xy -6.449176 3.037731)
    )

    (stroke (width 0.000000) (type solid)) (fill solid) (layer "F.SilkS") (tstamp 913bbf34-ce45-4f29-a491-269fd87f2e1e))
  (fp_poly
    (pts
      (xy -6.990122 2.021219)
      (xy -6.949828 2.071520)
      (xy -6.901379 2.125756)
      (xy -6.842829 2.126511)
      (xy -6.787893 2.104319)
      (xy -6.677056 2.082207)
      (xy -6.585364 2.131466)
      (xy -6.517019 2.229561)
      (xy -6.506057 2.284050)
      (xy -6.547419 2.336594)
      (xy -6.616872 2.384088)
      (xy -6.754052 2.468870)
      (xy -6.686958 2.609568)
      (xy -6.646415 2.702567)
      (xy -6.643489 2.754148)
      (xy -6.679565 2.793660)
      (xy -6.696246 2.806119)
      (xy -6.774526 2.852787)
      (xy -6.828321 2.843976)
      (xy -6.880243 2.771570)
      (xy -6.900592 2.732785)
      (xy -6.946452 2.644766)
      (xy -6.974903 2.594130)
      (xy -6.977090 2.591059)
      (xy -7.016048 2.600011)
      (xy -7.103845 2.638153)
      (xy -7.220351 2.695136)
      (xy -7.345433 2.760613)
      (xy -7.458959 2.824237)
      (xy -7.540800 2.875659)
      (xy -7.560889 2.891136)
      (xy -7.603781 2.939768)
      (xy -7.602857 2.993264)
      (xy -7.567895 3.069240)
      (xy -7.530057 3.151826)
      (xy -7.518760 3.196668)
      (xy -7.519683 3.198153)
      (xy -7.567675 3.227181)
      (xy -7.643103 3.265573)
      (xy -7.707578 3.294352)
      (xy -7.724114 3.299217)
      (xy -7.755986 3.269716)
      (xy -7.807982 3.198558)
      (xy -7.809247 3.196633)
      (xy -7.882459 3.034988)
      (xy -7.900495 2.872186)
      (xy -7.860914 2.733627)
      (xy -7.854691 2.723592)
      (xy -7.789780 2.660363)
      (xy -7.673680 2.578693)
      (xy -7.527605 2.492972)
      (xy -7.471994 2.464006)
      (xy -7.331457 2.391048)
      (xy -7.222860 2.330296)
      (xy -7.162264 2.290943)
      (xy -7.154930 2.282546)
      (xy -7.171595 2.233599)
      (xy -7.195347 2.184981)
      (xy -7.211461 2.126062)
      (xy -7.172745 2.079862)
      (xy -7.119961 2.049577)
      (xy -7.037359 2.013002)
    )

    (stroke (width 0.000000) (type solid)) (fill solid) (layer "F.SilkS") (tstamp 11df45e1-3c05-40c8-a6a9-06ab401780ec))
  (fp_poly
    (pts
      (xy -6.030810 2.855585)
      (xy -5.969713 2.945403)
      (xy -5.962442 3.001095)
      (xy -5.992329 3.110159)
      (xy -6.066908 3.168703)
      (xy -6.163554 3.168498)
      (xy -6.254403 3.107277)
      (xy -6.311509 3.002034)
      (xy -6.301144 2.906331)
      (xy -6.231279 2.840260)
      (xy -6.141315 2.822222)
    )

    (stroke (width 0.000000) (type solid)) (fill solid) (layer "F.SilkS") (tstamp 18a98447-ae40-4926-b5ae-506dba8da91c))
  (fp_poly
    (pts
      (xy -7.405706 1.168142)
      (xy -7.282475 1.290772)
      (xy -7.195091 1.456324)
      (xy -7.155910 1.646899)
      (xy -7.154930 1.682033)
      (xy -7.160921 1.778783)
      (xy -7.191097 1.819759)
      (xy -7.263758 1.828471)
      (xy -7.268945 1.828482)
      (xy -7.342579 1.820358)
      (xy -7.380679 1.781241)
      (xy -7.401541 1.689016)
      (xy -7.405020 1.664015)
      (xy -7.445042 1.506790)
      (xy -7.504476 1.419991)
      (xy -7.569897 1.402965)
      (xy -7.627879 1.455061)
      (xy -7.664997 1.575626)
      (xy -7.671675 1.676964)
      (xy -7.694489 1.887291)
      (xy -7.763935 2.034125)
      (xy -7.881517 2.119422)
      (xy -8.031922 2.145215)
      (xy -8.166203 2.121105)
      (xy -8.278248 2.037167)
      (xy -8.403041 1.862234)
      (xy -8.483688 1.657476)
      (xy -8.506417 1.491887)
      (xy -8.500210 1.398001)
      (xy -8.466675 1.359268)
      (xy -8.383434 1.351497)
      (xy -8.376557 1.351487)
      (xy -8.291800 1.357626)
      (xy -8.254329 1.391628)
      (xy -8.243524 1.476867)
      (xy -8.242719 1.503222)
      (xy -8.220049 1.668749)
      (xy -8.165563 1.777949)
      (xy -8.084550 1.821797)
      (xy -8.056544 1.820957)
      (xy -8.006647 1.803564)
      (xy -7.976169 1.756439)
      (xy -7.956771 1.660518)
      (xy -7.946838 1.570109)
      (xy -7.926431 1.424962)
      (xy -7.897864 1.300647)
      (xy -7.876128 1.242644)
      (xy -7.795207 1.162869)
      (xy -7.672985 1.112600)
      (xy -7.552426 1.106330)
    )

    (stroke (width 0.000000) (type solid)) (fill solid) (layer "F.SilkS") (tstamp ff22b27a-c4ca-4caa-b88b-1d42fbc0eb38))
  (fp_poly
    (pts
      (xy -7.988264 -0.304728)
      (xy -7.809606 -0.213752)
      (xy -7.673047 -0.056604)
      (xy -7.641863 -0.000606)
      (xy -7.566581 0.217875)
      (xy -7.566149 0.422091)
      (xy -7.639290 0.604796)
      (xy -7.774287 0.750688)
      (xy -7.862825 0.802350)
      (xy -7.974755 0.845666)
      (xy -8.081932 0.872327)
      (xy -8.156211 0.874025)
      (xy -8.169144 0.867267)
      (xy -8.183168 0.823652)
      (xy -8.207926 0.718907)
      (xy -8.239583 0.570054)
      (xy -8.265564 0.439600)
      (xy -8.300056 0.268575)
      (xy -8.330798 0.128650)
      (xy -8.353875 0.036950)
      (xy -8.361700 0.015771)
      (xy -8.095399 0.015771)
      (xy -8.082777 0.110814)
      (xy -8.061643 0.232529)
      (xy -8.036504 0.355480)
      (xy -8.011863 0.454230)
      (xy -8.006897 0.470363)
      (xy -7.967586 0.509031)
      (xy -7.907077 0.483712)
      (xy -7.840194 0.401293)
      (xy -7.833529 0.389827)
      (xy -7.798305 0.299423)
      (xy -7.811369 0.208556)
      (xy -7.826278 0.169610)
      (xy -7.878551 0.090944)
      (xy -7.956017 0.019687)
      (xy -8.034747 -0.026640)
      (xy -8.090809 -0.030513)
      (xy -8.095007 -0.027164)
      (xy -8.095399 0.015771)
      (xy -8.361700 0.015771)
      (xy -8.363783 0.010134)
      (xy -8.400687 0.022816)
      (xy -8.468128 0.077795)
      (xy -8.484133 0.093351)
      (xy -8.567171 0.230339)
      (xy -8.583719 0.403748)
      (xy -8.533129 0.605444)
      (xy -8.526291 0.622250)
      (xy -8.482297 0.734679)
      (xy -8.474110 0.798182)
      (xy -8.505814 0.836729)
      (xy -8.568215 0.868249)
      (xy -8.632312 0.891107)
      (xy -8.674767 0.875913)
      (xy -8.715753 0.808613)
      (xy -8.744471 0.745443)
      (xy -8.832318 0.475325)
      (xy -8.845564 0.231685)
      (xy -8.784189 0.014953)
      (xy -8.777153 0.000909)
      (xy -8.651211 -0.173849)
      (xy -8.484755 -0.282733)
      (xy -8.271201 -0.329631)
      (xy -8.213419 -0.332078)
    )

    (stroke (width 0.000000) (type solid)) (fill solid) (layer "F.SilkS") (tstamp 7af1dd53-ff0b-422f-9e01-de409a0931cd))
  (fp_poly
    (pts
      (xy -4.658104 -0.999810)
      (xy -4.614460 -0.910198)
      (xy -4.605715 -0.874885)
      (xy -4.554021 -0.753668)
      (xy -4.460389 -0.633446)
      (xy -4.346695 -0.535622)
      (xy -4.234817 -0.481599)
      (xy -4.199035 -0.476995)
      (xy -4.120767 -0.459249)
      (xy -4.056184 -0.418328)
      (xy -4.027457 -0.372708)
      (xy -4.042593 -0.346631)
      (xy -4.100070 -0.327970)
      (xy -4.199581 -0.305969)
      (xy -4.216434 -0.302848)
      (xy -4.373483 -0.237680)
      (xy -4.505666 -0.115696)
      (xy -4.591286 0.040484)
      (xy -4.607178 0.104564)
      (xy -4.637501 0.206698)
      (xy -4.680730 0.265907)
      (xy -4.723553 0.270048)
      (xy -4.746738 0.231866)
      (xy -4.766923 0.156038)
      (xy -4.789343 0.059624)
      (xy -4.860830 -0.097129)
      (xy -4.987724 -0.223785)
      (xy -5.146320 -0.298073)
      (xy -5.176581 -0.304193)
      (xy -5.280409 -0.329185)
      (xy -5.346000 -0.360439)
      (xy -5.352296 -0.367412)
      (xy -5.347043 -0.417142)
      (xy -5.283183 -0.457624)
      (xy -5.181537 -0.476224)
      (xy -5.172710 -0.476387)
      (xy -5.069368 -0.510141)
      (xy -4.957010 -0.595325)
      (xy -4.856265 -0.709602)
      (xy -4.787762 -0.830635)
      (xy -4.769953 -0.912479)
      (xy -4.752107 -1.004672)
      (xy -4.709405 -1.032542)
    )

    (stroke (width 0.000000) (type solid)) (fill solid) (layer "F.SilkS") (tstamp 4c887ffd-98b3-4675-9e04-7e73faea0778))
  (fp_poly
    (pts
      (xy -8.610750 -2.254664)
      (xy -8.399736 -2.251325)
      (xy -8.157994 -2.244805)
      (xy -8.088991 -2.242503)
      (xy -7.266161 -2.213937)
      (xy -7.280630 -1.752900)
      (xy -7.300348 -1.457364)
      (xy -7.341745 -1.227053)
      (xy -7.409474 -1.049540)
      (xy -7.508189 -0.912394)
      (xy -7.634092 -0.808715)
      (xy -7.815664 -0.727892)
      (xy -8.033826 -0.689246)
      (xy -8.255860 -0.696007)
      (xy -8.404744 -0.732633)
      (xy -8.603230 -0.828156)
      (xy -8.748187 -0.955840)
      (xy -8.863917 -1.135909)
      (xy -8.908573 -1.230944)
      (xy -8.937583 -1.321861)
      (xy -8.954228 -1.429679)
      (xy -8.961786 -1.575414)
      (xy -8.963335 -1.751473)
      (xy -8.722402 -1.751473)
      (xy -8.712230 -1.613431)
      (xy -8.692329 -1.474279)
      (xy -8.665068 -1.359543)
      (xy -8.647905 -1.316310)
      (xy -8.525131 -1.159068)
      (xy -8.356191 -1.058717)
      (xy -8.154009 -1.018960)
      (xy -7.931507 -1.043501)
      (xy -7.821087 -1.079285)
      (xy -7.692872 -1.171246)
      (xy -7.596011 -1.327797)
      (xy -7.536095 -1.538324)
      (xy -7.522836 -1.645817)
      (xy -7.502800 -1.895431)
      (xy -8.092970 -1.919343)
      (xy -8.301329 -1.926380)
      (xy -8.480298 -1.929764)
      (xy -8.615428 -1.929428)
      (xy -8.692275 -1.925308)
      (xy -8.704090 -1.922108)
      (xy -8.720478 -1.862874)
      (xy -8.722402 -1.751473)
      (xy -8.963335 -1.751473)
      (xy -8.963537 -1.774422)
      (xy -8.961354 -1.955033)
      (xy -8.955433 -2.105268)
      (xy -8.946717 -2.207968)
      (xy -8.937679 -2.245212)
      (xy -8.891898 -2.251646)
      (xy -8.778863 -2.254784)
    )

    (stroke (width 0.000000) (type solid)) (fill solid) (layer "F.SilkS") (tstamp c60e67e8-9a85-4740-aac9-64e42e8406ef))
  (fp_poly
    (pts
      (xy -3.720741 -9.877095)
      (xy -3.684713 -9.770134)
      (xy -3.607287 -9.604754)
      (xy -3.468318 -9.465636)
      (xy -3.289713 -9.371920)
      (xy -3.198574 -9.330644)
      (xy -3.152612 -9.290539)
      (xy -3.151186 -9.281534)
      (xy -3.190290 -9.246295)
      (xy -3.280535 -9.202447)
      (xy -3.335146 -9.182160)
      (xy -3.517147 -9.084074)
      (xy -3.639230 -8.933928)
      (xy -3.691785 -8.782754)
      (xy -3.727827 -8.675499)
      (xy -3.771342 -8.640457)
      (xy -3.812975 -8.679573)
      (xy -3.836119 -8.752746)
      (xy -3.873668 -8.875409)
      (xy -3.921398 -8.975372)
      (xy -4.013305 -9.075376)
      (xy -4.140230 -9.161834)
      (xy -4.269136 -9.214465)
      (xy -4.322770 -9.221761)
      (xy -4.398102 -9.239519)
      (xy -4.411594 -9.280680)
      (xy -4.369500 -9.327609)
      (xy -4.278071 -9.362674)
      (xy -4.272418 -9.363780)
      (xy -4.103498 -9.433377)
      (xy -3.962678 -9.563701)
      (xy -3.868380 -9.736569)
      (xy -3.856948 -9.773816)
      (xy -3.812936 -9.887315)
      (xy -3.766135 -9.921712)
    )

    (stroke (width 0.000000) (type solid)) (fill solid) (layer "F.SilkS") (tstamp 5493506e-4e33-405d-8203-5bb2b1d8e6d9))
  (fp_poly
    (pts
      (xy 5.191048 -10.158811)
      (xy 5.207347 -10.086463)
      (xy 5.242293 -9.948431)
      (xy 5.333072 -9.808420)
      (xy 5.459243 -9.686869)
      (xy 5.600368 -9.604218)
      (xy 5.714006 -9.579804)
      (xy 5.788284 -9.562103)
      (xy 5.800543 -9.521378)
      (xy 5.756842 -9.475663)
      (xy 5.668351 -9.443911)
      (xy 5.502621 -9.380397)
      (xy 5.358591 -9.266884)
      (xy 5.254362 -9.122928)
      (xy 5.208035 -8.968087)
      (xy 5.207198 -8.945636)
      (xy 5.190426 -8.875001)
      (xy 5.151147 -8.865825)
      (xy 5.105921 -8.910327)
      (xy 5.071308 -9.000727)
      (xy 5.069364 -9.010396)
      (xy 5.003807 -9.169444)
      (xy 4.883048 -9.311254)
      (xy 4.731098 -9.411818)
      (xy 4.637939 -9.441821)
      (xy 4.543954 -9.474747)
      (xy 4.495197 -9.519711)
      (xy 4.499449 -9.560153)
      (xy 4.564490 -9.579513)
      (xy 4.573179 -9.579656)
      (xy 4.727971 -9.615968)
      (xy 4.874748 -9.712836)
      (xy 4.993951 -9.852160)
      (xy 5.066023 -10.015841)
      (xy 5.071454 -10.040809)
      (xy 5.105084 -10.132332)
      (xy 5.150960 -10.173685)
    )

    (stroke (width 0.000000) (type solid)) (fill solid) (layer "F.SilkS") (tstamp 30e643e4-54d0-40d0-bd68-9755420e4050))
)
