(footprint "LOGO" (version 20221018) (generator bitmap2component)
  (layer "F.Cu")
  (attr board_only exclude_from_pos_files exclude_from_bom)
  (fp_text reference "G***" (at 0 0) (layer "F.SilkS")
      (effects (font (size 1.5 1.5) (thickness 0.3)))
    (tstamp c0a8cd44-f5d9-440f-9d66-1322b66d38cc)
  )
  (fp_text value "LOGO" (at 0.75 0) (layer "F.SilkS") hide
      (effects (font (size 1.5 1.5) (thickness 0.3)))
    (tstamp d9e36c6c-8485-4fe7-aed0-222ca459ce9c)
  )
  (fp_poly
    (pts
      (xy 0.574314 -3.761708)
      (xy 0.705594 -3.756278)
      (xy 0.824970 -3.747260)
      (xy 0.924178 -3.735023)
      (xy 1.204197 -3.679416)
      (xy 1.475704 -3.601936)
      (xy 1.737737 -3.503068)
      (xy 1.989335 -3.383298)
      (xy 2.229537 -3.243110)
      (xy 2.457381 -3.082990)
      (xy 2.671908 -2.903422)
      (xy 2.784247 -2.796172)
      (xy 2.974340 -2.589407)
      (xy 3.145252 -2.368793)
      (xy 3.296501 -2.135292)
      (xy 3.427599 -1.889864)
      (xy 3.538062 -1.633471)
      (xy 3.627405 -1.367074)
      (xy 3.695144 -1.091634)
      (xy 3.723098 -0.936103)
      (xy 3.731465 -0.879272)
      (xy 3.737886 -0.825965)
      (xy 3.742603 -0.771667)
      (xy 3.745858 -0.711862)
      (xy 3.747892 -0.642035)
      (xy 3.748948 -0.557671)
      (xy 3.749266 -0.454255)
      (xy 3.749267 -0.447183)
      (xy 3.748141 -0.307501)
      (xy 3.744344 -0.186038)
      (xy 3.737245 -0.077252)
      (xy 3.726213 0.024400)
      (xy 3.710616 0.124462)
      (xy 3.689824 0.228475)
      (xy 3.663206 0.341984)
      (xy 3.656281 0.369672)
      (xy 3.577147 0.635436)
      (xy 3.477057 0.891028)
      (xy 3.357041 1.135513)
      (xy 3.218130 1.367959)
      (xy 3.061354 1.587431)
      (xy 2.887744 1.792996)
      (xy 2.698332 1.983719)
      (xy 2.494148 2.158667)
      (xy 2.276223 2.316906)
      (xy 2.045588 2.457502)
      (xy 1.803273 2.579522)
      (xy 1.550310 2.682031)
      (xy 1.287729 2.764096)
      (xy 1.016561 2.824782)
      (xy 0.930140 2.839228)
      (xy 0.856940 2.849154)
      (xy 0.780273 2.856643)
      (xy 0.694933 2.862031)
      (xy 0.595715 2.865654)
      (xy 0.488920 2.867700)
      (xy 0.406560 2.868560)
      (xy 0.329573 2.868929)
      (xy 0.262038 2.868822)
      (xy 0.208041 2.868253)
      (xy 0.171662 2.867237)
      (xy 0.160986 2.866529)
      (xy -0.111022 2.829734)
      (xy -0.368479 2.776204)
      (xy -0.614691 2.705015)
      (xy -0.852961 2.615244)
      (xy -1.032690 2.533078)
      (xy -1.276088 2.400149)
      (xy -1.506305 2.248022)
      (xy -1.722341 2.077931)
      (xy -1.923195 1.891110)
      (xy -2.107868 1.688794)
      (xy -2.275358 1.472217)
      (xy -2.424667 1.242612)
      (xy -2.554793 1.001216)
      (xy -2.664737 0.749260)
      (xy -2.753499 0.487981)
      (xy -2.785765 0.369672)
      (xy -2.813795 0.253233)
      (xy -2.835855 0.147549)
      (xy -2.852577 0.047076)
      (xy -2.864591 -0.053729)
      (xy -2.872528 -0.160407)
      (xy -2.877020 -0.278503)
      (xy -2.878697 -0.413559)
      (xy -2.878730 -0.433921)
      (xy -2.760155 -0.433921)
      (xy -2.758416 -0.312698)
      (xy -2.753819 -0.198218)
      (xy -2.746363 -0.096563)
      (xy -2.738522 -0.029812)
      (xy -2.686159 0.251186)
      (xy -2.612286 0.522122)
      (xy -2.517022 0.782721)
      (xy -2.400485 1.032707)
      (xy -2.262793 1.271807)
      (xy -2.104064 1.499744)
      (xy -2.055361 1.562160)
      (xy -2.001138 1.626181)
      (xy -1.933374 1.700374)
      (xy -1.856993 1.779814)
      (xy -1.776919 1.859577)
      (xy -1.698077 1.934739)
      (xy -1.625390 2.000376)
      (xy -1.574085 2.043436)
      (xy -1.359664 2.200594)
      (xy -1.132025 2.340373)
      (xy -0.894121 2.461352)
      (xy -0.648908 2.562110)
      (xy -0.399340 2.641227)
      (xy -0.260547 2.675164)
      (xy -0.192231 2.690565)
      (xy -0.139739 2.702084)
      (xy -0.098774 2.708589)
      (xy -0.065041 2.708950)
      (xy -0.034241 2.702037)
      (xy -0.002080 2.686718)
      (xy 0.035740 2.661863)
      (xy 0.083514 2.626340)
      (xy 0.145540 2.579019)
      (xy 0.167294 2.562561)
      (xy 0.241473 2.506804)
      (xy 0.298771 2.464239)
      (xy 0.341256 2.433580)
      (xy 0.370999 2.413537)
      (xy 0.390069 2.402824)
      (xy 0.400535 2.400152)
      (xy 0.404465 2.404232)
      (xy 0.403930 2.413778)
      (xy 0.403619 2.415468)
      (xy 0.393143 2.429173)
      (xy 0.366429 2.454443)
      (xy 0.326467 2.488726)
      (xy 0.276242 2.529473)
      (xy 0.218744 2.574131)
      (xy 0.210117 2.580677)
      (xy 0.153171 2.624341)
      (xy 0.104216 2.663011)
      (xy 0.065911 2.694492)
      (xy 0.040913 2.716589)
      (xy 0.031879 2.727106)
      (xy 0.032221 2.727627)
      (xy 0.063424 2.733922)
      (xy 0.114175 2.739403)
      (xy 0.180184 2.743962)
      (xy 0.257161 2.747488)
      (xy 0.340815 2.749875)
      (xy 0.426854 2.751013)
      (xy 0.510989 2.750792)
      (xy 0.588929 2.749105)
      (xy 0.656383 2.745843)
      (xy 0.679819 2.744042)
      (xy 0.730888 2.738823)
      (xy 0.766505 2.731958)
      (xy 0.795029 2.720412)
      (xy 0.824819 2.701147)
      (xy 0.849809 2.682284)
      (xy 0.884234 2.655095)
      (xy 0.901587 2.638816)
      (xy 0.904065 2.630302)
      (xy 0.893863 2.626405)
      (xy 0.889254 2.625740)
      (xy 0.879003 2.624523)
      (xy 0.870949 2.621913)
      (xy 0.864329 2.615040)
      (xy 0.858378 2.601039)
      (xy 0.852334 2.577041)
      (xy 0.845434 2.540180)
      (xy 0.836914 2.487589)
      (xy 0.826009 2.416399)
      (xy 0.816095 2.350970)
      (xy 0.806457 2.283334)
      (xy 0.799175 2.223915)
      (xy 0.795409 2.184698)
      (xy 0.892308 2.184698)
      (xy 0.900656 2.258006)
      (xy 0.905983 2.298255)
      (xy 0.911395 2.328823)
      (xy 0.915056 2.341460)
      (xy 0.930802 2.347185)
      (xy 0.959519 2.343633)
      (xy 0.993129 2.332739)
      (xy 1.023553 2.316437)
      (xy 1.025540 2.315007)
      (xy 1.053188 2.285529)
      (xy 1.060484 2.249623)
      (xy 1.056075 2.222626)
      (xy 1.037541 2.194093)
      (xy 1.001996 2.177592)
      (xy 0.953951 2.174880)
      (xy 0.938590 2.176879)
      (xy 0.892308 2.184698)
      (xy 0.795409 2.184698)
      (xy 0.794640 2.176694)
      (xy 0.793244 2.145651)
      (xy 0.794814 2.134962)
      (xy 0.817504 2.123979)
      (xy 0.856718 2.113514)
      (xy 0.905149 2.104968)
      (xy 0.955488 2.099741)
      (xy 0.983713 2.098780)
      (xy 1.053594 2.105930)
      (xy 1.104932 2.127784)
      (xy 1.138422 2.164952)
      (xy 1.154759 2.218040)
      (xy 1.156713 2.250097)
      (xy 1.154658 2.290318)
      (xy 1.145641 2.317866)
      (xy 1.125388 2.343766)
      (xy 1.117104 2.352242)
      (xy 1.068418 2.387843)
      (xy 1.009196 2.412294)
      (xy 0.954214 2.420752)
      (xy 0.939272 2.422264)
      (xy 0.932302 2.430589)
      (xy 0.931758 2.451405)
      (xy 0.935829 2.488272)
      (xy 0.941768 2.534314)
      (xy 0.948201 2.564510)
      (xy 0.958308 2.579057)
      (xy 0.975265 2.578155)
      (xy 1.002250 2.562001)
      (xy 1.042442 2.530794)
      (xy 1.083346 2.497481)
      (xy 1.129699 2.460322)
      (xy 1.169779 2.429361)
      (xy 1.199840 2.407406)
      (xy 1.216134 2.397268)
      (xy 1.217501 2.396902)
      (xy 1.229530 2.401985)
      (xy 1.224420 2.417627)
      (xy 1.201614 2.444420)
      (xy 1.160551 2.482954)
      (xy 1.100674 2.533820)
      (xy 1.046569 2.577637)
      (xy 0.864875 2.722695)
      (xy 0.930301 2.714254)
      (xy 1.004089 2.702280)
      (xy 1.093654 2.683856)
      (xy 1.192323 2.660583)
      (xy 1.293424 2.634060)
      (xy 1.390285 2.605889)
      (xy 1.417260 2.597438)
      (xy 1.649922 2.511970)
      (xy 1.880890 2.405331)
      (xy 2.105532 2.280020)
      (xy 2.319215 2.138534)
      (xy 2.444601 2.043436)
      (xy 2.508622 1.989213)
      (xy 2.582815 1.921449)
      (xy 2.662254 1.845068)
      (xy 2.742017 1.764995)
      (xy 2.817179 1.686152)
      (xy 2.882817 1.613465)
      (xy 2.925877 1.562160)
      (xy 3.090199 1.337750)
      (xy 3.233905 1.101562)
      (xy 3.356654 0.854379)
      (xy 3.458104 0.596983)
      (xy 3.537915 0.330156)
      (xy 3.595745 0.054680)
      (xy 3.602881 0.010203)
      (xy 3.615325 -0.092427)
      (xy 3.624204 -0.211313)
      (xy 3.629473 -0.340201)
      (xy 3.631087 -0.472841)
      (xy 3.629002 -0.602978)
      (xy 3.623174 -0.724362)
      (xy 3.613558 -0.830740)
      (xy 3.609102 -0.864554)
      (xy 3.557278 -1.144144)
      (xy 3.484891 -1.411980)
      (xy 3.391545 -1.669047)
      (xy 3.276839 -1.916330)
      (xy 3.140374 -2.154816)
      (xy 3.006651 -2.351790)
      (xy 2.976800 -2.391475)
      (xy 2.951667 -2.422652)
      (xy 2.934776 -2.441061)
      (xy 2.930183 -2.444207)
      (xy 2.916948 -2.436428)
      (xy 2.889969 -2.414535)
      (xy 2.852267 -2.381375)
      (xy 2.806865 -2.339795)
      (xy 2.756785 -2.292643)
      (xy 2.705049 -2.242766)
      (xy 2.654680 -2.193011)
      (xy 2.608699 -2.146225)
      (xy 2.570130 -2.105256)
      (xy 2.568646 -2.103626)
      (xy 2.508723 -2.035892)
      (xy 2.447995 -1.963946)
      (xy 2.388486 -1.890509)
      (xy 2.332223 -1.818301)
      (xy 2.281232 -1.750044)
      (xy 2.237537 -1.688458)
      (xy 2.203166 -1.636264)
      (xy 2.180144 -1.596183)
      (xy 2.170497 -1.570937)
      (xy 2.170328 -1.568641)
      (xy 2.163067 -1.549691)
      (xy 2.146479 -1.526385)
      (xy 2.127376 -1.499811)
      (xy 2.125863 -1.478361)
      (xy 2.142511 -1.453609)
      (xy 2.152117 -1.443248)
      (xy 2.181606 -1.412469)
      (xy 2.131249 -1.372932)
      (xy 2.099668 -1.348740)
      (xy 2.074007 -1.330136)
      (xy 2.064699 -1.324048)
      (xy 2.052369 -1.306390)
      (xy 2.039331 -1.270453)
      (xy 2.026768 -1.221730)
      (xy 2.015859 -1.165718)
      (xy 2.007786 -1.107909)
      (xy 2.003730 -1.053801)
      (xy 2.003473 -1.039186)
      (xy 2.012842 -0.922723)
      (xy 2.041657 -0.814600)
      (xy 2.090593 -0.713949)
      (xy 2.160324 -0.619899)
      (xy 2.251528 -0.531583)
      (xy 2.364878 -0.448130)
      (xy 2.501051 -0.368672)
      (xy 2.540130 -0.348634)
      (xy 2.602120 -0.316144)
      (xy 2.663223 -0.281522)
      (xy 2.716732 -0.248726)
      (xy 2.755939 -0.221715)
      (xy 2.758515 -0.219720)
      (xy 2.825459 -0.155323)
      (xy 2.884737 -0.075817)
      (xy 2.930212 0.010107)
      (xy 2.941532 0.039509)
      (xy 2.956653 0.106255)
      (xy 2.962772 0.187637)
      (xy 2.960012 0.276258)
      (xy 2.948498 0.364720)
      (xy 2.935089 0.423334)
      (xy 2.909334 0.500388)
      (xy 2.872381 0.590042)
      (xy 2.827323 0.685799)
      (xy 2.777254 0.781166)
      (xy 2.725267 0.869648)
      (xy 2.714285 0.886919)
      (xy 2.670494 0.952418)
      (xy 2.621340 1.022054)
      (xy 2.568978 1.093150)
      (xy 2.515566 1.163030)
      (xy 2.463259 1.229017)
      (xy 2.414213 1.288435)
      (xy 2.370585 1.338607)
      (xy 2.334530 1.376857)
      (xy 2.308206 1.400509)
      (xy 2.295187 1.407137)
      (xy 2.282927 1.404899)
      (xy 2.280192 1.396506)
      (xy 2.288437 1.379437)
      (xy 2.309114 1.351174)
      (xy 2.343676 1.309194)
      (xy 2.368343 1.280264)
      (xy 2.510683 1.105708)
      (xy 2.632913 0.937282)
      (xy 2.734607 0.775687)
      (xy 2.815336 0.621627)
      (xy 2.874676 0.475802)
      (xy 2.892736 0.418508)
      (xy 2.908052 0.361071)
      (xy 2.916936 0.313875)
      (xy 2.920562 0.266692)
      (xy 2.920103 0.209293)
      (xy 2.919287 0.187118)
      (xy 2.915798 0.125876)
      (xy 2.910132 0.080582)
      (xy 2.900689 0.043341)
      (xy 2.885869 0.006257)
      (xy 2.880162 -0.005962)
      (xy 2.835194 -0.080931)
      (xy 2.774115 -0.149375)
      (xy 2.694634 -0.213321)
      (xy 2.594462 -0.274800)
      (xy 2.550743 -0.297811)
      (xy 2.418302 -0.369086)
      (xy 2.307228 -0.438442)
      (xy 2.215374 -0.507934)
      (xy 2.140590 -0.579618)
      (xy 2.080728 -0.655549)
      (xy 2.033639 -0.737783)
      (xy 1.997645 -0.826972)
      (xy 1.977317 -0.912836)
      (xy 1.967921 -1.011280)
      (xy 1.969619 -1.113602)
      (xy 1.982574 -1.211103)
      (xy 1.989841 -1.242641)
      (xy 2.000470 -1.284602)
      (xy 2.004794 -1.308792)
      (xy 2.002639 -1.320487)
      (xy 1.993832 -1.324965)
      (xy 1.987087 -1.326115)
      (xy 1.967591 -1.338470)
      (xy 1.941962 -1.368156)
      (xy 1.919832 -1.401173)
      (xy 1.888520 -1.446561)
      (xy 1.863627 -1.469647)
      (xy 1.853331 -1.472723)
      (xy 1.836606 -1.466904)
      (xy 1.832440 -1.445560)
      (xy 1.832729 -1.439822)
      (xy 1.827498 -1.415431)
      (xy 1.809721 -1.371631)
      (xy 1.779306 -1.308229)
      (xy 1.736163 -1.225031)
      (xy 1.710619 -1.177475)
      (xy 1.666632 -1.095683)
      (xy 1.633240 -1.030720)
      (xy 1.609434 -0.978577)
      (xy 1.594209 -0.935246)
      (xy 1.586556 -0.896716)
      (xy 1.585468 -0.858981)
      (xy 1.589939 -0.818030)
      (xy 1.598960 -0.769855)
      (xy 1.603161 -0.749812)
      (xy 1.639253 -0.636464)
      (xy 1.697678 -0.531216)
      (xy 1.778273 -0.434244)
      (xy 1.880874 -0.345726)
      (xy 2.005319 -0.265839)
      (xy 2.086854 -0.223810)
      (xy 2.195687 -0.166664)
      (xy 2.284747 -0.107799)
      (xy 2.358092 -0.044444)
      (xy 2.374926 -0.027068)
      (xy 2.442151 0.061306)
      (xy 2.487439 0.158958)
      (xy 2.510799 0.265825)
      (xy 2.512238 0.381843)
      (xy 2.491763 0.506947)
      (xy 2.449381 0.641074)
      (xy 2.385099 0.784159)
      (xy 2.298926 0.936138)
      (xy 2.256815 1.001691)
      (xy 2.173465 1.119867)
      (xy 2.074513 1.247533)
      (xy 1.963764 1.380313)
      (xy 1.845020 1.513830)
      (xy 1.722084 1.643705)
      (xy 1.598758 1.765563)
      (xy 1.567774 1.794764)
      (xy 1.509736 1.848090)
      (xy 1.466603 1.885640)
      (xy 1.436591 1.908676)
      (xy 1.417916 1.918460)
      (xy 1.408794 1.916254)
      (xy 1.407136 1.908388)
      (xy 1.415250 1.897243)
      (xy 1.438141 1.871614)
      (xy 1.473628 1.833792)
      (xy 1.519532 1.786067)
      (xy 1.573673 1.730727)
      (xy 1.633871 1.670063)
      (xy 1.637022 1.666910)
      (xy 1.809967 1.488362)
      (xy 1.961942 1.319532)
      (xy 2.093420 1.159695)
      (xy 2.204873 1.008129)
      (xy 2.296776 0.864109)
      (xy 2.369601 0.726913)
      (xy 2.423821 0.595817)
      (xy 2.459910 0.470099)
      (xy 2.474444 0.386442)
      (xy 2.475201 0.290680)
      (xy 2.455420 0.193556)
      (xy 2.417201 0.101208)
      (xy 2.362644 0.019776)
      (xy 2.340739 -0.004340)
      (xy 2.296585 -0.046543)
      (xy 2.252030 -0.082611)
      (xy 2.201359 -0.116424)
      (xy 2.138861 -0.151859)
      (xy 2.074929 -0.184771)
      (xy 2.019150 -0.213722)
      (xy 1.963477 -0.244355)
      (xy 1.916386 -0.271937)
      (xy 1.897913 -0.283629)
      (xy 1.787095 -0.369237)
      (xy 1.696414 -0.465755)
      (xy 1.626559 -0.572144)
      (xy 1.578222 -0.687367)
      (xy 1.553144 -0.801847)
      (xy 1.544272 -0.870314)
      (xy 1.456874 -0.709429)
      (xy 1.426415 -0.653967)
      (xy 1.399866 -0.606772)
      (xy 1.379303 -0.571443)
      (xy 1.366799 -0.551577)
      (xy 1.364116 -0.548544)
      (xy 1.352493 -0.554522)
      (xy 1.325006 -0.570748)
      (xy 1.285908 -0.594663)
      (xy 1.244711 -0.620393)
      (xy 1.130666 -0.692241)
      (xy 1.138988 -0.641261)
      (xy 1.169221 -0.525751)
      (xy 1.220712 -0.420040)
      (xy 1.293656 -0.323908)
      (xy 1.388247 -0.237135)
      (xy 1.504680 -0.159499)
      (xy 1.611867 -0.104650)
      (xy 1.728563 -0.041045)
      (xy 1.826534 0.034093)
      (xy 1.904826 0.119641)
      (xy 1.962487 0.214474)
      (xy 1.998563 0.317468)
      (xy 2.006808 0.361202)
      (xy 2.010988 0.469981)
      (xy 1.993816 0.588134)
      (xy 1.955632 0.715125)
      (xy 1.896777 0.850423)
      (xy 1.817595 0.993490)
      (xy 1.718425 1.143795)
      (xy 1.599609 1.300801)
      (xy 1.461489 1.463976)
      (xy 1.304406 1.632784)
      (xy 1.128702 1.806691)
      (xy 1.015923 1.911944)
      (xy 0.944089 1.976444)
      (xy 0.887761 2.024297)
      (xy 0.846022 2.056154)
      (xy 0.817955 2.072663)
      (xy 0.802646 2.074474)
      (xy 0.798967 2.065692)
      (xy 0.807392 2.054576)
      (xy 0.830810 2.030278)
      (xy 0.866439 1.995517)
      (xy 0.911494 1.953010)
      (xy 0.961429 1.907077)
      (xy 1.136486 1.742540)
      (xy 1.297576 1.580191)
      (xy 1.443453 1.421499)
      (xy 1.572869 1.267933)
      (xy 1.684580 1.120963)
      (xy 1.777337 0.982058)
      (xy 1.840820 0.870517)
      (xy 1.895761 0.755456)
      (xy 1.934486 0.652563)
      (xy 1.958221 0.557736)
      (xy 1.968189 0.466873)
      (xy 1.968680 0.442050)
      (xy 1.960614 0.340444)
      (xy 1.935373 0.249362)
      (xy 1.891714 0.167112)
      (xy 1.828397 0.092002)
      (xy 1.744181 0.022340)
      (xy 1.637824 -0.043564)
      (xy 1.596396 -0.065417)
      (xy 1.536030 -0.097320)
      (xy 1.475495 -0.131390)
      (xy 1.422328 -0.163272)
      (xy 1.387839 -0.185906)
      (xy 1.287433 -0.269755)
      (xy 1.208185 -0.364201)
      (xy 1.150072 -0.468877)
      (xy 1.113072 -0.583417)
      (xy 1.097162 -0.707452)
      (xy 1.100476 -0.793004)
      (xy 1.133061 -0.793004)
      (xy 1.156491 -0.828779)
      (xy 1.168454 -0.847317)
      (xy 1.191510 -0.883291)
      (xy 1.223944 -0.934017)
      (xy 1.264043 -0.996813)
      (xy 1.310093 -1.068994)
      (xy 1.360380 -1.147878)
      (xy 1.392600 -1.198450)
      (xy 1.450687 -1.289474)
      (xy 1.497577 -1.362353)
      (xy 1.534784 -1.419126)
      (xy 1.563819 -1.461830)
      (xy 1.586197 -1.492500)
      (xy 1.603430 -1.513176)
      (xy 1.617031 -1.525894)
      (xy 1.628513 -1.532690)
      (xy 1.639389 -1.535604)
      (xy 1.643344 -1.536084)
      (xy 1.671064 -1.540005)
      (xy 1.679296 -1.548391)
      (xy 1.670522 -1.567454)
      (xy 1.661486 -1.581479)
      (xy 1.647670 -1.617269)
      (xy 1.644021 -1.669356)
      (xy 1.644336 -1.679836)
      (xy 1.647109 -1.747788)
      (xy 1.611042 -1.747391)
      (xy 1.589595 -1.744043)
      (xy 1.569728 -1.731785)
      (xy 1.546432 -1.706508)
      (xy 1.522306 -1.674629)
      (xy 1.435443 -1.547296)
      (xy 1.356366 -1.415574)
      (xy 1.286778 -1.283131)
      (xy 1.228381 -1.153634)
      (xy 1.182880 -1.030748)
      (xy 1.151975 -0.918140)
      (xy 1.140577 -0.852629)
      (xy 1.133061 -0.793004)
      (xy 1.100476 -0.793004)
      (xy 1.102321 -0.840618)
      (xy 1.128525 -0.982545)
      (xy 1.175752 -1.132869)
      (xy 1.243980 -1.291221)
      (xy 1.333186 -1.457235)
      (xy 1.443348 -1.630544)
      (xy 1.479457 -1.682463)
      (xy 1.513844 -1.731334)
      (xy 1.536410 -1.765539)
      (xy 1.549145 -1.789854)
      (xy 1.554038 -1.809059)
      (xy 1.553349 -1.822609)
      (xy 1.709290 -1.822609)
      (xy 1.751992 -1.830156)
      (xy 1.786541 -1.836895)
      (xy 1.813289 -1.843164)
      (xy 1.814881 -1.843617)
      (xy 1.826232 -1.855069)
      (xy 1.847869 -1.884306)
      (xy 1.849361 -1.886501)
      (xy 2.113590 -1.886501)
      (xy 2.161647 -1.813373)
      (xy 2.185962 -1.778426)
      (xy 2.205847 -1.753581)
      (xy 2.217469 -1.743568)
      (xy 2.218220 -1.743620)
      (xy 2.228252 -1.753936)
      (xy 2.249458 -1.779642)
      (xy 2.278814 -1.816963)
      (xy 2.313297 -1.862123)
      (xy 2.316399 -1.866244)
      (xy 2.390016 -1.959276)
      (xy 2.475716 -2.059550)
      (xy 2.567827 -2.160902)
      (xy 2.660678 -2.257166)
      (xy 2.748598 -2.342180)
      (xy 2.782694 -2.373051)
      (xy 2.825782 -2.411706)
      (xy 2.861512 -2.444853)
      (xy 2.886501 -2.469272)
      (xy 2.897363 -2.481742)
      (xy 2.897565 -2.482371)
      (xy 2.890352 -2.494400)
      (xy 2.870942 -2.519677)
      (xy 2.842943 -2.553589)
      (xy 2.830291 -2.568373)
      (xy 2.762835 -2.646415)
      (xy 2.702695 -2.596189)
      (xy 2.675768 -2.572264)
      (xy 2.635735 -2.534825)
      (xy 2.586222 -2.487353)
      (xy 2.530856 -2.433332)
      (xy 2.473261 -2.376243)
      (xy 2.463085 -2.366057)
      (xy 2.401531 -2.303938)
      (xy 2.353745 -2.254243)
      (xy 2.316376 -2.212794)
      (xy 2.286072 -2.175409)
      (xy 2.259479 -2.137912)
      (xy 2.233246 -2.096121)
      (xy 2.204021 -2.045858)
      (xy 2.198603 -2.036327)
      (xy 2.113590 -1.886501)
      (xy 1.849361 -1.886501)
      (xy 1.877963 -1.928572)
      (xy 1.914684 -1.985109)
      (xy 1.956203 -2.051160)
      (xy 1.998438 -2.120235)
      (xy 2.042041 -2.192436)
      (xy 2.081489 -2.257667)
      (xy 2.115143 -2.313222)
      (xy 2.141362 -2.356394)
      (xy 2.158503 -2.384479)
      (xy 2.164909 -2.394748)
      (xy 2.175208 -2.390036)
      (xy 2.199735 -2.374122)
      (xy 2.233680 -2.350172)
      (xy 2.242551 -2.343685)
      (xy 2.278872 -2.318117)
      (xy 2.307894 -2.299853)
      (xy 2.324371 -2.292138)
      (xy 2.325782 -2.292175)
      (xy 2.336460 -2.301121)
      (xy 2.361663 -2.324373)
      (xy 2.398880 -2.359549)
      (xy 2.445600 -2.404264)
      (xy 2.499312 -2.456136)
      (xy 2.531714 -2.487623)
      (xy 2.728955 -2.679706)
      (xy 2.659757 -2.748182)
      (xy 2.590559 -2.816658)
      (xy 2.490749 -2.729750)
      (xy 2.439839 -2.683775)
      (xy 2.376184 -2.623723)
      (xy 2.303210 -2.553048)
      (xy 2.224344 -2.475201)
      (xy 2.143010 -2.393638)
      (xy 2.062635 -2.311811)
      (xy 1.986644 -2.233173)
      (xy 1.918465 -2.161177)
      (xy 1.861523 -2.099277)
      (xy 1.831029 -2.064785)
      (xy 1.787333 -2.013432)
      (xy 1.757014 -1.975358)
      (xy 1.737367 -1.946229)
      (xy 1.725686 -1.921712)
      (xy 1.719267 -1.897474)
      (xy 1.716907 -1.881981)
      (xy 1.709290 -1.822609)
      (xy 1.553349 -1.822609)
      (xy 1.553079 -1.827930)
      (xy 1.548775 -1.848941)
      (xy 1.543011 -1.901554)
      (xy 1.547006 -1.955852)
      (xy 1.559202 -2.005601)
      (xy 1.578035 -2.044570)
      (xy 1.601945 -2.066527)
      (xy 1.603442 -2.067142)
      (xy 1.636303 -2.067929)
      (xy 1.669861 -2.049011)
      (xy 1.691762 -2.023663)
      (xy 1.713080 -1.991165)
      (xy 1.819191 -2.113540)
      (xy 1.873528 -2.174196)
      (xy 1.941529 -2.246974)
      (xy 2.019251 -2.327907)
      (xy 2.102754 -2.413027)
      (xy 2.188097 -2.498366)
      (xy 2.271338 -2.579957)
      (xy 2.348537 -2.653831)
      (xy 2.415752 -2.716021)
      (xy 2.432676 -2.731181)
      (xy 2.475492 -2.770021)
      (xy 2.510895 -2.803737)
      (xy 2.535478 -2.828966)
      (xy 2.545837 -2.842347)
      (xy 2.545962 -2.842990)
      (xy 2.536702 -2.856379)
      (xy 2.511051 -2.880862)
      (xy 2.472201 -2.913919)
      (xy 2.423347 -2.953032)
      (xy 2.367680 -2.995684)
      (xy 2.308395 -3.039354)
      (xy 2.248683 -3.081526)
      (xy 2.212065 -3.106335)
      (xy 1.978625 -3.248410)
      (xy 1.738297 -3.368571)
      (xy 1.489403 -3.467455)
      (xy 1.230262 -3.545697)
      (xy 0.959193 -3.603934)
      (xy 0.852629 -3.620963)
      (xy 0.765277 -3.630659)
      (xy 0.660332 -3.637496)
      (xy 0.543877 -3.641475)
      (xy 0.421996 -3.642595)
      (xy 0.300773 -3.640857)
      (xy 0.186293 -3.636259)
      (xy 0.084639 -3.628803)
      (xy 0.017887 -3.620963)
      (xy -0.263110 -3.568600)
      (xy -0.534046 -3.494727)
      (xy -0.794645 -3.399463)
      (xy -1.044632 -3.282926)
      (xy -1.283732 -3.145233)
      (xy -1.511668 -2.986504)
      (xy -1.574085 -2.937801)
      (xy -1.638106 -2.883578)
      (xy -1.712299 -2.815814)
      (xy -1.791739 -2.739434)
      (xy -1.871502 -2.659360)
      (xy -1.946664 -2.580518)
      (xy -2.012301 -2.507830)
      (xy -2.055361 -2.456525)
      (xy -2.220019 -2.231796)
      (xy -2.363675 -1.995827)
      (xy -2.486208 -1.748892)
      (xy -2.587502 -1.491267)
      (xy -2.667438 -1.223227)
      (xy -2.725898 -0.945048)
      (xy -2.738522 -0.864554)
      (xy -2.748218 -0.777202)
      (xy -2.755056 -0.672257)
      (xy -2.759035 -0.555802)
      (xy -2.760155 -0.433921)
      (xy -2.878730 -0.433921)
      (xy -2.878751 -0.447183)
      (xy -2.878470 -0.551916)
      (xy -2.877467 -0.637320)
      (xy -2.875500 -0.707909)
      (xy -2.872327 -0.768199)
      (xy -2.867707 -0.822705)
      (xy -2.861397 -0.875943)
      (xy -2.853157 -0.932427)
      (xy -2.852582 -0.936103)
      (xy -2.796975 -1.216122)
      (xy -2.719495 -1.487629)
      (xy -2.620628 -1.749661)
      (xy -2.500857 -2.001259)
      (xy -2.360669 -2.241461)
      (xy -2.200549 -2.469306)
      (xy -2.020981 -2.683833)
      (xy -1.913731 -2.796172)
      (xy -1.706966 -2.986264)
      (xy -1.486352 -3.157177)
      (xy -1.252851 -3.308425)
      (xy -1.007423 -3.439524)
      (xy -0.751030 -3.549987)
      (xy -0.484633 -3.639330)
      (xy -0.209193 -3.707068)
      (xy -0.053662 -3.735023)
      (xy 0.048431 -3.747538)
      (xy 0.168189 -3.756464)
      (xy 0.299698 -3.761801)
      (xy 0.437044 -3.763549)
    )

    (stroke (width 0.000000) (type solid)) (fill solid) (layer "F.SilkS") (tstamp df8042fb-c501-48c8-b55c-7121eebc9828))
  (fp_poly
    (pts
      (xy 0.581777 2.124963)
      (xy 0.619952 2.130894)
      (xy 0.653590 2.138820)
      (xy 0.675374 2.147140)
      (xy 0.679718 2.151829)
      (xy 0.676224 2.163913)
      (xy 0.667725 2.189242)
      (xy 0.666854 2.191747)
      (xy 0.655996 2.216324)
      (xy 0.642572 2.222507)
      (xy 0.623195 2.216941)
      (xy 0.574939 2.205044)
      (xy 0.528097 2.204368)
      (xy 0.488916 2.213956)
      (xy 0.463641 2.232854)
      (xy 0.459057 2.242038)
      (xy 0.458195 2.272881)
      (xy 0.477624 2.300013)
      (xy 0.518759 2.324937)
      (xy 0.548953 2.337430)
      (xy 0.614635 2.367459)
      (xy 0.658791 2.401445)
      (xy 0.683701 2.441854)
      (xy 0.691641 2.491156)
      (xy 0.691643 2.491957)
      (xy 0.688343 2.533579)
      (xy 0.675593 2.563825)
      (xy 0.658161 2.585245)
      (xy 0.608751 2.621318)
      (xy 0.545202 2.641361)
      (xy 0.471711 2.644596)
      (xy 0.401553 2.632767)
      (xy 0.363918 2.617354)
      (xy 0.348217 2.595413)
      (xy 0.352854 2.564328)
      (xy 0.355731 2.557549)
      (xy 0.365736 2.539507)
      (xy 0.378241 2.535153)
      (xy 0.401787 2.542748)
      (xy 0.410577 2.546384)
      (xy 0.462124 2.560900)
      (xy 0.511376 2.562614)
      (xy 0.553405 2.552774)
      (xy 0.583285 2.532625)
      (xy 0.596089 2.503412)
      (xy 0.596244 2.499435)
      (xy 0.586320 2.467375)
      (xy 0.555604 2.439853)
      (xy 0.502676 2.415647)
      (xy 0.496343 2.413442)
      (xy 0.452220 2.392947)
      (xy 0.409933 2.364884)
      (xy 0.398952 2.355436)
      (xy 0.371843 2.325439)
      (xy 0.359898 2.296854)
      (xy 0.357746 2.268909)
      (xy 0.368396 2.214834)
      (xy 0.398805 2.171588)
      (xy 0.446658 2.140967)
      (xy 0.509644 2.124764)
      (xy 0.546382 2.122630)
    )

    (stroke (width 0.000000) (type solid)) (fill solid) (layer "F.SilkS") (tstamp f00d961b-a4c7-41c1-bc8e-fc1fd74c0057))
  (fp_poly
    (pts
      (xy -0.263043 2.150451)
      (xy -0.257484 2.151449)
      (xy -0.228323 2.160745)
      (xy -0.221477 2.173953)
      (xy -0.222022 2.175670)
      (xy -0.221645 2.185590)
      (xy -0.206178 2.186423)
      (xy -0.185705 2.182450)
      (xy -0.125160 2.178405)
      (xy -0.071091 2.192581)
      (xy -0.027572 2.222211)
      (xy 0.001328 2.264525)
      (xy 0.011538 2.316597)
      (xy 0.008658 2.350844)
      (xy 0.001356 2.395678)
      (xy -0.008989 2.445480)
      (xy -0.020997 2.494629)
      (xy -0.033287 2.537504)
      (xy -0.044479 2.568484)
      (xy -0.053192 2.581949)
      (xy -0.053662 2.582089)
      (xy -0.074051 2.581783)
      (xy -0.093147 2.579102)
      (xy -0.112649 2.572734)
      (xy -0.123541 2.559926)
      (xy -0.126254 2.536629)
      (xy -0.121222 2.498790)
      (xy -0.108877 2.442360)
      (xy -0.108088 2.439031)
      (xy -0.096994 2.390045)
      (xy -0.088498 2.348197)
      (xy -0.083916 2.320161)
      (xy -0.083475 2.314334)
      (xy -0.093784 2.285684)
      (xy -0.119778 2.265201)
      (xy -0.154052 2.255068)
      (xy -0.189203 2.257470)
      (xy -0.217828 2.274591)
      (xy -0.217901 2.274672)
      (xy -0.228921 2.294953)
      (xy -0.242954 2.332208)
      (xy -0.257770 2.380144)
      (xy -0.265455 2.408827)
      (xy -0.278986 2.461465)
      (xy -0.289798 2.494752)
      (xy -0.301478 2.512339)
      (xy -0.317608 2.517877)
      (xy -0.341773 2.515015)
      (xy -0.364863 2.510084)
      (xy -0.374258 2.507366)
      (xy -0.379992 2.501648)
      (xy -0.381739 2.489383)
      (xy -0.379174 2.467030)
      (xy -0.371969 2.431042)
      (xy -0.359800 2.377877)
      (xy -0.348157 2.328565)
      (xy -0.333454 2.267154)
      (xy -0.320537 2.214473)
      (xy -0.310443 2.174650)
      (xy -0.304206 2.151812)
      (xy -0.302842 2.148029)
      (xy -0.289988 2.147079)
    )

    (stroke (width 0.000000) (type solid)) (fill solid) (layer "F.SilkS") (tstamp 08c5b5f4-1b27-4490-9d98-82ea19644df7))
  (fp_poly
    (pts
      (xy 1.381183 1.996118)
      (xy 1.392160 2.007328)
      (xy 1.414725 2.033473)
      (xy 1.446308 2.071346)
      (xy 1.484338 2.117738)
      (xy 1.526242 2.169442)
      (xy 1.569451 2.223252)
      (xy 1.611394 2.275958)
      (xy 1.649498 2.324355)
      (xy 1.681194 2.365234)
      (xy 1.703909 2.395388)
      (xy 1.715073 2.411610)
      (xy 1.715730 2.413478)
      (xy 1.702539 2.419413)
      (xy 1.675772 2.429275)
      (xy 1.669483 2.431444)
      (xy 1.646861 2.438209)
      (xy 1.630133 2.437637)
      (xy 1.613125 2.426691)
      (xy 1.589668 2.402331)
      (xy 1.573692 2.384287)
      (xy 1.519638 2.322898)
      (xy 1.442518 2.346511)
      (xy 1.365399 2.370123)
      (xy 1.362283 2.428231)
      (xy 1.358152 2.480902)
      (xy 1.351423 2.514491)
      (xy 1.340322 2.533750)
      (xy 1.323080 2.543431)
      (xy 1.318911 2.544593)
      (xy 1.287563 2.553554)
      (xy 1.269767 2.559627)
      (xy 1.256133 2.561503)
      (xy 1.253634 2.548408)
      (xy 1.256113 2.532847)
      (xy 1.258719 2.509751)
      (xy 1.261734 2.467518)
      (xy 1.264890 2.410853)
      (xy 1.267920 2.344458)
      (xy 1.270000 2.289578)
      (xy 1.271410 2.250120)
      (xy 1.359810 2.250120)
      (xy 1.363202 2.275885)
      (xy 1.374595 2.284619)
      (xy 1.398524 2.279718)
      (xy 1.439523 2.264580)
      (xy 1.440409 2.264248)
      (xy 1.455702 2.255710)
      (xy 1.459274 2.243198)
      (xy 1.449752 2.223134)
      (xy 1.425764 2.191940)
      (xy 1.402085 2.164367)
      (xy 1.360332 2.116667)
      (xy 1.359884 2.203926)
      (xy 1.359810 2.250120)
      (xy 1.271410 2.250120)
      (xy 1.273101 2.202782)
      (xy 1.276055 2.136746)
      (xy 1.279510 2.088396)
      (xy 1.284111 2.054656)
      (xy 1.290504 2.032451)
      (xy 1.299337 2.018704)
      (xy 1.311255 2.010340)
      (xy 1.326905 2.004283)
      (xy 1.330193 2.003193)
      (xy 1.359883 1.995879)
      (xy 1.379656 1.995452)
    )

    (stroke (width 0.000000) (type solid)) (fill solid) (layer "F.SilkS") (tstamp 7216f861-c66e-4108-8008-d4ffb5e55c9a))
  (fp_poly
    (pts
      (xy -0.603159 2.024428)
      (xy -0.565048 2.038119)
      (xy -0.507187 2.075822)
      (xy -0.468092 2.126711)
      (xy -0.449431 2.188306)
      (xy -0.448035 2.212094)
      (xy -0.458470 2.278630)
      (xy -0.487343 2.333846)
      (xy -0.531004 2.375420)
      (xy -0.585803 2.401031)
      (xy -0.648090 2.408358)
      (xy -0.714216 2.395077)
      (xy -0.727418 2.389815)
      (xy -0.783525 2.355415)
      (xy -0.825204 2.309338)
      (xy -0.849652 2.256198)
      (xy -0.853226 2.211174)
      (xy -0.753203 2.211174)
      (xy -0.752928 2.252766)
      (xy -0.738201 2.289374)
      (xy -0.707542 2.315807)
      (xy -0.702011 2.318351)
      (xy -0.653675 2.328828)
      (xy -0.611196 2.316396)
      (xy -0.578226 2.287248)
      (xy -0.553305 2.243813)
      (xy -0.546025 2.198461)
      (xy -0.554720 2.156332)
      (xy -0.577720 2.122570)
      (xy -0.613357 2.102314)
      (xy -0.639395 2.098780)
      (xy -0.682123 2.108400)
      (xy -0.716320 2.133799)
      (xy -0.740507 2.169788)
      (xy -0.753203 2.211174)
      (xy -0.853226 2.211174)
      (xy -0.854064 2.200613)
      (xy -0.851432 2.185682)
      (xy -0.825076 2.117654)
      (xy -0.783819 2.065839)
      (xy -0.730913 2.031913)
      (xy -0.669609 2.017551)
    )

    (stroke (width 0.000000) (type solid)) (fill solid) (layer "F.SilkS") (tstamp 85641b3f-626e-4d48-924d-80f969491af4))
  (fp_poly
    (pts
      (xy 1.961025 1.734148)
      (xy 1.967605 1.746020)
      (xy 1.971838 1.773123)
      (xy 1.973745 1.778933)
      (xy 1.967224 1.793357)
      (xy 1.937169 1.809656)
      (xy 1.919842 1.816259)
      (xy 1.848827 1.850717)
      (xy 1.797739 1.895351)
      (xy 1.767385 1.948049)
      (xy 1.758572 2.006696)
      (xy 1.772109 2.069180)
      (xy 1.802158 2.124254)
      (xy 1.835652 2.155256)
      (xy 1.882116 2.178255)
      (xy 1.931265 2.189127)
      (xy 1.960346 2.187625)
      (xy 2.005331 2.172186)
      (xy 2.055085 2.146210)
      (xy 2.098583 2.115924)
      (xy 2.115635 2.099919)
      (xy 2.133394 2.083155)
      (xy 2.146918 2.083771)
      (xy 2.160339 2.094569)
      (xy 2.178014 2.115978)
      (xy 2.178523 2.136686)
      (xy 2.160642 2.161594)
      (xy 2.138315 2.182587)
      (xy 2.066415 2.233479)
      (xy 1.990523 2.265040)
      (xy 1.914309 2.276507)
      (xy 1.841441 2.267115)
      (xy 1.803207 2.252334)
      (xy 1.751415 2.214856)
      (xy 1.707236 2.160174)
      (xy 1.675573 2.094778)
      (xy 1.669636 2.075497)
      (xy 1.661861 2.003448)
      (xy 1.676422 1.933462)
      (xy 1.711808 1.868138)
      (xy 1.766512 1.810075)
      (xy 1.839024 1.761872)
      (xy 1.856804 1.753042)
      (xy 1.901279 1.736094)
      (xy 1.937527 1.729700)
    )

    (stroke (width 0.000000) (type solid)) (fill solid) (layer "F.SilkS") (tstamp c1b43c31-9598-488d-a0b0-60acc3d44b8a))
  (fp_poly
    (pts
      (xy -0.921921 1.874391)
      (xy -0.896345 1.884055)
      (xy -0.887838 1.887963)
      (xy -0.861340 1.902348)
      (xy -0.852946 1.914862)
      (xy -0.858562 1.932354)
      (xy -0.859829 1.934818)
      (xy -0.876144 1.965516)
      (xy -0.898632 2.007066)
      (xy -0.924888 2.055119)
      (xy -0.952510 2.105326)
      (xy -0.979095 2.153338)
      (xy -1.002241 2.194804)
      (xy -1.019543 2.225375)
      (xy -1.028600 2.240702)
      (xy -1.029359 2.241677)
      (xy -1.039706 2.235799)
      (xy -1.062752 2.221442)
      (xy -1.070259 2.216657)
      (xy -1.095028 2.199667)
      (xy -1.108305 2.188364)
      (xy -1.109014 2.186986)
      (xy -1.103556 2.175619)
      (xy -1.088839 2.147968)
      (xy -1.067349 2.108507)
      (xy -1.041572 2.061709)
      (xy -1.013995 2.012048)
      (xy -0.987104 1.963996)
      (xy -0.963385 1.922028)
      (xy -0.945325 1.890617)
      (xy -0.935410 1.874235)
      (xy -0.934532 1.873051)
    )

    (stroke (width 0.000000) (type solid)) (fill solid) (layer "F.SilkS") (tstamp d420fbf3-a746-47b8-b699-cf78ae384d50))
  (fp_poly
    (pts
      (xy -1.087539 1.660356)
      (xy -1.055321 1.676280)
      (xy -1.043606 1.691469)
      (xy -1.050068 1.712098)
      (xy -1.061539 1.729423)
      (xy -1.077119 1.753102)
      (xy -1.079459 1.768568)
      (xy -1.066056 1.782486)
      (xy -1.034484 1.801477)
      (xy -1.016174 1.820684)
      (xy -1.019657 1.846371)
      (xy -1.031176 1.864578)
      (xy -1.043577 1.878333)
      (xy -1.056023 1.878955)
      (xy -1.077181 1.865947)
      (xy -1.083319 1.861596)
      (xy -1.108312 1.845016)
      (xy -1.124239 1.836669)
      (xy -1.125510 1.836432)
      (xy -1.135561 1.845747)
      (xy -1.153976 1.869874)
      (xy -1.176995 1.903084)
      (xy -1.200859 1.939650)
      (xy -1.221811 1.973842)
      (xy -1.236092 1.999934)
      (xy -1.240188 2.011202)
      (xy -1.231373 2.027376)
      (xy -1.210052 2.047186)
      (xy -1.208964 2.047986)
      (xy -1.188481 2.065527)
      (xy -1.185590 2.080393)
      (xy -1.193945 2.096681)
      (xy -1.213194 2.117288)
      (xy -1.236624 2.119754)
      (xy -1.268093 2.103654)
      (xy -1.291133 2.085987)
      (xy -1.321575 2.054823)
      (xy -1.335779 2.022283)
      (xy -1.333477 1.984659)
      (xy -1.314402 1.938246)
      (xy -1.278287 1.879337)
      (xy -1.275963 1.875900)
      (xy -1.249426 1.836024)
      (xy -1.228965 1.803821)
      (xy -1.217639 1.784175)
      (xy -1.216338 1.780749)
      (xy -1.224763 1.768688)
      (xy -1.236544 1.758700)
      (xy -1.249458 1.746640)
      (xy -1.248484 1.733111)
      (xy -1.236302 1.712717)
      (xy -1.219860 1.692078)
      (xy -1.204942 1.689600)
      (xy -1.191524 1.696365)
      (xy -1.172898 1.704015)
      (xy -1.157741 1.696446)
      (xy -1.143459 1.678960)
      (xy -1.124861 1.657707)
      (xy -1.107625 1.653594)
    )

    (stroke (width 0.000000) (type solid)) (fill solid) (layer "F.SilkS") (tstamp 0374e29e-6cfc-402e-b5e4-ea2fbc7283f2))
  (fp_poly
    (pts
      (xy 2.242576 1.475514)
      (xy 2.257648 1.493592)
      (xy 2.265620 1.507073)
      (xy 2.266276 1.519398)
      (xy 2.257032 1.534801)
      (xy 2.235308 1.557518)
      (xy 2.198520 1.591782)
      (xy 2.196828 1.593334)
      (xy 2.117328 1.666245)
      (xy 2.150397 1.709602)
      (xy 2.172083 1.735549)
      (xy 2.188685 1.751038)
      (xy 2.192930 1.752958)
      (xy 2.205850 1.745619)
      (xy 2.231375 1.726214)
      (xy 2.264404 1.698660)
      (xy 2.270528 1.693334)
      (xy 2.305087 1.664648)
      (xy 2.333934 1.643517)
      (xy 2.351578 1.633911)
      (xy 2.352989 1.633709)
      (xy 2.369542 1.642847)
      (xy 2.383686 1.659924)
      (xy 2.390452 1.673761)
      (xy 2.389351 1.686862)
      (xy 2.377628 1.703604)
      (xy 2.352528 1.728362)
      (xy 2.324784 1.753466)
      (xy 2.249510 1.820793)
      (xy 2.295831 1.876208)
      (xy 2.342152 1.931622)
      (xy 2.372508 1.904394)
      (xy 2.397917 1.881656)
      (xy 2.432610 1.850676)
      (xy 2.461126 1.825248)
      (xy 2.519388 1.773332)
      (xy 2.541353 1.801901)
      (xy 2.557041 1.824293)
      (xy 2.563584 1.837488)
      (xy 2.555278 1.847137)
      (xy 2.532873 1.868666)
      (xy 2.500424 1.898488)
      (xy 2.461986 1.933016)
      (xy 2.421615 1.968663)
      (xy 2.383366 2.001842)
      (xy 2.351294 2.028965)
      (xy 2.329454 2.046446)
      (xy 2.322121 2.051080)
      (xy 2.313192 2.042482)
      (xy 2.291110 2.018473)
      (xy 2.258264 1.981733)
      (xy 2.217044 1.934941)
      (xy 2.169840 1.880775)
      (xy 2.157294 1.866292)
      (xy 2.109085 1.810062)
      (xy 2.066704 1.759656)
      (xy 2.032485 1.717929)
      (xy 2.008760 1.687739)
      (xy 1.997864 1.671941)
      (xy 1.997417 1.670609)
      (xy 2.005929 1.659194)
      (xy 2.028641 1.636370)
      (xy 2.061316 1.605855)
      (xy 2.099720 1.571370)
      (xy 2.139617 1.536635)
      (xy 2.176770 1.505372)
      (xy 2.206945 1.481300)
      (xy 2.225905 1.468140)
      (xy 2.229502 1.466761)
    )

    (stroke (width 0.000000) (type solid)) (fill solid) (layer "F.SilkS") (tstamp 321247f2-6f00-421a-8317-9e45497bdc20))
  (fp_poly
    (pts
      (xy -1.478190 1.469862)
      (xy -1.445882 1.485401)
      (xy -1.382302 1.525207)
      (xy -1.342024 1.569774)
      (xy -1.325015 1.619314)
      (xy -1.331241 1.674035)
      (xy -1.360670 1.734149)
      (xy -1.398495 1.783528)
      (xy -1.431922 1.822497)
      (xy -1.462090 1.858782)
      (xy -1.483116 1.885289)
      (xy -1.484954 1.887760)
      (xy -1.508498 1.919853)
      (xy -1.543215 1.892041)
      (xy -1.563750 1.870980)
      (xy -1.570797 1.853921)
      (xy -1.569942 1.851301)
      (xy -1.574052 1.839837)
      (xy -1.597834 1.830494)
      (xy -1.598535 1.830338)
      (xy -1.629320 1.816924)
      (xy -1.663751 1.792614)
      (xy -1.676151 1.781271)
      (xy -1.703543 1.748873)
      (xy -1.715429 1.718307)
      (xy -1.716135 1.708797)
      (xy -1.626012 1.708797)
      (xy -1.618475 1.734753)
      (xy -1.587577 1.758803)
      (xy -1.556038 1.773226)
      (xy -1.532998 1.773625)
      (xy -1.507611 1.759927)
      (xy -1.505189 1.758244)
      (xy -1.482435 1.735144)
      (xy -1.483361 1.713670)
      (xy -1.503330 1.695605)
      (xy -1.546505 1.672391)
      (xy -1.577855 1.665633)
      (xy -1.602181 1.674688)
      (xy -1.609803 1.681352)
      (xy -1.626012 1.708797)
      (xy -1.716135 1.708797)
      (xy -1.717183 1.694678)
      (xy -1.707633 1.645645)
      (xy -1.681315 1.610275)
      (xy -1.641724 1.589654)
      (xy -1.592358 1.584873)
      (xy -1.536714 1.597017)
      (xy -1.485363 1.622549)
      (xy -1.446325 1.644276)
      (xy -1.422466 1.649957)
      (xy -1.415380 1.646723)
      (xy -1.408861 1.625618)
      (xy -1.420596 1.598877)
      (xy -1.447330 1.571165)
      (xy -1.484411 1.547819)
      (xy -1.520252 1.527794)
      (xy -1.535712 1.510197)
      (xy -1.533211 1.490481)
      (xy -1.523350 1.474710)
      (xy -1.513258 1.464072)
      (xy -1.500304 1.462167)
    )

    (stroke (width 0.000000) (type solid)) (fill solid) (layer "F.SilkS") (tstamp 81d753a4-11bb-4953-9850-dd05d8e0458a))
  (fp_poly
    (pts
      (xy -0.831941 1.768987)
      (xy -0.802061 1.785262)
      (xy -0.792937 1.811838)
      (xy -0.804934 1.844075)
      (xy -0.826261 1.867109)
      (xy -0.850113 1.869454)
      (xy -0.880467 1.853168)
      (xy -0.901281 1.828306)
      (xy -0.902779 1.801849)
      (xy -0.888310 1.779614)
      (xy -0.861229 1.767416)
    )

    (stroke (width 0.000000) (type solid)) (fill solid) (layer "F.SilkS") (tstamp 76a82635-be84-42b5-8d39-252f91d9d332))
  (fp_poly
    (pts
      (xy -1.791509 1.122551)
      (xy -1.774747 1.147327)
      (xy -1.769513 1.165532)
      (xy -1.770268 1.167704)
      (xy -1.765279 1.179452)
      (xy -1.744130 1.194622)
      (xy -1.735536 1.199030)
      (xy -1.689023 1.233586)
      (xy -1.657927 1.283115)
      (xy -1.645695 1.341963)
      (xy -1.645634 1.346506)
      (xy -1.647824 1.376230)
      (xy -1.657098 1.400528)
      (xy -1.677512 1.426994)
      (xy -1.702277 1.452540)
      (xy -1.738249 1.486848)
      (xy -1.777438 1.522054)
      (xy -1.815350 1.554385)
      (xy -1.847490 1.580071)
      (xy -1.869363 1.595339)
      (xy -1.875551 1.597935)
      (xy -1.886800 1.589518)
      (xy -1.905158 1.568968)
      (xy -1.907438 1.566106)
      (xy -1.923469 1.542604)
      (xy -1.929369 1.527483)
      (xy -1.929172 1.526653)
      (xy -1.919292 1.516055)
      (xy -1.895352 1.493666)
      (xy -1.861401 1.463211)
      (xy -1.836432 1.441333)
      (xy -1.794548 1.403965)
      (xy -1.768030 1.376998)
      (xy -1.753535 1.356043)
      (xy -1.747715 1.336716)
      (xy -1.746996 1.324068)
      (xy -1.754818 1.286774)
      (xy -1.778356 1.261085)
      (xy -1.800346 1.248010)
      (xy -1.822151 1.244786)
      (xy -1.847799 1.252948)
      (xy -1.881321 1.274031)
      (xy -1.926746 1.309569)
      (xy -1.944645 1.324405)
      (xy -1.982604 1.355377)
      (xy -2.013825 1.379472)
      (xy -2.033776 1.393257)
      (xy -2.038158 1.395212)
      (xy -2.051460 1.387330)
      (xy -2.072390 1.368058)
      (xy -2.075207 1.365105)
      (xy -2.086505 1.353265)
      (xy -2.093390 1.343394)
      (xy -2.093884 1.332947)
      (xy -2.086012 1.319376)
      (xy -2.067796 1.300136)
      (xy -2.037259 1.272680)
      (xy -1.992423 1.234461)
      (xy -1.938443 1.188952)
      (xy -1.819844 1.088877)
    )

    (stroke (width 0.000000) (type solid)) (fill solid) (layer "F.SilkS") (tstamp 5c6407f8-ec8b-4d77-88c6-ad5c6cf37f2b))
  (fp_poly
    (pts
      (xy -0.734675 -2.475533)
      (xy -0.696389 -2.464841)
      (xy -0.645290 -2.446127)
      (xy -0.585438 -2.421090)
      (xy -0.520895 -2.391431)
      (xy -0.455722 -2.358850)
      (xy -0.393980 -2.325046)
      (xy -0.393226 -2.324611)
      (xy -0.210396 -2.205951)
      (xy -0.042379 -2.070377)
      (xy 0.109553 -1.919508)
      (xy 0.244132 -1.754961)
      (xy 0.360087 -1.578354)
      (xy 0.456149 -1.391305)
      (xy 0.531048 -1.195431)
      (xy 0.554069 -1.117658)
      (xy 0.595890 -0.921354)
      (xy 0.617388 -0.717447)
      (xy 0.618563 -0.510819)
      (xy 0.599416 -0.306348)
      (xy 0.559946 -0.108914)
      (xy 0.554069 -0.086754)
      (xy 0.487981 0.111116)
      (xy 0.400327 0.300895)
      (xy 0.292514 0.480896)
      (xy 0.165948 0.649434)
      (xy 0.022037 0.804822)
      (xy -0.137812 0.945376)
      (xy -0.312193 1.069409)
      (xy -0.498850 1.174814)
      (xy -0.542987 1.195711)
      (xy -0.596067 1.219249)
      (xy -0.653399 1.243540)
      (xy -0.710293 1.266698)
      (xy -0.762060 1.286834)
      (xy -0.804011 1.302063)
      (xy -0.831456 1.310497)
      (xy -0.838674 1.311555)
      (xy -0.848920 1.305969)
      (xy -0.858592 1.299969)
      (xy -0.869430 1.285803)
      (xy -0.862036 1.267374)
      (xy -0.835211 1.243391)
      (xy -0.787761 1.212560)
      (xy -0.765808 1.199770)
      (xy -0.631377 1.114575)
      (xy -0.495850 1.012963)
      (xy -0.364510 0.899681)
      (xy -0.242644 0.779473)
      (xy -0.135535 0.657084)
      (xy -0.080367 0.584320)
      (xy -0.029794 0.507095)
      (xy 0.023986 0.414515)
      (xy 0.077492 0.313453)
      (xy 0.127243 0.210782)
      (xy 0.169760 0.113372)
      (xy 0.201560 0.028098)
      (xy 0.201979 0.026820)
      (xy 0.257837 -0.181786)
      (xy 0.291582 -0.396524)
      (xy 0.303027 -0.614145)
      (xy 0.291987 -0.831401)
      (xy 0.262208 -1.026223)
      (xy 0.207979 -1.233406)
      (xy 0.131679 -1.434224)
      (xy 0.034673 -1.626726)
      (xy -0.081673 -1.808959)
      (xy -0.215992 -1.978973)
      (xy -0.366919 -2.134815)
      (xy -0.533088 -2.274533)
      (xy -0.684361 -2.378578)
      (xy -0.735366 -2.412905)
      (xy -0.765028 -2.439390)
      (xy -0.774128 -2.459099)
      (xy -0.763445 -2.473097)
      (xy -0.756085 -2.476502)
    )

    (stroke (width 0.000000) (type solid)) (fill solid) (layer "F.SilkS") (tstamp 0ecac9ea-7956-465c-b426-171d721b7465))
  (fp_poly
    (pts
      (xy 2.987506 0.885964)
      (xy 2.993163 0.907241)
      (xy 2.993190 0.909273)
      (xy 3.001825 0.944640)
      (xy 3.023574 0.984245)
      (xy 3.052354 1.018178)
      (xy 3.067106 1.029684)
      (xy 3.099130 1.044813)
      (xy 3.133263 1.055129)
      (xy 3.161432 1.065084)
      (xy 3.172013 1.077429)
      (xy 3.162527 1.088488)
      (xy 3.157112 1.090505)
      (xy 3.135036 1.096334)
      (xy 3.107597 1.102739)
      (xy 3.068001 1.121787)
      (xy 3.031618 1.156590)
      (xy 3.005516 1.199365)
      (xy 2.998136 1.223287)
      (xy 2.988794 1.256054)
      (xy 2.977416 1.272257)
      (xy 2.966509 1.268495)
      (xy 2.965723 1.267214)
      (xy 2.958902 1.250672)
      (xy 2.948789 1.221626)
      (xy 2.946736 1.215324)
      (xy 2.918881 1.163461)
      (xy 2.875434 1.122689)
      (xy 2.827008 1.100462)
      (xy 2.793298 1.087863)
      (xy 2.783315 1.074046)
      (xy 2.797055 1.060134)
      (xy 2.827310 1.049090)
      (xy 2.882461 1.024124)
      (xy 2.924872 0.984726)
      (xy 2.949598 0.935786)
      (xy 2.951858 0.925973)
      (xy 2.961887 0.897337)
      (xy 2.975426 0.883332)
    )

    (stroke (width 0.000000) (type solid)) (fill solid) (layer "F.SilkS") (tstamp c7226825-4871-4e75-814d-bf2b3b2226d6))
  (fp_poly
    (pts
      (xy -1.924295 0.925345)
      (xy -1.908294 0.949963)
      (xy -1.907702 0.950919)
      (xy -1.887367 0.983803)
      (xy -2.037792 1.082174)
      (xy -2.090831 1.116484)
      (xy -2.136911 1.145583)
      (xy -2.172330 1.167189)
      (xy -2.193385 1.179019)
      (xy -2.197335 1.180554)
      (xy -2.208896 1.171357)
      (xy -2.225755 1.148656)
      (xy -2.229290 1.143013)
      (xy -2.252127 1.105462)
      (xy -2.096798 1.005033)
      (xy -2.043115 0.970998)
      (xy -1.996589 0.942776)
      (xy -1.960784 0.922429)
      (xy -1.939264 0.912017)
      (xy -1.934753 0.911320)
    )

    (stroke (width 0.000000) (type solid)) (fill solid) (layer "F.SilkS") (tstamp 788d53d0-81fc-4e93-97da-f0b24a3737fe))
  (fp_poly
    (pts
      (xy -2.097037 0.606366)
      (xy -2.084949 0.621456)
      (xy -2.070414 0.637727)
      (xy -2.052849 0.637954)
      (xy -2.036368 0.631296)
      (xy -2.003117 0.624663)
      (xy -1.975610 0.639440)
      (xy -1.955106 0.668869)
      (xy -1.951817 0.685215)
      (xy -1.964226 0.700979)
      (xy -1.985062 0.715227)
      (xy -2.026216 0.740661)
      (xy -2.006088 0.782871)
      (xy -1.993925 0.810771)
      (xy -1.993047 0.826245)
      (xy -2.003870 0.838098)
      (xy -2.008874 0.841836)
      (xy -2.032358 0.855837)
      (xy -2.048497 0.853193)
      (xy -2.064073 0.831471)
      (xy -2.070178 0.819836)
      (xy -2.083936 0.793430)
      (xy -2.092471 0.778239)
      (xy -2.093127 0.777318)
      (xy -2.104815 0.780004)
      (xy -2.131154 0.791446)
      (xy -2.166105 0.808541)
      (xy -2.203630 0.828184)
      (xy -2.237688 0.847272)
      (xy -2.262240 0.862698)
      (xy -2.268267 0.867341)
      (xy -2.281135 0.881931)
      (xy -2.280857 0.897980)
      (xy -2.270369 0.920772)
      (xy -2.259017 0.945548)
      (xy -2.255628 0.959001)
      (xy -2.255905 0.959446)
      (xy -2.270303 0.968155)
      (xy -2.292931 0.979672)
      (xy -2.312274 0.988306)
      (xy -2.317235 0.989766)
      (xy -2.326796 0.980915)
      (xy -2.342395 0.959568)
      (xy -2.342774 0.958990)
      (xy -2.364738 0.910497)
      (xy -2.370149 0.861656)
      (xy -2.358274 0.820088)
      (xy -2.356408 0.817078)
      (xy -2.336934 0.798109)
      (xy -2.302104 0.773608)
      (xy -2.258282 0.747892)
      (xy -2.241598 0.739202)
      (xy -2.199437 0.717315)
      (xy -2.166858 0.699089)
      (xy -2.148679 0.687283)
      (xy -2.146479 0.684764)
      (xy -2.151479 0.670080)
      (xy -2.158604 0.655495)
      (xy -2.163439 0.637819)
      (xy -2.151824 0.623959)
      (xy -2.135989 0.614874)
      (xy -2.111208 0.603901)
    )

    (stroke (width 0.000000) (type solid)) (fill solid) (layer "F.SilkS") (tstamp 8f868e7e-3a04-409c-bb1b-8349a742688a))
  (fp_poly
    (pts
      (xy -1.809243 0.856676)
      (xy -1.790914 0.883621)
      (xy -1.788733 0.900329)
      (xy -1.797699 0.933048)
      (xy -1.820073 0.950611)
      (xy -1.849066 0.950550)
      (xy -1.876321 0.932184)
      (xy -1.893453 0.900611)
      (xy -1.890343 0.871900)
      (xy -1.869384 0.852079)
      (xy -1.842395 0.846667)
    )

    (stroke (width 0.000000) (type solid)) (fill solid) (layer "F.SilkS") (tstamp 8b5c0583-6458-4967-bcf2-4577e14fafb5))
  (fp_poly
    (pts
      (xy -2.221712 0.350443)
      (xy -2.184743 0.387232)
      (xy -2.158528 0.436898)
      (xy -2.146773 0.494070)
      (xy -2.146479 0.504610)
      (xy -2.148277 0.533635)
      (xy -2.157329 0.545928)
      (xy -2.179128 0.548542)
      (xy -2.180684 0.548545)
      (xy -2.202774 0.546108)
      (xy -2.214204 0.534373)
      (xy -2.220463 0.506705)
      (xy -2.221506 0.499205)
      (xy -2.233513 0.452037)
      (xy -2.251343 0.425998)
      (xy -2.270969 0.420890)
      (xy -2.288364 0.436519)
      (xy -2.299499 0.472688)
      (xy -2.301503 0.503090)
      (xy -2.308347 0.566188)
      (xy -2.329181 0.610238)
      (xy -2.364455 0.635827)
      (xy -2.409577 0.643565)
      (xy -2.449861 0.636332)
      (xy -2.483475 0.611151)
      (xy -2.520913 0.558671)
      (xy -2.545107 0.497243)
      (xy -2.551925 0.447567)
      (xy -2.550063 0.419401)
      (xy -2.540003 0.407781)
      (xy -2.515031 0.405449)
      (xy -2.512967 0.405446)
      (xy -2.487540 0.407288)
      (xy -2.476299 0.417489)
      (xy -2.473057 0.443061)
      (xy -2.472816 0.450967)
      (xy -2.466015 0.500625)
      (xy -2.449669 0.533385)
      (xy -2.425365 0.546539)
      (xy -2.416963 0.546287)
      (xy -2.401994 0.541070)
      (xy -2.392851 0.526932)
      (xy -2.387032 0.498156)
      (xy -2.384052 0.471033)
      (xy -2.377929 0.427489)
      (xy -2.369359 0.390195)
      (xy -2.362839 0.372794)
      (xy -2.338562 0.348861)
      (xy -2.301896 0.333780)
      (xy -2.265728 0.331900)
    )

    (stroke (width 0.000000) (type solid)) (fill solid) (layer "F.SilkS") (tstamp 4cec1a8d-06ef-48ff-9e23-f5ddc0339300))
  (fp_poly
    (pts
      (xy -2.396480 -0.091418)
      (xy -2.342882 -0.064125)
      (xy -2.301914 -0.016981)
      (xy -2.292559 -0.000181)
      (xy -2.269975 0.065363)
      (xy -2.269845 0.126628)
      (xy -2.291787 0.181439)
      (xy -2.332286 0.225207)
      (xy -2.358848 0.240705)
      (xy -2.392427 0.253700)
      (xy -2.424580 0.261699)
      (xy -2.446864 0.262208)
      (xy -2.450744 0.260181)
      (xy -2.454951 0.247096)
      (xy -2.462378 0.215672)
      (xy -2.471875 0.171017)
      (xy -2.479670 0.131881)
      (xy -2.490017 0.080573)
      (xy -2.499240 0.038596)
      (xy -2.506163 0.011085)
      (xy -2.508510 0.004732)
      (xy -2.428620 0.004732)
      (xy -2.424833 0.033245)
      (xy -2.418493 0.069759)
      (xy -2.410951 0.106644)
      (xy -2.403559 0.136269)
      (xy -2.402069 0.141109)
      (xy -2.390276 0.152710)
      (xy -2.372123 0.145114)
      (xy -2.352058 0.120388)
      (xy -2.350059 0.116948)
      (xy -2.339492 0.089827)
      (xy -2.343411 0.062567)
      (xy -2.347884 0.050883)
      (xy -2.363565 0.027284)
      (xy -2.386805 0.005906)
      (xy -2.410424 -0.007992)
      (xy -2.427243 -0.009153)
      (xy -2.428502 -0.008149)
      (xy -2.428620 0.004732)
      (xy -2.508510 0.004732)
      (xy -2.509135 0.003041)
      (xy -2.520206 0.006845)
      (xy -2.540439 0.023339)
      (xy -2.545240 0.028006)
      (xy -2.570151 0.069102)
      (xy -2.575116 0.121125)
      (xy -2.559939 0.181634)
      (xy -2.557888 0.186675)
      (xy -2.544689 0.220404)
      (xy -2.542233 0.239455)
      (xy -2.551745 0.251019)
      (xy -2.570465 0.260475)
      (xy -2.589694 0.267332)
      (xy -2.602430 0.262774)
      (xy -2.614726 0.242584)
      (xy -2.623341 0.223633)
      (xy -2.649696 0.142598)
      (xy -2.653669 0.069506)
      (xy -2.635257 0.004486)
      (xy -2.633146 0.000273)
      (xy -2.595364 -0.052154)
      (xy -2.545427 -0.084819)
      (xy -2.481361 -0.098889)
      (xy -2.464026 -0.099623)
    )

    (stroke (width 0.000000) (type solid)) (fill solid) (layer "F.SilkS") (tstamp 37ff0e7d-ffbe-4ab7-aa80-8ae425e29ccb))
  (fp_poly
    (pts
      (xy -1.397431 -0.299942)
      (xy -1.384338 -0.273059)
      (xy -1.381715 -0.262465)
      (xy -1.366206 -0.226100)
      (xy -1.338117 -0.190033)
      (xy -1.304009 -0.160686)
      (xy -1.270445 -0.144479)
      (xy -1.259711 -0.143098)
      (xy -1.236230 -0.137774)
      (xy -1.216855 -0.125498)
      (xy -1.208237 -0.111812)
      (xy -1.212778 -0.103989)
      (xy -1.230021 -0.098391)
      (xy -1.259874 -0.091790)
      (xy -1.264930 -0.090854)
      (xy -1.312045 -0.071304)
      (xy -1.351700 -0.034708)
      (xy -1.377386 0.012146)
      (xy -1.382154 0.031370)
      (xy -1.391250 0.062010)
      (xy -1.404219 0.079773)
      (xy -1.417066 0.081015)
      (xy -1.424022 0.069560)
      (xy -1.430077 0.046812)
      (xy -1.436803 0.017888)
      (xy -1.458249 -0.029138)
      (xy -1.496317 -0.067135)
      (xy -1.543896 -0.089422)
      (xy -1.552975 -0.091257)
      (xy -1.584123 -0.098755)
      (xy -1.603800 -0.108131)
      (xy -1.605689 -0.110223)
      (xy -1.604113 -0.125142)
      (xy -1.584955 -0.137287)
      (xy -1.554461 -0.142867)
      (xy -1.551813 -0.142916)
      (xy -1.520811 -0.153042)
      (xy -1.487103 -0.178597)
      (xy -1.456880 -0.212880)
      (xy -1.436329 -0.249190)
      (xy -1.430986 -0.273743)
      (xy -1.425632 -0.301401)
      (xy -1.412822 -0.309762)
    )

    (stroke (width 0.000000) (type solid)) (fill solid) (layer "F.SilkS") (tstamp 36973ab2-5ed5-4181-b8d1-5bde12f960bb))
  (fp_poly
    (pts
      (xy -2.583225 -0.676399)
      (xy -2.519921 -0.675397)
      (xy -2.447399 -0.673441)
      (xy -2.426697 -0.672751)
      (xy -2.179848 -0.664181)
      (xy -2.184189 -0.525869)
      (xy -2.190105 -0.437209)
      (xy -2.202524 -0.368116)
      (xy -2.222843 -0.314861)
      (xy -2.252457 -0.273718)
      (xy -2.290228 -0.242614)
      (xy -2.344700 -0.218367)
      (xy -2.410148 -0.206773)
      (xy -2.476758 -0.208802)
      (xy -2.521423 -0.219789)
      (xy -2.580969 -0.248446)
      (xy -2.624456 -0.286752)
      (xy -2.659175 -0.340772)
      (xy -2.672572 -0.369283)
      (xy -2.681275 -0.396558)
      (xy -2.686269 -0.428903)
      (xy -2.688536 -0.472624)
      (xy -2.689000 -0.525441)
      (xy -2.616721 -0.525441)
      (xy -2.613669 -0.484029)
      (xy -2.607699 -0.442283)
      (xy -2.599521 -0.407863)
      (xy -2.594372 -0.394892)
      (xy -2.557539 -0.347720)
      (xy -2.506858 -0.317615)
      (xy -2.446203 -0.305687)
      (xy -2.379452 -0.313050)
      (xy -2.346326 -0.323785)
      (xy -2.307862 -0.351373)
      (xy -2.278804 -0.398339)
      (xy -2.260829 -0.461497)
      (xy -2.256851 -0.493745)
      (xy -2.250840 -0.568629)
      (xy -2.427891 -0.575802)
      (xy -2.490399 -0.577914)
      (xy -2.544090 -0.578929)
      (xy -2.584629 -0.578828)
      (xy -2.607683 -0.577592)
      (xy -2.611227 -0.576632)
      (xy -2.616144 -0.558862)
      (xy -2.616721 -0.525441)
      (xy -2.689000 -0.525441)
      (xy -2.689061 -0.532326)
      (xy -2.688406 -0.586509)
      (xy -2.686630 -0.631580)
      (xy -2.684015 -0.662390)
      (xy -2.681304 -0.673563)
      (xy -2.667570 -0.675493)
      (xy -2.633659 -0.676435)
    )

    (stroke (width 0.000000) (type solid)) (fill solid) (layer "F.SilkS") (tstamp fcc835ad-2cf5-4ff0-900e-010798f681bf))
  (fp_poly
    (pts
      (xy -1.116222 -2.963128)
      (xy -1.105414 -2.931040)
      (xy -1.082186 -2.881426)
      (xy -1.040496 -2.839690)
      (xy -0.986914 -2.811576)
      (xy -0.959572 -2.799193)
      (xy -0.945784 -2.787161)
      (xy -0.945356 -2.784460)
      (xy -0.957087 -2.773888)
      (xy -0.984161 -2.760734)
      (xy -1.000544 -2.754647)
      (xy -1.055144 -2.725222)
      (xy -1.091769 -2.680178)
      (xy -1.107536 -2.634826)
      (xy -1.118348 -2.602649)
      (xy -1.131403 -2.592137)
      (xy -1.143893 -2.603871)
      (xy -1.150836 -2.625823)
      (xy -1.162101 -2.662622)
      (xy -1.176420 -2.692611)
      (xy -1.203992 -2.722612)
      (xy -1.242069 -2.748550)
      (xy -1.280741 -2.764339)
      (xy -1.296831 -2.766528)
      (xy -1.319431 -2.771855)
      (xy -1.323479 -2.784203)
      (xy -1.310850 -2.798282)
      (xy -1.283422 -2.808802)
      (xy -1.281726 -2.809134)
      (xy -1.231050 -2.830013)
      (xy -1.188804 -2.869110)
      (xy -1.160514 -2.920970)
      (xy -1.157085 -2.932144)
      (xy -1.143881 -2.966194)
      (xy -1.129841 -2.976513)
    )

    (stroke (width 0.000000) (type solid)) (fill solid) (layer "F.SilkS") (tstamp a60b4922-6035-4f20-a6c8-1ede545eb911))
  (fp_poly
    (pts
      (xy 1.557314 -3.047643)
      (xy 1.562204 -3.025939)
      (xy 1.572688 -2.984529)
      (xy 1.599921 -2.942525)
      (xy 1.637773 -2.906060)
      (xy 1.680110 -2.881265)
      (xy 1.714202 -2.873941)
      (xy 1.736485 -2.868631)
      (xy 1.740163 -2.856413)
      (xy 1.727052 -2.842698)
      (xy 1.700505 -2.833173)
      (xy 1.650786 -2.814119)
      (xy 1.607577 -2.780065)
      (xy 1.576308 -2.736878)
      (xy 1.562410 -2.690426)
      (xy 1.562159 -2.683690)
      (xy 1.557127 -2.662500)
      (xy 1.545344 -2.659747)
      (xy 1.531776 -2.673098)
      (xy 1.521392 -2.700218)
      (xy 1.520809 -2.703118)
      (xy 1.501142 -2.750833)
      (xy 1.464914 -2.793376)
      (xy 1.419329 -2.823545)
      (xy 1.391381 -2.832546)
      (xy 1.363186 -2.842424)
      (xy 1.348559 -2.855913)
      (xy 1.349834 -2.868045)
      (xy 1.369347 -2.873853)
      (xy 1.371953 -2.873896)
      (xy 1.418391 -2.884790)
      (xy 1.462424 -2.913850)
      (xy 1.498185 -2.955648)
      (xy 1.519807 -3.004752)
      (xy 1.521436 -3.012242)
      (xy 1.531525 -3.039699)
      (xy 1.545288 -3.052105)
    )

    (stroke (width 0.000000) (type solid)) (fill solid) (layer "F.SilkS") (tstamp ffa7c796-d520-4e4c-b642-862713a87689))
)
