(footprint "GCT_USB4105-GF-A" (version 20221018) (generator pcbnew)
  (layer "F.Cu")
  (attr smd)
  (fp_text reference "REF**" (at 0 -2.54) (layer "F.Fab")
      (effects (font (size 1 1) (thickness 0.15)))
    (tstamp 5bcf64af-f1d5-4913-b655-91da8c1e95f8)
  )
  (fp_text value "GCT_USB4105-GF-A" (at 0 0) (layer "F.Fab")
      (effects (font (size 1 1) (thickness 0.15)))
    (tstamp 7c26c9de-e791-4dec-845b-fde361973186)
  )
  (fp_text user "PCB EDGE" (at 5.4 2.5) (layer "F.Fab")
      (effects (font (size 0.32 0.32) (thickness 0.08)))
    (tstamp 44afa22c-0fef-49f0-9854-03492918ac12)
  )
  (fp_line (start -4.79 -2.65) (end -4.79 -1.4)
    (stroke (width 0.2) (type solid)) (layer "F.SilkS") (tstamp 9de39e08-b8e3-4bab-88fb-44fce434ba51))
  (fp_line (start -4.79 1.32) (end -4.79 2.6)
    (stroke (width 0.2) (type solid)) (layer "F.SilkS") (tstamp 9bee52eb-c13f-4011-8f59-9518c92ddec7))
  (fp_line (start -4.79 2.6) (end 4.79 2.6)
    (stroke (width 0.2) (type solid)) (layer "F.SilkS") (tstamp 6cf4a415-bd3c-42b5-b649-f35a6476bc7d))
  (fp_line (start 4.79 -2.65) (end 4.79 -1.4)
    (stroke (width 0.2) (type solid)) (layer "F.SilkS") (tstamp 6771a497-1e28-4c5a-a068-a58273146fd5))
  (fp_line (start 4.79 2.6) (end 4.79 1.32)
    (stroke (width 0.2) (type solid)) (layer "F.SilkS") (tstamp 23e8e813-0658-4a75-b00b-048a82ea63e1))
  (fp_line (start -5.1 -5.58) (end -5.1 2.85)
    (stroke (width 0.05) (type solid)) (layer "F.CrtYd") (tstamp 34cb5415-04e3-4772-af80-14d7004da8b8))
  (fp_line (start -5.1 2.85) (end 5.1 2.85)
    (stroke (width 0.05) (type solid)) (layer "F.CrtYd") (tstamp 6f153dd3-ac3f-49ca-adbb-1d3e57b1820e))
  (fp_line (start 5.1 -5.58) (end -5.1 -5.58)
    (stroke (width 0.05) (type solid)) (layer "F.CrtYd") (tstamp 89dbc4e3-296e-4ab8-9d2d-8554c4758b72))
  (fp_line (start 5.1 2.85) (end 5.1 -5.58)
    (stroke (width 0.05) (type solid)) (layer "F.CrtYd") (tstamp ba7610e5-037d-49b0-b9c5-b46d698ec37c))
  (fp_line (start -4.79 -4.93) (end 4.79 -4.93)
    (stroke (width 0.1) (type solid)) (layer "F.Fab") (tstamp 0602635d-75b3-40fd-ba29-1beaf1fb9278))
  (fp_line (start -4.79 2.6) (end -4.79 -4.93)
    (stroke (width 0.1) (type solid)) (layer "F.Fab") (tstamp e7ff4b76-7392-43bd-ae79-97f08266566f))
  (fp_line (start 4.79 -4.93) (end 4.79 2.6)
    (stroke (width 0.1) (type solid)) (layer "F.Fab") (tstamp 5ceb905a-98df-4558-9418-9a43572fda50))
  (fp_line (start 4.79 2.6) (end -4.79 2.6)
    (stroke (width 0.1) (type solid)) (layer "F.Fab") (tstamp a6a3bb99-1d14-45f9-9fb0-e5c02a5449ff))
  (fp_line (start 4.8 2.6) (end 8.4 2.6)
    (stroke (width 0.1) (type solid)) (layer "F.Fab") (tstamp c1857426-38a9-4495-879e-bbb9a4a97d74))
  (pad "" np_thru_hole circle (at -2.89 -3.68) (size 0.65 0.65) (drill 0.65) (layers "*.Cu" "*.Mask") (tstamp 7092956b-b751-44de-bdc2-cac2a7639221))
  (pad "" np_thru_hole circle (at 2.89 -3.68) (size 0.65 0.65) (drill 0.65) (layers "*.Cu" "*.Mask") (tstamp 8fadea4d-24b4-427d-adba-77201ed93a28))
  (pad "A4" smd rect (at -2.4 -4.755) (size 0.6 1.15) (layers "F.Cu" "F.Paste" "F.Mask") (tstamp 81446df0-c160-4f6e-ac67-c50a218cf509))
  (pad "A5" smd rect (at -1.25 -4.755) (size 0.3 1.15) (layers "F.Cu" "F.Paste" "F.Mask") (tstamp 9231f693-3fa4-41cf-ab0e-57f2b8a2eb5a))
  (pad "A6" smd rect (at -0.25 -4.755) (size 0.3 1.15) (layers "F.Cu" "F.Paste" "F.Mask") (tstamp fe28449f-2e93-4134-bb8b-5ccaf8620844))
  (pad "A7" smd rect (at 0.25 -4.755) (size 0.3 1.15) (layers "F.Cu" "F.Paste" "F.Mask") (tstamp 9ccd2dca-956b-4c93-b1f8-bd936584e622))
  (pad "A8" smd rect (at 1.25 -4.755) (size 0.3 1.15) (layers "F.Cu" "F.Paste" "F.Mask") (tstamp 425b169c-e9d0-49a1-9930-93bc42481833))
  (pad "A12" smd rect (at 3.2 -4.755) (size 0.6 1.15) (layers "F.Cu" "F.Paste" "F.Mask") (tstamp d8d2cd00-8d5a-4c8e-8ca0-4b498f5077be))
  (pad "B4" smd rect (at 2.4 -4.755) (size 0.6 1.15) (layers "F.Cu" "F.Paste" "F.Mask") (tstamp 4e1e2d64-2c8b-4e1c-84a9-9e7fa7701db4))
  (pad "B5" smd rect (at 1.75 -4.755) (size 0.3 1.15) (layers "F.Cu" "F.Paste" "F.Mask") (tstamp 4141cfcd-af40-44e8-9da4-12837b3b01db))
  (pad "B6" smd rect (at 0.75 -4.755) (size 0.3 1.15) (layers "F.Cu" "F.Paste" "F.Mask") (tstamp f6a871f9-c2ec-4c37-9e04-b798c60c9724))
  (pad "B7" smd rect (at -0.75 -4.755) (size 0.3 1.15) (layers "F.Cu" "F.Paste" "F.Mask") (tstamp 8adfd255-c782-40cb-a5ae-07d338090849))
  (pad "B8" smd rect (at -1.75 -4.755) (size 0.3 1.15) (layers "F.Cu" "F.Paste" "F.Mask") (tstamp 0e98ce5d-4f8d-440d-9ce7-a0354ab98399))
  (pad "B12" smd rect (at -3.2 -4.755) (size 0.6 1.15) (layers "F.Cu" "F.Paste" "F.Mask") (tstamp 5f240fa0-ac4d-4264-9364-63e658c998b2))
  (pad "S1" thru_hole oval (at -4.32 -4.18) (size 1.05 2.1) (drill oval 0.6 1.7) (layers "*.Cu" "*.Mask") (tstamp ae3aea6b-c3df-4b6c-8471-18ad11948514))
  (pad "S2" thru_hole oval (at -4.32 0) (size 1 2) (drill oval 0.6 1.4) (layers "*.Cu" "*.Mask") (tstamp ff4413ae-432b-4dbb-8dd3-93897118cd65))
  (pad "S3" thru_hole oval (at 4.32 0) (size 1 2) (drill oval 0.6 1.4) (layers "*.Cu" "*.Mask") (tstamp db4103e3-b1c5-4924-a09a-b38dc6b37581))
  (pad "S4" thru_hole oval (at 4.32 -4.18) (size 1.05 2.1) (drill oval 0.6 1.7) (layers "*.Cu" "*.Mask") (tstamp f679fbf5-f9a0-49ae-a237-19d7b1199bb3))
  (model "E:/OneDrive/work/destinationSpace/development/hardware/.sharedResources/kicad/Destination_Space_Master/.models/USB4105-GF-A.step"
    (offset (xyz 0 0 0))
    (scale (xyz 1 1 1))
    (rotate (xyz -90 0 0))
  )
)
