(kicad_symbol_lib (version 20220914) (generator kicad_symbol_editor)
  (symbol "Duel-NMOS" (in_bom yes) (on_board yes)
    (property "Reference" "Q" (at 0 2.54 0)
      (effects (font (size 1.27 1.27)))
    )
    (property "Value" "" (at 0 0 0)
      (effects (font (size 1.27 1.27)))
    )
    (property "Footprint" "" (at 0 0 0)
      (effects (font (size 1.27 1.27)) hide)
    )
    (property "Datasheet" "" (at 0 0 0)
      (effects (font (size 1.27 1.27)) hide)
    )
    (symbol "Duel-NMOS_0_1"
      (circle (center -1.778 0) (radius 0.254)
        (stroke (width 0) (type default))
        (fill (type outline))
      )
      (polyline
        (pts
          (xy -2.54 0)
          (xy -1.778 0)
        )
        (stroke (width 0) (type default))
        (fill (type none))
      )
      (polyline
        (pts
          (xy -2.286 -1.778)
          (xy -1.27 -1.778)
        )
        (stroke (width 0.254) (type default))
        (fill (type none))
      )
      (polyline
        (pts
          (xy -1.905 -2.286)
          (xy 1.905 -2.286)
        )
        (stroke (width 0.254) (type default))
        (fill (type none))
      )
      (polyline
        (pts
          (xy -0.508 -1.778)
          (xy 0.508 -1.778)
        )
        (stroke (width 0.254) (type default))
        (fill (type none))
      )
      (polyline
        (pts
          (xy 0 -2.54)
          (xy 0 -2.286)
        )
        (stroke (width 0) (type default))
        (fill (type none))
      )
      (polyline
        (pts
          (xy 1.27 -1.778)
          (xy 2.286 -1.778)
        )
        (stroke (width 0.254) (type default))
        (fill (type none))
      )
      (polyline
        (pts
          (xy 2.54 0)
          (xy 0 0)
          (xy 0 -1.778)
        )
        (stroke (width 0) (type default))
        (fill (type none))
      )
      (polyline
        (pts
          (xy -0.508 0.254)
          (xy -0.381 0.381)
          (xy -0.381 1.143)
          (xy -0.254 1.27)
        )
        (stroke (width 0) (type default))
        (fill (type none))
      )
      (polyline
        (pts
          (xy -0.381 0.762)
          (xy 0.254 0.381)
          (xy 0.254 1.143)
          (xy -0.381 0.762)
        )
        (stroke (width 0) (type default))
        (fill (type none))
      )
      (polyline
        (pts
          (xy 0 -1.524)
          (xy -0.381 -0.508)
          (xy 0.381 -0.508)
          (xy 0 -1.524)
        )
        (stroke (width 0) (type default))
        (fill (type outline))
      )
      (polyline
        (pts
          (xy 1.778 -1.778)
          (xy 1.778 0.762)
          (xy -1.778 0.762)
          (xy -1.778 -1.778)
        )
        (stroke (width 0) (type default))
        (fill (type none))
      )
      (circle (center 1.778 0) (radius 0.254)
        (stroke (width 0) (type default))
        (fill (type outline))
      )
    )
    (symbol "Duel-NMOS_1_1"
      (pin passive line (at 5.08 0 180) (length 2.54)
        (name "" (effects (font (size 1.27 1.27))))
        (number "1" (effects (font (size 1.27 1.27))))
      )
      (pin input line (at 0 -5.08 90) (length 2.54)
        (name "" (effects (font (size 1.27 1.27))))
        (number "2" (effects (font (size 1.27 1.27))))
      )
      (pin passive line (at -5.08 0 0) (length 2.54)
        (name "" (effects (font (size 1.27 1.27))))
        (number "6" (effects (font (size 1.27 1.27))))
      )
    )
    (symbol "Duel-NMOS_2_1"
      (pin passive line (at -5.08 0 0) (length 2.54)
        (name "" (effects (font (size 1.27 1.27))))
        (number "3" (effects (font (size 1.27 1.27))))
      )
      (pin passive line (at 5.08 0 180) (length 2.54)
        (name "" (effects (font (size 1.27 1.27))))
        (number "4" (effects (font (size 1.27 1.27))))
      )
      (pin input line (at 0 -5.08 90) (length 2.54)
        (name "" (effects (font (size 1.27 1.27))))
        (number "5" (effects (font (size 1.27 1.27))))
      )
    )
  )
  (symbol "NMOS_GSD" (pin_names hide) (in_bom yes) (on_board yes)
    (property "Reference" "Q" (at 0 1.778 0)
      (effects (font (size 1.27 1.27)) (justify bottom))
    )
    (property "Value" "" (at 0 2.54 90)
      (effects (font (size 1.27 1.27)) (justify left))
    )
    (property "Footprint" "" (at 1.905 2.54 90)
      (effects (font (size 1.27 1.27) italic) (justify left) hide)
    )
    (property "Datasheet" "" (at 0 -2.54 90)
      (effects (font (size 1.27 1.27)) (justify left) hide)
    )
    (property "ki_description" "N-Channel MOSFET" (at 0 0 0)
      (effects (font (size 1.27 1.27)) hide)
    )
    (property "ki_fp_filters" "SOT?23*" (at 0 0 0)
      (effects (font (size 1.27 1.27)) hide)
    )
    (symbol "NMOS_GSD_0_1"
      (polyline
        (pts
          (xy -3.175 -1.27)
          (xy -1.905 -1.27)
        )
        (stroke (width 0) (type default))
        (fill (type none))
      )
      (polyline
        (pts
          (xy -0.635 -1.27)
          (xy 0.635 -1.27)
        )
        (stroke (width 0) (type default))
        (fill (type none))
      )
      (polyline
        (pts
          (xy 0 0)
          (xy 0 -0.508)
        )
        (stroke (width 0) (type default))
        (fill (type none))
      )
      (polyline
        (pts
          (xy 1.905 -1.27)
          (xy 3.175 -1.27)
        )
        (stroke (width 0) (type default))
        (fill (type none))
      )
      (polyline
        (pts
          (xy -2.54 -1.27)
          (xy -2.54 0)
          (xy -3.175 0)
        )
        (stroke (width 0) (type default))
        (fill (type none))
      )
      (polyline
        (pts
          (xy 2.54 -1.27)
          (xy 2.54 0)
          (xy 3.175 0)
        )
        (stroke (width 0) (type default))
        (fill (type none))
      )
    )
    (symbol "NMOS_GSD_1_0"
      (pin passive line (at 0 -5.08 90) (length 3.175)
        (name "" (effects (font (size 1.27 1.27))))
        (number "1" (effects (font (size 1.27 1.27))))
      )
      (pin passive line (at 5.08 0 180) (length 1.905)
        (name "" (effects (font (size 1.27 1.27))))
        (number "2" (effects (font (size 1.27 1.27))))
      )
      (pin passive line (at -5.08 0 0) (length 1.905)
        (name "" (effects (font (size 1.27 1.27))))
        (number "3" (effects (font (size 1.27 1.27))))
      )
    )
    (symbol "NMOS_GSD_1_1"
      (circle (center -2.54 0) (radius 0.1796)
        (stroke (width 0) (type default))
        (fill (type outline))
      )
      (polyline
        (pts
          (xy -3.175 -1.905)
          (xy 3.175 -1.905)
        )
        (stroke (width 0) (type default))
        (fill (type none))
      )
      (polyline
        (pts
          (xy -0.381 1.651)
          (xy -0.381 0.889)
        )
        (stroke (width 0) (type default))
        (fill (type none))
      )
      (polyline
        (pts
          (xy 0 0)
          (xy 2.54 0)
        )
        (stroke (width 0) (type default))
        (fill (type none))
      )
      (polyline
        (pts
          (xy -2.54 0)
          (xy -2.54 1.27)
          (xy -0.381 1.27)
        )
        (stroke (width 0) (type default))
        (fill (type none))
      )
      (polyline
        (pts
          (xy 0.381 1.27)
          (xy 2.54 1.27)
          (xy 2.54 0)
        )
        (stroke (width 0) (type default))
        (fill (type none))
      )
      (polyline
        (pts
          (xy -0.381 1.27)
          (xy 0.381 0.889)
          (xy 0.381 1.651)
          (xy -0.381 1.27)
        )
        (stroke (width 0) (type default))
        (fill (type outline))
      )
      (polyline
        (pts
          (xy 0 -1.27)
          (xy 0.381 -0.508)
          (xy -0.381 -0.508)
          (xy 0 -1.27)
        )
        (stroke (width 0) (type default))
        (fill (type outline))
      )
      (circle (center 2.54 0) (radius 0.1796)
        (stroke (width 0) (type default))
        (fill (type outline))
      )
    )
  )
  (symbol "PMOS_DGS" (in_bom yes) (on_board yes)
    (property "Reference" "Q" (at 0 2.54 0)
      (effects (font (size 1.27 1.27)))
    )
    (property "Value" "" (at 0 0 0)
      (effects (font (size 1.27 1.27)))
    )
    (property "Footprint" "" (at 0 0 0)
      (effects (font (size 1.27 1.27)) hide)
    )
    (property "Datasheet" "" (at 0 0 0)
      (effects (font (size 1.27 1.27)) hide)
    )
    (symbol "PMOS_DGS_0_1"
      (polyline
        (pts
          (xy -3.175 -1.27)
          (xy -1.905 -1.27)
        )
        (stroke (width 0) (type default))
        (fill (type none))
      )
      (polyline
        (pts
          (xy -0.635 -1.27)
          (xy 0.635 -1.27)
        )
        (stroke (width 0) (type default))
        (fill (type none))
      )
      (polyline
        (pts
          (xy 0 -0.635)
          (xy 0 -1.27)
        )
        (stroke (width 0) (type default))
        (fill (type none))
      )
      (polyline
        (pts
          (xy 1.905 -1.27)
          (xy 3.175 -1.27)
        )
        (stroke (width 0) (type default))
        (fill (type none))
      )
      (polyline
        (pts
          (xy -2.54 -1.27)
          (xy -2.54 0)
          (xy -3.175 0)
        )
        (stroke (width 0) (type default))
        (fill (type none))
      )
      (polyline
        (pts
          (xy 2.54 -1.27)
          (xy 2.54 0)
          (xy 3.175 0)
        )
        (stroke (width 0) (type default))
        (fill (type none))
      )
    )
    (symbol "PMOS_DGS_1_0"
      (pin passive line (at -5.08 0 0) (length 1.905)
        (name "" (effects (font (size 1.27 1.27))))
        (number "1" (effects (font (size 1.27 1.27))))
      )
      (pin passive line (at 0 -5.08 90) (length 3.175)
        (name "" (effects (font (size 1.27 1.27))))
        (number "2" (effects (font (size 1.27 1.27))))
      )
      (pin passive line (at 5.08 0 180) (length 1.905)
        (name "" (effects (font (size 1.27 1.27))))
        (number "3" (effects (font (size 1.27 1.27))))
      )
    )
    (symbol "PMOS_DGS_1_1"
      (circle (center -2.54 0) (radius 0.1796)
        (stroke (width 0) (type default))
        (fill (type outline))
      )
      (polyline
        (pts
          (xy -3.175 -1.905)
          (xy 3.175 -1.905)
        )
        (stroke (width 0) (type default))
        (fill (type none))
      )
      (polyline
        (pts
          (xy 0 0)
          (xy 2.54 0)
        )
        (stroke (width 0) (type default))
        (fill (type none))
      )
      (polyline
        (pts
          (xy 0.381 1.651)
          (xy 0.381 0.889)
        )
        (stroke (width 0) (type default))
        (fill (type none))
      )
      (polyline
        (pts
          (xy -2.54 0)
          (xy -2.54 1.27)
          (xy -0.381 1.27)
        )
        (stroke (width 0) (type default))
        (fill (type none))
      )
      (polyline
        (pts
          (xy 0.381 1.27)
          (xy 2.54 1.27)
          (xy 2.54 0)
        )
        (stroke (width 0) (type default))
        (fill (type none))
      )
      (polyline
        (pts
          (xy 0 0)
          (xy -0.381 -0.762)
          (xy 0.381 -0.762)
          (xy 0 0)
        )
        (stroke (width 0) (type default))
        (fill (type outline))
      )
      (polyline
        (pts
          (xy 0.381 1.27)
          (xy -0.381 1.651)
          (xy -0.381 0.889)
          (xy 0.381 1.27)
        )
        (stroke (width 0) (type default))
        (fill (type outline))
      )
      (circle (center 2.54 0) (radius 0.1796)
        (stroke (width 0) (type default))
        (fill (type outline))
      )
    )
  )
)
