(kicad_symbol_lib (version 20220914) (generator kicad_symbol_editor)
<<<<<<< HEAD
  (symbol "11AAxxx" (in_bom yes) (on_board yes)
    (property "Reference" "U" (at 0 5.08 0) (do_not_autoplace)
      (effects (font (size 1.27 1.27)))
    )
    (property "Value" "11AAxxx" (at 0 -5.08 0) (do_not_autoplace)
      (effects (font (size 1.27 1.27)))
=======
  (symbol "11AAXXXX-X/TT" (in_bom yes) (on_board yes)
    (property "Reference" "U" (at -5.08 6.35 0) (do_not_autoplace)
      (effects (font (size 1.27 1.27)) (justify left))
    )
    (property "Value" "VAL" (at 1.27 -6.35 0) (do_not_autoplace)
      (effects (font (size 1.27 1.27)) (justify left))
>>>>>>> d3abc78ac0b556332d0dc9778c335129fbadf071
    )
    (property "Footprint" "" (at 0 0 0)
      (effects (font (size 1.27 1.27)) hide)
    )
<<<<<<< HEAD
    (property "Datasheet" "" (at 0 0 0)
=======
    (property "Datasheet" "~" (at 0 0 0)
>>>>>>> d3abc78ac0b556332d0dc9778c335129fbadf071
      (effects (font (size 1.27 1.27)) hide)
    )
    (property "Manufacturer" "Microchip" (at 0 0 0)
      (effects (font (size 1.27 1.27)) hide)
    )
    (property "mpn" "~" (at 0 0 0)
      (effects (font (size 1.27 1.27)) hide)
    )
    (property "populate" "1" (at 0 0 0)
      (effects (font (size 1.27 1.27)) hide)
    )
    (property "ki_description" "EEPROM Memory IC Single Wire 100 kHz SOT-23-3" (at 0 0 0)
      (effects (font (size 1.27 1.27)) hide)
    )
<<<<<<< HEAD
    (symbol "11AAxxx_0_1"
      (rectangle (start -3.81 3.81) (end 3.81 -3.81)
        (stroke (width 0) (type default))
        (fill (type none))
      )
    )
    (symbol "11AAxxx_1_1"
      (pin bidirectional line (at 6.35 -2.54 180) (length 2.54)
        (name "SCIO" (effects (font (size 1.27 1.27))))
        (number "1" (effects (font (size 1.27 1.27))))
      )
      (pin power_in line (at 6.35 2.54 180) (length 2.54)
        (name "VCC" (effects (font (size 1.27 1.27))))
        (number "2" (effects (font (size 1.27 1.27))))
      )
      (pin passive line (at -6.35 0 0) (length 2.54)
=======
    (symbol "11AAXXXX-X/TT_1_1"
      (rectangle (start -5.08 5.08) (end 5.08 -5.08)
        (stroke (width 0) (type default))
        (fill (type background))
      )
      (pin bidirectional line (at -7.62 0 0) (length 2.54)
        (name "SCIO" (effects (font (size 1.27 1.27))))
        (number "1" (effects (font (size 1.27 1.27))))
      )
      (pin power_in line (at 0 7.62 270) (length 2.54)
        (name "VCC" (effects (font (size 1.27 1.27))))
        (number "2" (effects (font (size 1.27 1.27))))
      )
      (pin passive line (at 0 -7.62 90) (length 2.54)
>>>>>>> d3abc78ac0b556332d0dc9778c335129fbadf071
        (name "VSS" (effects (font (size 1.27 1.27))))
        (number "3" (effects (font (size 1.27 1.27))))
      )
    )
  )
  (symbol "microSD" (in_bom yes) (on_board yes)
    (property "Reference" "J" (at -16.51 17.78 0)
      (effects (font (size 1.27 1.27)))
    )
    (property "Value" "microSD" (at 16.51 17.78 0)
      (effects (font (size 1.27 1.27)) (justify right))
    )
    (property "Footprint" "" (at 52.07 17.78 0)
      (effects (font (size 1.27 1.27)) hide)
    )
    (property "Datasheet" "https://www.hirose.com/en/product/document?clcode=&productname=&series=DM3&documenttype=Catalog&lang=en&documentid=D49662_en" (at 2.54 2.54 0)
      (effects (font (size 1.27 1.27)) hide)
    )
    (property "ki_keywords" "connector SD microsd" (at 0 0 0)
      (effects (font (size 1.27 1.27)) hide)
    )
    (property "ki_description" "Micro SD Card Socket with two card detection pins" (at 0 0 0)
      (effects (font (size 1.27 1.27)) hide)
    )
    (property "ki_fp_filters" "microSD*" (at 0 0 0)
      (effects (font (size 1.27 1.27)) hide)
    )
    (symbol "microSD_0_1"
      (rectangle (start -7.62 -6.985) (end -5.08 -8.255)
        (stroke (width 0.254) (type default))
        (fill (type outline))
      )
      (rectangle (start -7.62 -4.445) (end -5.08 -5.715)
        (stroke (width 0.254) (type default))
        (fill (type outline))
      )
      (rectangle (start -7.62 -1.905) (end -5.08 -3.175)
        (stroke (width 0.254) (type default))
        (fill (type outline))
      )
      (rectangle (start -7.62 0.635) (end -5.08 -0.635)
        (stroke (width 0.254) (type default))
        (fill (type outline))
      )
      (rectangle (start -7.62 3.175) (end -5.08 1.905)
        (stroke (width 0.254) (type default))
        (fill (type outline))
      )
      (rectangle (start -7.62 5.715) (end -5.08 4.445)
        (stroke (width 0.254) (type default))
        (fill (type outline))
      )
      (rectangle (start -7.62 8.255) (end -5.08 6.985)
        (stroke (width 0.254) (type default))
        (fill (type outline))
      )
      (rectangle (start -7.62 10.795) (end -5.08 9.525)
        (stroke (width 0.254) (type default))
        (fill (type outline))
      )
      (polyline
        (pts
          (xy 16.51 15.24)
          (xy 16.51 16.51)
          (xy -19.05 16.51)
          (xy -19.05 -16.51)
          (xy 16.51 -16.51)
          (xy 16.51 -8.89)
        )
        (stroke (width 0.254) (type default))
        (fill (type background))
      )
      (polyline
        (pts
          (xy -8.89 -8.89)
          (xy -8.89 11.43)
          (xy -1.27 11.43)
          (xy 2.54 15.24)
          (xy 3.81 15.24)
          (xy 3.81 13.97)
          (xy 6.35 13.97)
          (xy 7.62 15.24)
          (xy 20.32 15.24)
          (xy 20.32 -8.89)
          (xy -8.89 -8.89)
        )
        (stroke (width 0.254) (type default))
        (fill (type background))
      )
    )
    (symbol "microSD_1_1"
      (pin bidirectional line (at -22.86 10.16 0) (length 3.81)
        (name "DAT2" (effects (font (size 1.27 1.27))))
        (number "1" (effects (font (size 1.27 1.27))))
      )
      (pin passive line (at -22.86 -10.16 0) (length 3.81)
        (name "DET_A" (effects (font (size 1.27 1.27))))
        (number "10" (effects (font (size 1.27 1.27))))
      )
      (pin passive line (at 20.32 -12.7 180) (length 3.81)
        (name "SHIELD" (effects (font (size 1.27 1.27))))
        (number "11" (effects (font (size 1.27 1.27))))
      )
      (pin bidirectional line (at -22.86 7.62 0) (length 3.81)
        (name "DAT3/CD" (effects (font (size 1.27 1.27))))
        (number "2" (effects (font (size 1.27 1.27))))
      )
      (pin input line (at -22.86 5.08 0) (length 3.81)
        (name "CMD" (effects (font (size 1.27 1.27))))
        (number "3" (effects (font (size 1.27 1.27))))
      )
      (pin power_in line (at -22.86 2.54 0) (length 3.81)
        (name "VDD" (effects (font (size 1.27 1.27))))
        (number "4" (effects (font (size 1.27 1.27))))
      )
      (pin input line (at -22.86 0 0) (length 3.81)
        (name "CLK" (effects (font (size 1.27 1.27))))
        (number "5" (effects (font (size 1.27 1.27))))
      )
      (pin power_in line (at -22.86 -2.54 0) (length 3.81)
        (name "VSS" (effects (font (size 1.27 1.27))))
        (number "6" (effects (font (size 1.27 1.27))))
      )
      (pin bidirectional line (at -22.86 -5.08 0) (length 3.81)
        (name "DAT0" (effects (font (size 1.27 1.27))))
        (number "7" (effects (font (size 1.27 1.27))))
      )
      (pin bidirectional line (at -22.86 -7.62 0) (length 3.81)
        (name "DAT1" (effects (font (size 1.27 1.27))))
        (number "8" (effects (font (size 1.27 1.27))))
      )
      (pin passive line (at -22.86 -12.7 0) (length 3.81)
        (name "DET_B" (effects (font (size 1.27 1.27))))
        (number "9" (effects (font (size 1.27 1.27))))
      )
    )
  )
)
